A01_01_ground_truth.png , 451 , 1256 , 35 , alive
A01_02_ground_truth.png , 368 , 1256 , 29 , alive
A01_03_ground_truth.png , 467 , 1256 , 37 , alive
A01_04_ground_truth.png , 420 , 1256 , 33 , alive
A01_05_ground_truth.png , 707 , 1256 , 56 , alive
A01_06_ground_truth.png , 619 , 1256 , 49 , alive
A01_07_ground_truth.png , 337 , 1256 , 26 , alive
A01_08_ground_truth.png , 412 , 1256 , 32 , alive
A01_09_ground_truth.png , 402 , 1256 , 32 , alive
A01_10_ground_truth.png , 468 , 1256 , 37 , alive
A01_11_ground_truth.png , 390 , 1256 , 31 , alive
A01_12_ground_truth.png , 455 , 1256 , 36 , alive
A01_13_ground_truth.png , 466 , 1256 , 37 , alive
A01_14_ground_truth.png , 377 , 1256 , 30 , alive
A01_15_ground_truth.png , 761 , 1256 , 60 , alive
A02_01_ground_truth.png , 442 , 1256 , 35 , alive
A02_02_ground_truth.png , 380 , 1256 , 30 , alive
A02_03_ground_truth.png , 372 , 1256 , 29 , alive
A02_04_ground_truth.png , 365 , 1256 , 29 , alive
A02_05_ground_truth.png , 389 , 1256 , 30 , alive
A02_06_ground_truth.png , 398 , 1256 , 31 , alive
A02_07_ground_truth.png , 404 , 1256 , 32 , alive
A02_08_ground_truth.png , 406 , 1256 , 32 , alive
A02_09_ground_truth.png , 367 , 1256 , 29 , alive
A02_10_ground_truth.png , 378 , 1256 , 30 , alive
A02_11_ground_truth.png , 392 , 1256 , 31 , alive
A02_12_ground_truth.png , 377 , 1256 , 30 , alive
A02_13_ground_truth.png , 382 , 1256 , 30 , alive
A02_14_ground_truth.png , 427 , 1256 , 33 , alive
A02_15_ground_truth.png , 366 , 1256 , 29 , alive
A03_01_ground_truth.png , 420 , 1256 , 33 , alive
A03_02_ground_truth.png , 402 , 1256 , 32 , alive
A03_03_ground_truth.png , 396 , 1256 , 31 , alive
A03_04_ground_truth.png , 366 , 1256 , 29 , alive
A03_05_ground_truth.png , 373 , 1256 , 29 , alive
A03_06_ground_truth.png , 387 , 1256 , 30 , alive
A03_07_ground_truth.png , 367 , 1256 , 29 , alive
A03_08_ground_truth.png , 404 , 1256 , 32 , alive
A03_09_ground_truth.png , 347 , 1256 , 27 , alive
A03_10_ground_truth.png , 369 , 1256 , 29 , alive
A03_11_ground_truth.png , 355 , 1256 , 28 , alive
A03_12_ground_truth.png , 408 , 1256 , 32 , alive
A03_13_ground_truth.png , 792 , 1256 , 63 , alive
A03_14_ground_truth.png , 317 , 1256 , 25 , dead
A03_15_ground_truth.png , 775 , 1256 , 61 , alive
A04_01_ground_truth.png , 408 , 1256 , 32 , alive
A04_02_ground_truth.png , 783 , 1256 , 62 , alive
A04_03_ground_truth.png , 406 , 1256 , 32 , alive
A04_04_ground_truth.png , 391 , 1256 , 31 , alive
A04_05_ground_truth.png , 402 , 1256 , 32 , alive
A04_06_ground_truth.png , 411 , 1256 , 32 , alive
A04_07_ground_truth.png , 420 , 1256 , 33 , alive
A04_08_ground_truth.png , 321 , 1256 , 25 , dead
A04_09_ground_truth.png , 362 , 1256 , 28 , alive
A04_10_ground_truth.png , 398 , 1256 , 31 , alive
A04_11_ground_truth.png , 346 , 1256 , 27 , alive
A04_12_ground_truth.png , 422 , 1256 , 33 , alive
A04_13_ground_truth.png , 358 , 1256 , 28 , alive
A04_14_ground_truth.png , 355 , 1256 , 28 , alive
A04_15_ground_truth.png , 652 , 1256 , 51 , alive
A05_01_ground_truth.png , 361 , 1256 , 28 , alive
A05_02_ground_truth.png , 396 , 1256 , 31 , alive
A05_03_ground_truth.png , 386 , 1256 , 30 , alive
A05_04_ground_truth.png , 404 , 1256 , 32 , alive
A05_05_ground_truth.png , 361 , 1256 , 28 , alive
A05_06_ground_truth.png , 378 , 1256 , 30 , alive
A05_07_ground_truth.png , 548 , 1256 , 43 , alive
A05_08_ground_truth.png , 475 , 1256 , 37 , alive
A05_09_ground_truth.png , 336 , 1256 , 26 , alive
A05_10_ground_truth.png , 385 , 1256 , 30 , alive
A05_11_ground_truth.png , 386 , 1256 , 30 , alive
A05_12_ground_truth.png , 362 , 1256 , 28 , alive
A05_13_ground_truth.png , 407 , 1256 , 32 , alive
A05_14_ground_truth.png , 416 , 1256 , 33 , alive
A05_15_ground_truth.png , 400 , 1256 , 31 , alive
A06_01_ground_truth.png , 373 , 1256 , 29 , alive
A06_02_ground_truth.png , 446 , 1256 , 35 , alive
A06_03_ground_truth.png , 401 , 1256 , 31 , alive
A06_04_ground_truth.png , 328 , 1256 , 26 , alive
A06_05_ground_truth.png , 413 , 1256 , 32 , alive
A06_06_ground_truth.png , 366 , 1256 , 29 , alive
A06_07_ground_truth.png , 421 , 1256 , 33 , alive
A06_08_ground_truth.png , 458 , 1256 , 36 , alive
A06_09_ground_truth.png , 317 , 1256 , 25 , dead
A06_10_ground_truth.png , 431 , 1256 , 34 , alive
A06_11_ground_truth.png , 386 , 1256 , 30 , alive
A06_12_ground_truth.png , 411 , 1256 , 32 , alive
A06_13_ground_truth.png , 334 , 1256 , 26 , alive
A06_14_ground_truth.png , 720 , 1256 , 57 , alive
A06_15_ground_truth.png , 392 , 1256 , 31 , alive
A07_01_ground_truth.png , 420 , 1256 , 33 , alive
A07_02_ground_truth.png , 403 , 1256 , 32 , alive
A07_03_ground_truth.png , 402 , 1256 , 32 , alive
A07_04_ground_truth.png , 392 , 1256 , 31 , alive
A07_05_ground_truth.png , 397 , 1256 , 31 , alive
A07_06_ground_truth.png , 387 , 1256 , 30 , alive
A07_07_ground_truth.png , 357 , 1256 , 28 , alive
A07_08_ground_truth.png , 390 , 1256 , 31 , alive
A07_09_ground_truth.png , 376 , 1256 , 29 , alive
A07_10_ground_truth.png , 465 , 1256 , 37 , alive
A07_11_ground_truth.png , 427 , 1256 , 33 , alive
A07_12_ground_truth.png , 410 , 1256 , 32 , alive
A07_13_ground_truth.png , 418 , 1256 , 33 , alive
A07_14_ground_truth.png , 340 , 1256 , 27 , alive
A08_01_ground_truth.png , 421 , 1256 , 33 , alive
A08_02_ground_truth.png , 443 , 1256 , 35 , alive
A08_03_ground_truth.png , 394 , 1256 , 31 , alive
A08_04_ground_truth.png , 366 , 1256 , 29 , alive
A08_05_ground_truth.png , 434 , 1256 , 34 , alive
A08_06_ground_truth.png , 378 , 1256 , 30 , alive
A08_07_ground_truth.png , 792 , 1256 , 63 , alive
A08_08_ground_truth.png , 461 , 1256 , 36 , alive
A08_09_ground_truth.png , 435 , 1256 , 34 , alive
A08_10_ground_truth.png , 356 , 1256 , 28 , alive
A08_11_ground_truth.png , 430 , 1256 , 34 , alive
A08_12_ground_truth.png , 458 , 1256 , 36 , alive
A08_13_ground_truth.png , 360 , 1256 , 28 , alive
A08_14_ground_truth.png , 414 , 1256 , 32 , alive
A08_15_ground_truth.png , 395 , 1256 , 31 , alive
A09_01_ground_truth.png , 377 , 1256 , 30 , alive
A09_02_ground_truth.png , 359 , 1256 , 28 , alive
A09_03_ground_truth.png , 351 , 1256 , 27 , alive
A09_04_ground_truth.png , 376 , 1256 , 29 , alive
A09_06_ground_truth.png , 350 , 1256 , 27 , alive
A09_07_ground_truth.png , 360 , 1256 , 28 , alive
A09_08_ground_truth.png , 409 , 1256 , 32 , alive
A09_09_ground_truth.png , 414 , 1256 , 32 , alive
A09_10_ground_truth.png , 373 , 1256 , 29 , alive
A09_11_ground_truth.png , 396 , 1256 , 31 , alive
A09_12_ground_truth.png , 356 , 1256 , 28 , alive
A09_13_ground_truth.png , 387 , 1256 , 30 , alive
A09_14_ground_truth.png , 772 , 1256 , 61 , alive
A09_15_ground_truth.png , 383 , 1256 , 30 , alive
A09_16_ground_truth.png , 401 , 1256 , 31 , alive
A10_01_ground_truth.png , 376 , 1256 , 29 , alive
A10_02_ground_truth.png , 348 , 1256 , 27 , alive
A10_03_ground_truth.png , 339 , 1256 , 26 , alive
A10_04_ground_truth.png , 386 , 1256 , 30 , alive
A10_05_ground_truth.png , 318 , 1256 , 25 , dead
A10_06_ground_truth.png , 406 , 1256 , 32 , alive
A10_07_ground_truth.png , 396 , 1256 , 31 , alive
A10_08_ground_truth.png , 375 , 1256 , 29 , alive
A10_09_ground_truth.png , 412 , 1256 , 32 , alive
A10_10_ground_truth.png , 362 , 1256 , 28 , alive
A10_11_ground_truth.png , 402 , 1256 , 32 , alive
A10_12_ground_truth.png , 394 , 1256 , 31 , alive
A10_13_ground_truth.png , 412 , 1256 , 32 , alive
A10_14_ground_truth.png , 353 , 1256 , 28 , alive
A10_15_ground_truth.png , 349 , 1256 , 27 , alive
A11_01_ground_truth.png , 382 , 1256 , 30 , alive
A11_02_ground_truth.png , 385 , 1256 , 30 , alive
A11_03_ground_truth.png , 361 , 1256 , 28 , alive
A11_04_ground_truth.png , 398 , 1256 , 31 , alive
A11_05_ground_truth.png , 381 , 1256 , 30 , alive
A11_06_ground_truth.png , 358 , 1256 , 28 , alive
A11_07_ground_truth.png , 329 , 1256 , 26 , alive
A11_08_ground_truth.png , 387 , 1256 , 30 , alive
A11_09_ground_truth.png , 379 , 1256 , 30 , alive
A11_10_ground_truth.png , 388 , 1256 , 30 , alive
A11_11_ground_truth.png , 409 , 1256 , 32 , alive
A11_12_ground_truth.png , 324 , 1256 , 25 , dead
A11_13_ground_truth.png , 411 , 1256 , 32 , alive
A11_14_ground_truth.png , 380 , 1256 , 30 , alive
A11_15_ground_truth.png , 419 , 1256 , 33 , alive
A12_01_ground_truth.png , 402 , 1256 , 32 , alive
A12_02_ground_truth.png , 370 , 1256 , 29 , alive
A12_03_ground_truth.png , 397 , 1256 , 31 , alive
A12_04_ground_truth.png , 365 , 1256 , 29 , alive
A12_05_ground_truth.png , 363 , 1256 , 28 , alive
A12_06_ground_truth.png , 370 , 1256 , 29 , alive
A12_07_ground_truth.png , 430 , 1256 , 34 , alive
A12_08_ground_truth.png , 374 , 1256 , 29 , alive
A12_09_ground_truth.png , 437 , 1256 , 34 , alive
A12_10_ground_truth.png , 384 , 1256 , 30 , alive
A12_11_ground_truth.png , 576 , 1256 , 45 , alive
A12_12_ground_truth.png , 565 , 1256 , 44 , alive
A12_13_ground_truth.png , 368 , 1256 , 29 , alive
A12_14_ground_truth.png , 377 , 1256 , 30 , alive
A12_15_ground_truth.png , 375 , 1256 , 29 , alive
A13_01_ground_truth.png , 334 , 1256 , 26 , alive
A13_02_ground_truth.png , 349 , 1256 , 27 , alive
A13_03_ground_truth.png , 369 , 1256 , 29 , alive
A13_04_ground_truth.png , 330 , 1256 , 26 , alive
A13_05_ground_truth.png , 343 , 1256 , 27 , alive
A13_06_ground_truth.png , 378 , 1256 , 30 , alive
A13_07_ground_truth.png , 310 , 1256 , 24 , dead
A13_08_ground_truth.png , 340 , 1256 , 27 , alive
A13_09_ground_truth.png , 371 , 1256 , 29 , alive
A13_10_ground_truth.png , 389 , 1256 , 30 , alive
A13_11_ground_truth.png , 384 , 1256 , 30 , alive
A13_12_ground_truth.png , 420 , 1256 , 33 , alive
A13_13_ground_truth.png , 327 , 1256 , 26 , alive
A13_14_ground_truth.png , 387 , 1256 , 30 , alive
A14_01_ground_truth.png , 419 , 1256 , 33 , alive
A14_02_ground_truth.png , 301 , 1256 , 23 , dead
A14_03_ground_truth.png , 285 , 1256 , 22 , dead
A14_04_ground_truth.png , 401 , 1256 , 31 , alive
A14_05_ground_truth.png , 478 , 1256 , 38 , alive
A14_06_ground_truth.png , 344 , 1256 , 27 , alive
A14_07_ground_truth.png , 365 , 1256 , 29 , alive
A14_08_ground_truth.png , 406 , 1256 , 32 , alive
A14_09_ground_truth.png , 404 , 1256 , 32 , alive
A14_10_ground_truth.png , 424 , 1256 , 33 , alive
A14_11_ground_truth.png , 440 , 1256 , 35 , alive
A14_12_ground_truth.png , 358 , 1256 , 28 , alive
A14_13_ground_truth.png , 376 , 1256 , 29 , alive
A14_14_ground_truth.png , 296 , 1256 , 23 , dead
A14_15_ground_truth.png , 421 , 1256 , 33 , alive
A15_01_ground_truth.png , 347 , 1256 , 27 , alive
A15_02_ground_truth.png , 326 , 1256 , 25 , dead
A15_03_ground_truth.png , 391 , 1256 , 31 , alive
A15_04_ground_truth.png , 299 , 1256 , 23 , dead
A15_05_ground_truth.png , 353 , 1256 , 28 , alive
A15_06_ground_truth.png , 349 , 1256 , 27 , alive
A15_07_ground_truth.png , 312 , 1256 , 24 , dead
A15_08_ground_truth.png , 332 , 1256 , 26 , alive
A15_09_ground_truth.png , 387 , 1256 , 30 , alive
A15_10_ground_truth.png , 386 , 1256 , 30 , alive
A15_11_ground_truth.png , 382 , 1256 , 30 , alive
A15_12_ground_truth.png , 350 , 1256 , 27 , alive
A15_13_ground_truth.png , 304 , 1256 , 24 , dead
A15_14_ground_truth.png , 409 , 1256 , 32 , alive
A15_15_ground_truth.png , 349 , 1256 , 27 , alive
A16_01_ground_truth.png , 349 , 1256 , 27 , alive
A16_02_ground_truth.png , 346 , 1256 , 27 , alive
A16_03_ground_truth.png , 348 , 1256 , 27 , alive
A16_04_ground_truth.png , 334 , 1256 , 26 , alive
A16_05_ground_truth.png , 333 , 1256 , 26 , alive
A16_06_ground_truth.png , 369 , 1256 , 29 , alive
A16_07_ground_truth.png , 387 , 1256 , 30 , alive
A16_08_ground_truth.png , 333 , 1256 , 26 , alive
A16_09_ground_truth.png , 332 , 1256 , 26 , alive
A16_10_ground_truth.png , 350 , 1256 , 27 , alive
A16_12_ground_truth.png , 427 , 1256 , 33 , alive
A16_13_ground_truth.png , 381 , 1256 , 30 , alive
A16_14_ground_truth.png , 424 , 1256 , 33 , alive
A17_01_ground_truth.png , 387 , 1256 , 30 , alive
A17_02_ground_truth.png , 392 , 1256 , 31 , alive
A17_03_ground_truth.png , 427 , 1256 , 33 , alive
A17_04_ground_truth.png , 294 , 1256 , 23 , dead
A17_05_ground_truth.png , 398 , 1256 , 31 , alive
A17_06_ground_truth.png , 351 , 1256 , 27 , alive
A17_07_ground_truth.png , 370 , 1256 , 29 , alive
A17_08_ground_truth.png , 353 , 1256 , 28 , alive
A17_09_ground_truth.png , 371 , 1256 , 29 , alive
A17_10_ground_truth.png , 396 , 1256 , 31 , alive
A17_11_ground_truth.png , 363 , 1256 , 28 , alive
A17_12_ground_truth.png , 418 , 1256 , 33 , alive
A17_13_ground_truth.png , 365 , 1256 , 29 , alive
A17_14_ground_truth.png , 383 , 1256 , 30 , alive
A18_01_ground_truth.png , 393 , 1256 , 31 , alive
A18_02_ground_truth.png , 351 , 1256 , 27 , alive
A18_03_ground_truth.png , 357 , 1256 , 28 , alive
A18_04_ground_truth.png , 311 , 1256 , 24 , dead
A18_05_ground_truth.png , 337 , 1256 , 26 , alive
A18_06_ground_truth.png , 368 , 1256 , 29 , alive
A18_07_ground_truth.png , 326 , 1256 , 25 , dead
A18_08_ground_truth.png , 402 , 1256 , 32 , alive
A18_09_ground_truth.png , 302 , 1256 , 24 , dead
A18_10_ground_truth.png , 469 , 1256 , 37 , alive
A18_11_ground_truth.png , 436 , 1256 , 34 , alive
A18_12_ground_truth.png , 389 , 1256 , 30 , alive
A18_13_ground_truth.png , 324 , 1256 , 25 , dead
A18_14_ground_truth.png , 361 , 1256 , 28 , alive
A19_01_ground_truth.png , 391 , 1256 , 31 , alive
A19_02_ground_truth.png , 370 , 1256 , 29 , alive
A19_03_ground_truth.png , 319 , 1256 , 25 , dead
A19_04_ground_truth.png , 416 , 1256 , 33 , alive
A19_05_ground_truth.png , 426 , 1256 , 33 , alive
A19_06_ground_truth.png , 355 , 1256 , 28 , alive
A19_07_ground_truth.png , 387 , 1256 , 30 , alive
A19_08_ground_truth.png , 368 , 1256 , 29 , alive
A19_09_ground_truth.png , 336 , 1256 , 26 , alive
A19_10_ground_truth.png , 421 , 1256 , 33 , alive
A19_11_ground_truth.png , 472 , 1256 , 37 , alive
A19_12_ground_truth.png , 336 , 1256 , 26 , alive
A20_01_ground_truth.png , 338 , 1256 , 26 , alive
A20_02_ground_truth.png , 397 , 1256 , 31 , alive
A20_03_ground_truth.png , 340 , 1256 , 27 , alive
A20_04_ground_truth.png , 349 , 1256 , 27 , alive
A20_05_ground_truth.png , 332 , 1256 , 26 , alive
A20_06_ground_truth.png , 379 , 1256 , 30 , alive
A20_07_ground_truth.png , 329 , 1256 , 26 , alive
A20_08_ground_truth.png , 403 , 1256 , 32 , alive
A20_09_ground_truth.png , 389 , 1256 , 30 , alive
A20_10_ground_truth.png , 396 , 1256 , 31 , alive
A20_11_ground_truth.png , 393 , 1256 , 31 , alive
A20_12_ground_truth.png , 345 , 1256 , 27 , alive
A20_13_ground_truth.png , 329 , 1256 , 26 , alive
A20_14_ground_truth.png , 337 , 1256 , 26 , alive
A21_01_ground_truth.png , 402 , 1256 , 32 , alive
A21_02_ground_truth.png , 276 , 1256 , 21 , dead
A21_03_ground_truth.png , 334 , 1256 , 26 , alive
A21_04_ground_truth.png , 314 , 1256 , 25 , dead
A21_05_ground_truth.png , 372 , 1256 , 29 , alive
A21_06_ground_truth.png , 376 , 1256 , 29 , alive
A21_07_ground_truth.png , 366 , 1256 , 29 , alive
A21_08_ground_truth.png , 340 , 1256 , 27 , alive
A21_09_ground_truth.png , 332 , 1256 , 26 , alive
A21_10_ground_truth.png , 352 , 1256 , 28 , alive
A21_11_ground_truth.png , 424 , 1256 , 33 , alive
A21_12_ground_truth.png , 322 , 1256 , 25 , dead
A21_13_ground_truth.png , 374 , 1256 , 29 , alive
A21_14_ground_truth.png , 336 , 1256 , 26 , alive
A22_01_ground_truth.png , 353 , 1256 , 28 , alive
A22_02_ground_truth.png , 379 , 1256 , 30 , alive
A22_03_ground_truth.png , 288 , 1256 , 22 , dead
A22_04_ground_truth.png , 293 , 1256 , 23 , dead
A22_05_ground_truth.png , 349 , 1256 , 27 , alive
A22_06_ground_truth.png , 275 , 1256 , 21 , dead
A22_07_ground_truth.png , 355 , 1256 , 28 , alive
A22_08_ground_truth.png , 355 , 1256 , 28 , alive
A22_09_ground_truth.png , 418 , 1256 , 33 , alive
A22_10_ground_truth.png , 339 , 1256 , 26 , alive
A22_11_ground_truth.png , 375 , 1256 , 29 , alive
A22_12_ground_truth.png , 300 , 1256 , 23 , dead
A22_13_ground_truth.png , 322 , 1256 , 25 , dead
A22_14_ground_truth.png , 293 , 1256 , 23 , dead
A22_15_ground_truth.png , 331 , 1256 , 26 , alive
A23_01_ground_truth.png , 365 , 1256 , 29 , alive
A23_02_ground_truth.png , 414 , 1256 , 32 , alive
A23_03_ground_truth.png , 325 , 1256 , 25 , dead
A23_04_ground_truth.png , 314 , 1256 , 25 , dead
A23_05_ground_truth.png , 434 , 1256 , 34 , alive
A23_06_ground_truth.png , 376 , 1256 , 29 , alive
A23_07_ground_truth.png , 401 , 1256 , 31 , alive
A23_08_ground_truth.png , 469 , 1256 , 37 , alive
A23_09_ground_truth.png , 408 , 1256 , 32 , alive
A23_10_ground_truth.png , 398 , 1256 , 31 , alive
A23_11_ground_truth.png , 364 , 1256 , 28 , alive
A23_12_ground_truth.png , 338 , 1256 , 26 , alive
A24_01_ground_truth.png , 353 , 1256 , 28 , alive
A24_02_ground_truth.png , 372 , 1256 , 29 , alive
A24_03_ground_truth.png , 335 , 1256 , 26 , alive
A24_04_ground_truth.png , 374 , 1256 , 29 , alive
A24_05_ground_truth.png , 402 , 1256 , 32 , alive
A24_06_ground_truth.png , 391 , 1256 , 31 , alive
A24_07_ground_truth.png , 334 , 1256 , 26 , alive
A24_08_ground_truth.png , 357 , 1256 , 28 , alive
A24_09_ground_truth.png , 369 , 1256 , 29 , alive
A24_10_ground_truth.png , 337 , 1256 , 26 , alive
A24_11_ground_truth.png , 345 , 1256 , 27 , alive
A24_12_ground_truth.png , 387 , 1256 , 30 , alive
A24_13_ground_truth.png , 391 , 1256 , 31 , alive
A24_14_ground_truth.png , 385 , 1256 , 30 , alive
B01_01_ground_truth.png , 425 , 1256 , 33 , alive
B01_02_ground_truth.png , 416 , 1256 , 33 , alive
B01_03_ground_truth.png , 402 , 1256 , 32 , alive
B01_04_ground_truth.png , 389 , 1256 , 30 , alive
B01_05_ground_truth.png , 325 , 1256 , 25 , dead
B01_06_ground_truth.png , 357 , 1256 , 28 , alive
B01_07_ground_truth.png , 417 , 1256 , 33 , alive
B01_08_ground_truth.png , 443 , 1256 , 35 , alive
B01_09_ground_truth.png , 431 , 1256 , 34 , alive
B01_10_ground_truth.png , 408 , 1256 , 32 , alive
B01_11_ground_truth.png , 420 , 1256 , 33 , alive
B01_12_ground_truth.png , 419 , 1256 , 33 , alive
B01_13_ground_truth.png , 401 , 1256 , 31 , alive
B01_14_ground_truth.png , 397 , 1256 , 31 , alive
B01_15_ground_truth.png , 324 , 1256 , 25 , dead
B02_01_ground_truth.png , 409 , 1256 , 32 , alive
B02_02_ground_truth.png , 347 , 1256 , 27 , alive
B02_03_ground_truth.png , 596 , 1256 , 47 , alive
B02_04_ground_truth.png , 361 , 1256 , 28 , alive
B02_05_ground_truth.png , 392 , 1256 , 31 , alive
B02_06_ground_truth.png , 391 , 1256 , 31 , alive
B02_07_ground_truth.png , 403 , 1256 , 32 , alive
B02_08_ground_truth.png , 340 , 1256 , 27 , alive
B02_09_ground_truth.png , 362 , 1256 , 28 , alive
B02_10_ground_truth.png , 392 , 1256 , 31 , alive
B02_11_ground_truth.png , 446 , 1256 , 35 , alive
B02_12_ground_truth.png , 407 , 1256 , 32 , alive
B02_13_ground_truth.png , 381 , 1256 , 30 , alive
B02_14_ground_truth.png , 314 , 1256 , 25 , dead
B02_15_ground_truth.png , 417 , 1256 , 33 , alive
B03_01_ground_truth.png , 411 , 1256 , 32 , alive
B03_02_ground_truth.png , 389 , 1256 , 30 , alive
B03_03_ground_truth.png , 349 , 1256 , 27 , alive
B03_04_ground_truth.png , 360 , 1256 , 28 , alive
B03_05_ground_truth.png , 368 , 1256 , 29 , alive
B03_06_ground_truth.png , 372 , 1256 , 29 , alive
B03_07_ground_truth.png , 419 , 1256 , 33 , alive
B03_08_ground_truth.png , 366 , 1256 , 29 , alive
B03_09_ground_truth.png , 394 , 1256 , 31 , alive
B03_10_ground_truth.png , 405 , 1256 , 32 , alive
B03_11_ground_truth.png , 496 , 1256 , 39 , alive
B03_12_ground_truth.png , 710 , 1256 , 56 , alive
B03_13_ground_truth.png , 395 , 1256 , 31 , alive
B03_14_ground_truth.png , 373 , 1256 , 29 , alive
B03_15_ground_truth.png , 384 , 1256 , 30 , alive
B04_01_ground_truth.png , 352 , 1256 , 28 , alive
B04_02_ground_truth.png , 646 , 1256 , 51 , alive
B04_03_ground_truth.png , 338 , 1256 , 26 , alive
B04_04_ground_truth.png , 329 , 1256 , 26 , alive
B04_05_ground_truth.png , 346 , 1256 , 27 , alive
B04_06_ground_truth.png , 435 , 1256 , 34 , alive
B04_07_ground_truth.png , 416 , 1256 , 33 , alive
B04_08_ground_truth.png , 452 , 1256 , 35 , alive
B04_09_ground_truth.png , 404 , 1256 , 32 , alive
B04_10_ground_truth.png , 426 , 1256 , 33 , alive
B04_11_ground_truth.png , 393 , 1256 , 31 , alive
B04_12_ground_truth.png , 363 , 1256 , 28 , alive
B04_13_ground_truth.png , 451 , 1256 , 35 , alive
B04_14_ground_truth.png , 382 , 1256 , 30 , alive
B04_15_ground_truth.png , 308 , 1256 , 24 , dead
B05_01_ground_truth.png , 414 , 1256 , 32 , alive
B05_02_ground_truth.png , 376 , 1256 , 29 , alive
B05_03_ground_truth.png , 425 , 1256 , 33 , alive
B05_04_ground_truth.png , 405 , 1256 , 32 , alive
B05_05_ground_truth.png , 412 , 1256 , 32 , alive
B05_06_ground_truth.png , 422 , 1256 , 33 , alive
B05_07_ground_truth.png , 402 , 1256 , 32 , alive
B05_08_ground_truth.png , 329 , 1256 , 26 , alive
B05_09_ground_truth.png , 356 , 1256 , 28 , alive
B05_10_ground_truth.png , 578 , 1256 , 46 , alive
B05_11_ground_truth.png , 564 , 1256 , 44 , alive
B05_12_ground_truth.png , 352 , 1256 , 28 , alive
B05_13_ground_truth.png , 412 , 1256 , 32 , alive
B05_14_ground_truth.png , 375 , 1256 , 29 , alive
B06_01_ground_truth.png , 450 , 1256 , 35 , alive
B06_02_ground_truth.png , 806 , 1256 , 64 , alive
B06_03_ground_truth.png , 457 , 1256 , 36 , alive
B06_04_ground_truth.png , 343 , 1256 , 27 , alive
B06_05_ground_truth.png , 393 , 1256 , 31 , alive
B06_06_ground_truth.png , 358 , 1256 , 28 , alive
B06_07_ground_truth.png , 385 , 1256 , 30 , alive
B06_08_ground_truth.png , 385 , 1256 , 30 , alive
B06_09_ground_truth.png , 371 , 1256 , 29 , alive
B06_10_ground_truth.png , 452 , 1256 , 35 , alive
B06_11_ground_truth.png , 419 , 1256 , 33 , alive
B06_12_ground_truth.png , 424 , 1256 , 33 , alive
B06_13_ground_truth.png , 599 , 1256 , 47 , alive
B06_14_ground_truth.png , 355 , 1256 , 28 , alive
B06_15_ground_truth.png , 357 , 1256 , 28 , alive
B07_01_ground_truth.png , 480 , 1256 , 38 , alive
B07_02_ground_truth.png , 498 , 1256 , 39 , alive
B07_03_ground_truth.png , 364 , 1256 , 28 , alive
B07_04_ground_truth.png , 369 , 1256 , 29 , alive
B07_05_ground_truth.png , 393 , 1256 , 31 , alive
B07_06_ground_truth.png , 456 , 1256 , 36 , alive
B07_07_ground_truth.png , 481 , 1256 , 38 , alive
B07_08_ground_truth.png , 285 , 1256 , 22 , dead
B07_09_ground_truth.png , 393 , 1256 , 31 , alive
B07_10_ground_truth.png , 405 , 1256 , 32 , alive
B07_11_ground_truth.png , 521 , 1256 , 41 , alive
B07_12_ground_truth.png , 409 , 1256 , 32 , alive
B07_13_ground_truth.png , 447 , 1256 , 35 , alive
B07_14_ground_truth.png , 374 , 1256 , 29 , alive
B07_15_ground_truth.png , 466 , 1256 , 37 , alive
B08_01_ground_truth.png , 365 , 1256 , 29 , alive
B08_02_ground_truth.png , 410 , 1256 , 32 , alive
B08_03_ground_truth.png , 393 , 1256 , 31 , alive
B08_04_ground_truth.png , 415 , 1256 , 33 , alive
B08_05_ground_truth.png , 375 , 1256 , 29 , alive
B08_06_ground_truth.png , 419 , 1256 , 33 , alive
B08_07_ground_truth.png , 404 , 1256 , 32 , alive
B08_08_ground_truth.png , 684 , 1256 , 54 , alive
B08_09_ground_truth.png , 466 , 1256 , 37 , alive
B08_10_ground_truth.png , 427 , 1256 , 33 , alive
B08_11_ground_truth.png , 376 , 1256 , 29 , alive
B08_12_ground_truth.png , 360 , 1256 , 28 , alive
B08_13_ground_truth.png , 343 , 1256 , 27 , alive
B08_14_ground_truth.png , 366 , 1256 , 29 , alive
B08_15_ground_truth.png , 417 , 1256 , 33 , alive
B09_01_ground_truth.png , 418 , 1256 , 33 , alive
B09_02_ground_truth.png , 449 , 1256 , 35 , alive
B09_03_ground_truth.png , 409 , 1256 , 32 , alive
B09_04_ground_truth.png , 399 , 1256 , 31 , alive
B09_05_ground_truth.png , 422 , 1256 , 33 , alive
B09_06_ground_truth.png , 391 , 1256 , 31 , alive
B09_07_ground_truth.png , 411 , 1256 , 32 , alive
B09_08_ground_truth.png , 434 , 1256 , 34 , alive
B09_09_ground_truth.png , 413 , 1256 , 32 , alive
B09_10_ground_truth.png , 423 , 1256 , 33 , alive
B09_11_ground_truth.png , 431 , 1256 , 34 , alive
B09_12_ground_truth.png , 422 , 1256 , 33 , alive
B09_13_ground_truth.png , 350 , 1256 , 27 , alive
B09_14_ground_truth.png , 464 , 1256 , 36 , alive
B10_01_ground_truth.png , 398 , 1256 , 31 , alive
B10_02_ground_truth.png , 358 , 1256 , 28 , alive
B10_03_ground_truth.png , 314 , 1256 , 25 , dead
B10_04_ground_truth.png , 435 , 1256 , 34 , alive
B10_05_ground_truth.png , 374 , 1256 , 29 , alive
B10_06_ground_truth.png , 385 , 1256 , 30 , alive
B10_07_ground_truth.png , 409 , 1256 , 32 , alive
B10_08_ground_truth.png , 379 , 1256 , 30 , alive
B10_09_ground_truth.png , 366 , 1256 , 29 , alive
B10_10_ground_truth.png , 381 , 1256 , 30 , alive
B10_11_ground_truth.png , 460 , 1256 , 36 , alive
B10_12_ground_truth.png , 308 , 1256 , 24 , dead
B10_13_ground_truth.png , 405 , 1256 , 32 , alive
B10_14_ground_truth.png , 419 , 1256 , 33 , alive
B11_02_ground_truth.png , 442 , 1256 , 35 , alive
B11_03_ground_truth.png , 395 , 1256 , 31 , alive
B11_04_ground_truth.png , 437 , 1256 , 34 , alive
B11_05_ground_truth.png , 303 , 1256 , 24 , dead
B11_06_ground_truth.png , 383 , 1256 , 30 , alive
B11_07_ground_truth.png , 384 , 1256 , 30 , alive
B11_08_ground_truth.png , 436 , 1256 , 34 , alive
B11_09_ground_truth.png , 374 , 1256 , 29 , alive
B11_10_ground_truth.png , 400 , 1256 , 31 , alive
B11_11_ground_truth.png , 364 , 1256 , 28 , alive
B11_12_ground_truth.png , 421 , 1256 , 33 , alive
B11_13_ground_truth.png , 459 , 1256 , 36 , alive
B11_14_ground_truth.png , 344 , 1256 , 27 , alive
B11_15_ground_truth.png , 404 , 1256 , 32 , alive
B12_01_ground_truth.png , 440 , 1256 , 35 , alive
B12_02_ground_truth.png , 411 , 1256 , 32 , alive
B12_03_ground_truth.png , 377 , 1256 , 30 , alive
B12_04_ground_truth.png , 311 , 1256 , 24 , dead
B12_05_ground_truth.png , 411 , 1256 , 32 , alive
B12_06_ground_truth.png , 326 , 1256 , 25 , dead
B12_07_ground_truth.png , 440 , 1256 , 35 , alive
B12_08_ground_truth.png , 362 , 1256 , 28 , alive
B12_09_ground_truth.png , 409 , 1256 , 32 , alive
B12_10_ground_truth.png , 363 , 1256 , 28 , alive
B12_11_ground_truth.png , 388 , 1256 , 30 , alive
B12_12_ground_truth.png , 409 , 1256 , 32 , alive
B12_13_ground_truth.png , 430 , 1256 , 34 , alive
B12_14_ground_truth.png , 369 , 1256 , 29 , alive
B12_15_ground_truth.png , 377 , 1256 , 30 , alive
B13_01_ground_truth.png , 413 , 1256 , 32 , alive
B13_02_ground_truth.png , 324 , 1256 , 25 , dead
B13_03_ground_truth.png , 390 , 1256 , 31 , alive
B13_04_ground_truth.png , 294 , 1256 , 23 , dead
B13_05_ground_truth.png , 312 , 1256 , 24 , dead
B13_06_ground_truth.png , 728 , 1256 , 57 , alive
B13_07_ground_truth.png , 350 , 1256 , 27 , alive
B13_08_ground_truth.png , 313 , 1256 , 24 , dead
B13_09_ground_truth.png , 320 , 1256 , 25 , dead
B13_10_ground_truth.png , 271 , 1256 , 21 , dead
B13_11_ground_truth.png , 310 , 1256 , 24 , dead
B13_12_ground_truth.png , 328 , 1256 , 26 , alive
B13_13_ground_truth.png , 451 , 1256 , 35 , alive
B14_01_ground_truth.png , 412 , 1256 , 32 , alive
B14_02_ground_truth.png , 389 , 1256 , 30 , alive
B14_03_ground_truth.png , 335 , 1256 , 26 , alive
B14_04_ground_truth.png , 342 , 1256 , 27 , alive
B14_06_ground_truth.png , 328 , 1256 , 26 , alive
B14_07_ground_truth.png , 389 , 1256 , 30 , alive
B14_08_ground_truth.png , 361 , 1256 , 28 , alive
B14_09_ground_truth.png , 354 , 1256 , 28 , alive
B14_10_ground_truth.png , 377 , 1256 , 30 , alive
B14_11_ground_truth.png , 338 , 1256 , 26 , alive
B14_12_ground_truth.png , 366 , 1256 , 29 , alive
B14_13_ground_truth.png , 355 , 1256 , 28 , alive
B15_01_ground_truth.png , 409 , 1256 , 32 , alive
B15_02_ground_truth.png , 369 , 1256 , 29 , alive
B15_03_ground_truth.png , 301 , 1256 , 23 , dead
B15_04_ground_truth.png , 391 , 1256 , 31 , alive
B15_05_ground_truth.png , 390 , 1256 , 31 , alive
B15_06_ground_truth.png , 360 , 1256 , 28 , alive
B15_07_ground_truth.png , 386 , 1256 , 30 , alive
B15_08_ground_truth.png , 359 , 1256 , 28 , alive
B15_09_ground_truth.png , 386 , 1256 , 30 , alive
B15_10_ground_truth.png , 361 , 1256 , 28 , alive
B15_11_ground_truth.png , 365 , 1256 , 29 , alive
B15_12_ground_truth.png , 342 , 1256 , 27 , alive
B15_13_ground_truth.png , 416 , 1256 , 33 , alive
B16_01_ground_truth.png , 301 , 1256 , 23 , dead
B16_02_ground_truth.png , 409 , 1256 , 32 , alive
B16_03_ground_truth.png , 378 , 1256 , 30 , alive
B16_04_ground_truth.png , 371 , 1256 , 29 , alive
B16_05_ground_truth.png , 360 , 1256 , 28 , alive
B16_06_ground_truth.png , 398 , 1256 , 31 , alive
B16_07_ground_truth.png , 405 , 1256 , 32 , alive
B16_08_ground_truth.png , 359 , 1256 , 28 , alive
B16_09_ground_truth.png , 353 , 1256 , 28 , alive
B16_10_ground_truth.png , 305 , 1256 , 24 , dead
B16_11_ground_truth.png , 380 , 1256 , 30 , alive
B16_12_ground_truth.png , 383 , 1256 , 30 , alive
B16_13_ground_truth.png , 385 , 1256 , 30 , alive
B16_14_ground_truth.png , 308 , 1256 , 24 , dead
B17_01_ground_truth.png , 386 , 1256 , 30 , alive
B17_02_ground_truth.png , 368 , 1256 , 29 , alive
B17_03_ground_truth.png , 400 , 1256 , 31 , alive
B17_04_ground_truth.png , 354 , 1256 , 28 , alive
B17_05_ground_truth.png , 411 , 1256 , 32 , alive
B17_06_ground_truth.png , 421 , 1256 , 33 , alive
B17_07_ground_truth.png , 320 , 1256 , 25 , dead
B17_08_ground_truth.png , 374 , 1256 , 29 , alive
B17_09_ground_truth.png , 357 , 1256 , 28 , alive
B17_10_ground_truth.png , 374 , 1256 , 29 , alive
B17_11_ground_truth.png , 368 , 1256 , 29 , alive
B17_12_ground_truth.png , 364 , 1256 , 28 , alive
B18_01_ground_truth.png , 389 , 1256 , 30 , alive
B18_02_ground_truth.png , 378 , 1256 , 30 , alive
B18_03_ground_truth.png , 420 , 1256 , 33 , alive
B18_04_ground_truth.png , 424 , 1256 , 33 , alive
B18_05_ground_truth.png , 402 , 1256 , 32 , alive
B18_06_ground_truth.png , 368 , 1256 , 29 , alive
B18_07_ground_truth.png , 368 , 1256 , 29 , alive
B18_08_ground_truth.png , 342 , 1256 , 27 , alive
B18_09_ground_truth.png , 370 , 1256 , 29 , alive
B18_10_ground_truth.png , 358 , 1256 , 28 , alive
B18_11_ground_truth.png , 325 , 1256 , 25 , dead
B18_12_ground_truth.png , 332 , 1256 , 26 , alive
B18_13_ground_truth.png , 339 , 1256 , 26 , alive
B19_01_ground_truth.png , 363 , 1256 , 28 , alive
B19_02_ground_truth.png , 335 , 1256 , 26 , alive
B19_03_ground_truth.png , 435 , 1256 , 34 , alive
B19_04_ground_truth.png , 355 , 1256 , 28 , alive
B19_05_ground_truth.png , 357 , 1256 , 28 , alive
B19_06_ground_truth.png , 427 , 1256 , 33 , alive
B19_07_ground_truth.png , 298 , 1256 , 23 , dead
B19_08_ground_truth.png , 392 , 1256 , 31 , alive
B19_09_ground_truth.png , 349 , 1256 , 27 , alive
B19_10_ground_truth.png , 381 , 1256 , 30 , alive
B19_11_ground_truth.png , 362 , 1256 , 28 , alive
B19_12_ground_truth.png , 380 , 1256 , 30 , alive
B19_13_ground_truth.png , 356 , 1256 , 28 , alive
B19_14_ground_truth.png , 436 , 1256 , 34 , alive
B20_01_ground_truth.png , 344 , 1256 , 27 , alive
B20_02_ground_truth.png , 352 , 1256 , 28 , alive
B20_03_ground_truth.png , 299 , 1256 , 23 , dead
B20_04_ground_truth.png , 294 , 1256 , 23 , dead
B20_05_ground_truth.png , 340 , 1256 , 27 , alive
B20_06_ground_truth.png , 355 , 1256 , 28 , alive
B20_07_ground_truth.png , 328 , 1256 , 26 , alive
B20_08_ground_truth.png , 385 , 1256 , 30 , alive
B20_09_ground_truth.png , 317 , 1256 , 25 , dead
B20_10_ground_truth.png , 335 , 1256 , 26 , alive
B20_11_ground_truth.png , 338 , 1256 , 26 , alive
B20_12_ground_truth.png , 371 , 1256 , 29 , alive
B20_13_ground_truth.png , 326 , 1256 , 25 , dead
B20_14_ground_truth.png , 313 , 1256 , 24 , dead
B21_01_ground_truth.png , 324 , 1256 , 25 , dead
B21_02_ground_truth.png , 331 , 1256 , 26 , alive
B21_03_ground_truth.png , 404 , 1256 , 32 , alive
B21_04_ground_truth.png , 283 , 1256 , 22 , dead
B21_05_ground_truth.png , 398 , 1256 , 31 , alive
B21_06_ground_truth.png , 362 , 1256 , 28 , alive
B21_07_ground_truth.png , 399 , 1256 , 31 , alive
B21_08_ground_truth.png , 401 , 1256 , 31 , alive
B21_09_ground_truth.png , 363 , 1256 , 28 , alive
B21_10_ground_truth.png , 339 , 1256 , 26 , alive
B21_11_ground_truth.png , 361 , 1256 , 28 , alive
B21_12_ground_truth.png , 415 , 1256 , 33 , alive
B21_13_ground_truth.png , 381 , 1256 , 30 , alive
B22_01_ground_truth.png , 343 , 1256 , 27 , alive
B22_02_ground_truth.png , 308 , 1256 , 24 , dead
B22_03_ground_truth.png , 330 , 1256 , 26 , alive
B22_04_ground_truth.png , 272 , 1256 , 21 , dead
B22_05_ground_truth.png , 376 , 1256 , 29 , alive
B22_06_ground_truth.png , 319 , 1256 , 25 , dead
B22_07_ground_truth.png , 352 , 1256 , 28 , alive
B22_08_ground_truth.png , 348 , 1256 , 27 , alive
B22_09_ground_truth.png , 349 , 1256 , 27 , alive
B22_10_ground_truth.png , 332 , 1256 , 26 , alive
B22_11_ground_truth.png , 343 , 1256 , 27 , alive
B22_12_ground_truth.png , 298 , 1256 , 23 , dead
B22_13_ground_truth.png , 384 , 1256 , 30 , alive
B22_14_ground_truth.png , 403 , 1256 , 32 , alive
B22_15_ground_truth.png , 378 , 1256 , 30 , alive
B23_01_ground_truth.png , 329 , 1256 , 26 , alive
B23_02_ground_truth.png , 446 , 1256 , 35 , alive
B23_03_ground_truth.png , 317 , 1256 , 25 , dead
B23_04_ground_truth.png , 325 , 1256 , 25 , dead
B23_05_ground_truth.png , 358 , 1256 , 28 , alive
B23_06_ground_truth.png , 339 , 1256 , 26 , alive
B23_07_ground_truth.png , 369 , 1256 , 29 , alive
B23_08_ground_truth.png , 362 , 1256 , 28 , alive
B23_09_ground_truth.png , 355 , 1256 , 28 , alive
B23_10_ground_truth.png , 373 , 1256 , 29 , alive
B23_11_ground_truth.png , 398 , 1256 , 31 , alive
B23_12_ground_truth.png , 409 , 1256 , 32 , alive
B23_13_ground_truth.png , 417 , 1256 , 33 , alive
B23_14_ground_truth.png , 386 , 1256 , 30 , alive
B24_01_ground_truth.png , 343 , 1256 , 27 , alive
B24_02_ground_truth.png , 353 , 1256 , 28 , alive
B24_03_ground_truth.png , 364 , 1256 , 28 , alive
B24_04_ground_truth.png , 342 , 1256 , 27 , alive
B24_05_ground_truth.png , 412 , 1256 , 32 , alive
B24_06_ground_truth.png , 356 , 1256 , 28 , alive
B24_07_ground_truth.png , 353 , 1256 , 28 , alive
B24_08_ground_truth.png , 309 , 1256 , 24 , dead
B24_09_ground_truth.png , 451 , 1256 , 35 , alive
B24_10_ground_truth.png , 378 , 1256 , 30 , alive
B24_11_ground_truth.png , 359 , 1256 , 28 , alive
B24_12_ground_truth.png , 350 , 1256 , 27 , alive
B24_13_ground_truth.png , 316 , 1256 , 25 , dead
C01_01_ground_truth.png , 401 , 1256 , 31 , alive
C01_02_ground_truth.png , 461 , 1256 , 36 , alive
C01_03_ground_truth.png , 343 , 1256 , 27 , alive
C01_04_ground_truth.png , 342 , 1256 , 27 , alive
C01_05_ground_truth.png , 447 , 1256 , 35 , alive
C01_06_ground_truth.png , 395 , 1256 , 31 , alive
C01_07_ground_truth.png , 450 , 1256 , 35 , alive
C01_08_ground_truth.png , 458 , 1256 , 36 , alive
C01_09_ground_truth.png , 333 , 1256 , 26 , alive
C01_10_ground_truth.png , 387 , 1256 , 30 , alive
C01_11_ground_truth.png , 413 , 1256 , 32 , alive
C01_12_ground_truth.png , 396 , 1256 , 31 , alive
C01_13_ground_truth.png , 375 , 1256 , 29 , alive
C01_14_ground_truth.png , 382 , 1256 , 30 , alive
C01_15_ground_truth.png , 312 , 1256 , 24 , dead
C02_01_ground_truth.png , 393 , 1256 , 31 , alive
C02_02_ground_truth.png , 372 , 1256 , 29 , alive
C02_03_ground_truth.png , 354 , 1256 , 28 , alive
C02_04_ground_truth.png , 380 , 1256 , 30 , alive
C02_05_ground_truth.png , 414 , 1256 , 32 , alive
C02_06_ground_truth.png , 357 , 1256 , 28 , alive
C02_08_ground_truth.png , 373 , 1256 , 29 , alive
C02_09_ground_truth.png , 477 , 1256 , 37 , alive
C02_10_ground_truth.png , 416 , 1256 , 33 , alive
C02_11_ground_truth.png , 399 , 1256 , 31 , alive
C02_12_ground_truth.png , 373 , 1256 , 29 , alive
C02_13_ground_truth.png , 338 , 1256 , 26 , alive
C02_14_ground_truth.png , 387 , 1256 , 30 , alive
C02_15_ground_truth.png , 346 , 1256 , 27 , alive
C03_01_ground_truth.png , 357 , 1256 , 28 , alive
C03_02_ground_truth.png , 867 , 1256 , 69 , alive
C03_03_ground_truth.png , 499 , 1256 , 39 , alive
C03_04_ground_truth.png , 403 , 1256 , 32 , alive
C03_05_ground_truth.png , 351 , 1256 , 27 , alive
C03_06_ground_truth.png , 402 , 1256 , 32 , alive
C03_07_ground_truth.png , 410 , 1256 , 32 , alive
C03_08_ground_truth.png , 366 , 1256 , 29 , alive
C03_09_ground_truth.png , 416 , 1256 , 33 , alive
C03_10_ground_truth.png , 388 , 1256 , 30 , alive
C03_11_ground_truth.png , 425 , 1256 , 33 , alive
C03_12_ground_truth.png , 409 , 1256 , 32 , alive
C03_13_ground_truth.png , 403 , 1256 , 32 , alive
C03_14_ground_truth.png , 393 , 1256 , 31 , alive
C03_15_ground_truth.png , 411 , 1256 , 32 , alive
C04_01_ground_truth.png , 836 , 1256 , 66 , alive
C04_02_ground_truth.png , 376 , 1256 , 29 , alive
C04_03_ground_truth.png , 444 , 1256 , 35 , alive
C04_04_ground_truth.png , 338 , 1256 , 26 , alive
C04_05_ground_truth.png , 446 , 1256 , 35 , alive
C04_06_ground_truth.png , 374 , 1256 , 29 , alive
C04_07_ground_truth.png , 333 , 1256 , 26 , alive
C04_08_ground_truth.png , 452 , 1256 , 35 , alive
C04_09_ground_truth.png , 367 , 1256 , 29 , alive
C04_10_ground_truth.png , 589 , 1256 , 46 , alive
C04_11_ground_truth.png , 390 , 1256 , 31 , alive
C04_12_ground_truth.png , 414 , 1256 , 32 , alive
C04_13_ground_truth.png , 355 , 1256 , 28 , alive
C04_14_ground_truth.png , 418 , 1256 , 33 , alive
C04_15_ground_truth.png , 496 , 1256 , 39 , alive
C05_01_ground_truth.png , 433 , 1256 , 34 , alive
C05_02_ground_truth.png , 423 , 1256 , 33 , alive
C05_03_ground_truth.png , 436 , 1256 , 34 , alive
C05_04_ground_truth.png , 423 , 1256 , 33 , alive
C05_05_ground_truth.png , 429 , 1256 , 34 , alive
C05_06_ground_truth.png , 658 , 1256 , 52 , alive
C05_07_ground_truth.png , 279 , 1256 , 22 , dead
C05_08_ground_truth.png , 404 , 1256 , 32 , alive
C05_09_ground_truth.png , 367 , 1256 , 29 , alive
C05_10_ground_truth.png , 396 , 1256 , 31 , alive
C05_11_ground_truth.png , 424 , 1256 , 33 , alive
C05_13_ground_truth.png , 331 , 1256 , 26 , alive
C05_14_ground_truth.png , 461 , 1256 , 36 , alive
C05_15_ground_truth.png , 385 , 1256 , 30 , alive
C06_01_ground_truth.png , 333 , 1256 , 26 , alive
C06_02_ground_truth.png , 290 , 1256 , 23 , dead
C06_03_ground_truth.png , 439 , 1256 , 34 , alive
C06_04_ground_truth.png , 457 , 1256 , 36 , alive
C06_05_ground_truth.png , 304 , 1256 , 24 , dead
C06_06_ground_truth.png , 458 , 1256 , 36 , alive
C06_07_ground_truth.png , 859 , 1256 , 68 , alive
C06_08_ground_truth.png , 444 , 1256 , 35 , alive
C06_09_ground_truth.png , 250 , 1256 , 19 , dead
C06_10_ground_truth.png , 369 , 1256 , 29 , alive
C06_11_ground_truth.png , 323 , 1256 , 25 , dead
C06_12_ground_truth.png , 380 , 1256 , 30 , alive
C06_13_ground_truth.png , 377 , 1256 , 30 , alive
C06_14_ground_truth.png , 373 , 1256 , 29 , alive
C06_15_ground_truth.png , 389 , 1256 , 30 , alive
C07_01_ground_truth.png , 394 , 1256 , 31 , alive
C07_02_ground_truth.png , 778 , 1256 , 61 , alive
C07_03_ground_truth.png , 427 , 1256 , 33 , alive
C07_04_ground_truth.png , 457 , 1256 , 36 , alive
C07_05_ground_truth.png , 457 , 1256 , 36 , alive
C07_06_ground_truth.png , 392 , 1256 , 31 , alive
C07_07_ground_truth.png , 495 , 1256 , 39 , alive
C07_08_ground_truth.png , 676 , 1256 , 53 , alive
C07_09_ground_truth.png , 448 , 1256 , 35 , alive
C07_10_ground_truth.png , 437 , 1256 , 34 , alive
C07_11_ground_truth.png , 337 , 1256 , 26 , alive
C07_12_ground_truth.png , 575 , 1256 , 45 , alive
C07_13_ground_truth.png , 419 , 1256 , 33 , alive
C07_14_ground_truth.png , 719 , 1256 , 57 , alive
C08_01_ground_truth.png , 469 , 1256 , 37 , alive
C08_02_ground_truth.png , 458 , 1256 , 36 , alive
C08_03_ground_truth.png , 335 , 1256 , 26 , alive
C08_04_ground_truth.png , 391 , 1256 , 31 , alive
C08_05_ground_truth.png , 383 , 1256 , 30 , alive
C08_06_ground_truth.png , 367 , 1256 , 29 , alive
C08_07_ground_truth.png , 476 , 1256 , 37 , alive
C08_08_ground_truth.png , 340 , 1256 , 27 , alive
C08_09_ground_truth.png , 380 , 1256 , 30 , alive
C08_10_ground_truth.png , 298 , 1256 , 23 , dead
C08_11_ground_truth.png , 313 , 1256 , 24 , dead
C08_12_ground_truth.png , 420 , 1256 , 33 , alive
C08_13_ground_truth.png , 433 , 1256 , 34 , alive
C08_14_ground_truth.png , 372 , 1256 , 29 , alive
C08_15_ground_truth.png , 416 , 1256 , 33 , alive
C09_01_ground_truth.png , 425 , 1256 , 33 , alive
C09_02_ground_truth.png , 338 , 1256 , 26 , alive
C09_03_ground_truth.png , 375 , 1256 , 29 , alive
C09_04_ground_truth.png , 394 , 1256 , 31 , alive
C09_05_ground_truth.png , 478 , 1256 , 38 , alive
C09_06_ground_truth.png , 400 , 1256 , 31 , alive
C09_07_ground_truth.png , 382 , 1256 , 30 , alive
C09_08_ground_truth.png , 369 , 1256 , 29 , alive
C09_09_ground_truth.png , 422 , 1256 , 33 , alive
C09_10_ground_truth.png , 408 , 1256 , 32 , alive
C09_11_ground_truth.png , 453 , 1256 , 36 , alive
C09_12_ground_truth.png , 389 , 1256 , 30 , alive
C09_13_ground_truth.png , 407 , 1256 , 32 , alive
C09_14_ground_truth.png , 445 , 1256 , 35 , alive
C09_15_ground_truth.png , 383 , 1256 , 30 , alive
C10_01_ground_truth.png , 543 , 1256 , 43 , alive
C10_02_ground_truth.png , 390 , 1256 , 31 , alive
C10_03_ground_truth.png , 378 , 1256 , 30 , alive
C10_04_ground_truth.png , 376 , 1256 , 29 , alive
C10_05_ground_truth.png , 748 , 1256 , 59 , alive
C10_06_ground_truth.png , 412 , 1256 , 32 , alive
C10_07_ground_truth.png , 386 , 1256 , 30 , alive
C10_08_ground_truth.png , 361 , 1256 , 28 , alive
C10_09_ground_truth.png , 398 , 1256 , 31 , alive
C10_10_ground_truth.png , 412 , 1256 , 32 , alive
C10_11_ground_truth.png , 339 , 1256 , 26 , alive
C10_12_ground_truth.png , 326 , 1256 , 25 , dead
C10_13_ground_truth.png , 776 , 1256 , 61 , alive
C10_14_ground_truth.png , 344 , 1256 , 27 , alive
C10_15_ground_truth.png , 430 , 1256 , 34 , alive
C11_01_ground_truth.png , 636 , 1256 , 50 , alive
C11_02_ground_truth.png , 430 , 1256 , 34 , alive
C11_03_ground_truth.png , 420 , 1256 , 33 , alive
C11_04_ground_truth.png , 336 , 1256 , 26 , alive
C11_05_ground_truth.png , 436 , 1256 , 34 , alive
C11_06_ground_truth.png , 602 , 1256 , 47 , alive
C11_07_ground_truth.png , 444 , 1256 , 35 , alive
C11_08_ground_truth.png , 380 , 1256 , 30 , alive
C11_09_ground_truth.png , 404 , 1256 , 32 , alive
C11_10_ground_truth.png , 357 , 1256 , 28 , alive
C11_11_ground_truth.png , 457 , 1256 , 36 , alive
C11_12_ground_truth.png , 449 , 1256 , 35 , alive
C11_13_ground_truth.png , 400 , 1256 , 31 , alive
C11_14_ground_truth.png , 450 , 1256 , 35 , alive
C12_01_ground_truth.png , 319 , 1256 , 25 , dead
C12_02_ground_truth.png , 450 , 1256 , 35 , alive
C12_03_ground_truth.png , 383 , 1256 , 30 , alive
C12_04_ground_truth.png , 334 , 1256 , 26 , alive
C12_05_ground_truth.png , 466 , 1256 , 37 , alive
C12_06_ground_truth.png , 305 , 1256 , 24 , dead
C12_07_ground_truth.png , 401 , 1256 , 31 , alive
C12_08_ground_truth.png , 749 , 1256 , 59 , alive
C12_09_ground_truth.png , 374 , 1256 , 29 , alive
C12_10_ground_truth.png , 423 , 1256 , 33 , alive
C12_11_ground_truth.png , 395 , 1256 , 31 , alive
C12_12_ground_truth.png , 342 , 1256 , 27 , alive
C12_13_ground_truth.png , 435 , 1256 , 34 , alive
C12_14_ground_truth.png , 335 , 1256 , 26 , alive
C12_15_ground_truth.png , 399 , 1256 , 31 , alive
C13_01_ground_truth.png , 296 , 1256 , 23 , dead
C13_02_ground_truth.png , 383 , 1256 , 30 , alive
C13_03_ground_truth.png , 404 , 1256 , 32 , alive
C13_04_ground_truth.png , 404 , 1256 , 32 , alive
C13_05_ground_truth.png , 371 , 1256 , 29 , alive
C13_06_ground_truth.png , 381 , 1256 , 30 , alive
C13_07_ground_truth.png , 320 , 1256 , 25 , dead
C13_08_ground_truth.png , 347 , 1256 , 27 , alive
C13_09_ground_truth.png , 381 , 1256 , 30 , alive
C13_10_ground_truth.png , 347 , 1256 , 27 , alive
C13_11_ground_truth.png , 334 , 1256 , 26 , alive
C13_12_ground_truth.png , 327 , 1256 , 26 , alive
C13_13_ground_truth.png , 335 , 1256 , 26 , alive
C13_14_ground_truth.png , 437 , 1256 , 34 , alive
C14_01_ground_truth.png , 366 , 1256 , 29 , alive
C14_02_ground_truth.png , 382 , 1256 , 30 , alive
C14_03_ground_truth.png , 334 , 1256 , 26 , alive
C14_04_ground_truth.png , 346 , 1256 , 27 , alive
C14_05_ground_truth.png , 327 , 1256 , 26 , alive
C14_06_ground_truth.png , 316 , 1256 , 25 , dead
C14_07_ground_truth.png , 358 , 1256 , 28 , alive
C14_08_ground_truth.png , 388 , 1256 , 30 , alive
C14_09_ground_truth.png , 401 , 1256 , 31 , alive
C14_10_ground_truth.png , 362 , 1256 , 28 , alive
C14_11_ground_truth.png , 384 , 1256 , 30 , alive
C14_12_ground_truth.png , 345 , 1256 , 27 , alive
C14_13_ground_truth.png , 359 , 1256 , 28 , alive
C15_01_ground_truth.png , 260 , 1256 , 20 , dead
C15_02_ground_truth.png , 348 , 1256 , 27 , alive
C15_03_ground_truth.png , 385 , 1256 , 30 , alive
C15_04_ground_truth.png , 537 , 1256 , 42 , alive
C15_05_ground_truth.png , 408 , 1256 , 32 , alive
C15_06_ground_truth.png , 359 , 1256 , 28 , alive
C15_07_ground_truth.png , 418 , 1256 , 33 , alive
C15_08_ground_truth.png , 460 , 1256 , 36 , alive
C15_09_ground_truth.png , 348 , 1256 , 27 , alive
C15_10_ground_truth.png , 366 , 1256 , 29 , alive
C15_11_ground_truth.png , 467 , 1256 , 37 , alive
C15_12_ground_truth.png , 370 , 1256 , 29 , alive
C15_13_ground_truth.png , 376 , 1256 , 29 , alive
C16_01_ground_truth.png , 345 , 1256 , 27 , alive
C16_02_ground_truth.png , 364 , 1256 , 28 , alive
C16_03_ground_truth.png , 370 , 1256 , 29 , alive
C16_04_ground_truth.png , 362 , 1256 , 28 , alive
C16_05_ground_truth.png , 437 , 1256 , 34 , alive
C16_06_ground_truth.png , 334 , 1256 , 26 , alive
C16_07_ground_truth.png , 424 , 1256 , 33 , alive
C16_08_ground_truth.png , 391 , 1256 , 31 , alive
C16_09_ground_truth.png , 394 , 1256 , 31 , alive
C16_10_ground_truth.png , 357 , 1256 , 28 , alive
C16_11_ground_truth.png , 324 , 1256 , 25 , dead
C16_12_ground_truth.png , 339 , 1256 , 26 , alive
C16_13_ground_truth.png , 280 , 1256 , 22 , dead
C16_14_ground_truth.png , 333 , 1256 , 26 , alive
C17_01_ground_truth.png , 391 , 1256 , 31 , alive
C17_02_ground_truth.png , 390 , 1256 , 31 , alive
C17_03_ground_truth.png , 325 , 1256 , 25 , dead
C17_04_ground_truth.png , 379 , 1256 , 30 , alive
C17_05_ground_truth.png , 362 , 1256 , 28 , alive
C17_06_ground_truth.png , 337 , 1256 , 26 , alive
C17_07_ground_truth.png , 361 , 1256 , 28 , alive
C17_08_ground_truth.png , 400 , 1256 , 31 , alive
C17_09_ground_truth.png , 390 , 1256 , 31 , alive
C17_10_ground_truth.png , 345 , 1256 , 27 , alive
C17_11_ground_truth.png , 362 , 1256 , 28 , alive
C17_12_ground_truth.png , 360 , 1256 , 28 , alive
C17_13_ground_truth.png , 429 , 1256 , 34 , alive
C18_01_ground_truth.png , 372 , 1256 , 29 , alive
C18_02_ground_truth.png , 382 , 1256 , 30 , alive
C18_03_ground_truth.png , 439 , 1256 , 34 , alive
C18_04_ground_truth.png , 413 , 1256 , 32 , alive
C18_05_ground_truth.png , 375 , 1256 , 29 , alive
C18_07_ground_truth.png , 327 , 1256 , 26 , alive
C18_08_ground_truth.png , 362 , 1256 , 28 , alive
C18_09_ground_truth.png , 419 , 1256 , 33 , alive
C18_10_ground_truth.png , 350 , 1256 , 27 , alive
C18_11_ground_truth.png , 363 , 1256 , 28 , alive
C18_12_ground_truth.png , 368 , 1256 , 29 , alive
C18_13_ground_truth.png , 390 , 1256 , 31 , alive
C18_14_ground_truth.png , 370 , 1256 , 29 , alive
C19_01_ground_truth.png , 411 , 1256 , 32 , alive
C19_02_ground_truth.png , 390 , 1256 , 31 , alive
C19_03_ground_truth.png , 352 , 1256 , 28 , alive
C19_04_ground_truth.png , 311 , 1256 , 24 , dead
C19_05_ground_truth.png , 411 , 1256 , 32 , alive
C19_06_ground_truth.png , 344 , 1256 , 27 , alive
C19_07_ground_truth.png , 345 , 1256 , 27 , alive
C19_08_ground_truth.png , 402 , 1256 , 32 , alive
C19_09_ground_truth.png , 397 , 1256 , 31 , alive
C19_10_ground_truth.png , 381 , 1256 , 30 , alive
C19_11_ground_truth.png , 308 , 1256 , 24 , dead
C19_12_ground_truth.png , 370 , 1256 , 29 , alive
C19_13_ground_truth.png , 331 , 1256 , 26 , alive
C19_14_ground_truth.png , 377 , 1256 , 30 , alive
C20_01_ground_truth.png , 357 , 1256 , 28 , alive
C20_02_ground_truth.png , 292 , 1256 , 23 , dead
C20_03_ground_truth.png , 352 , 1256 , 28 , alive
C20_04_ground_truth.png , 344 , 1256 , 27 , alive
C20_05_ground_truth.png , 405 , 1256 , 32 , alive
C20_06_ground_truth.png , 277 , 1256 , 22 , dead
C20_07_ground_truth.png , 329 , 1256 , 26 , alive
C20_08_ground_truth.png , 375 , 1256 , 29 , alive
C20_09_ground_truth.png , 324 , 1256 , 25 , dead
C20_10_ground_truth.png , 348 , 1256 , 27 , alive
C20_11_ground_truth.png , 351 , 1256 , 27 , alive
C20_12_ground_truth.png , 359 , 1256 , 28 , alive
C20_13_ground_truth.png , 411 , 1256 , 32 , alive
C20_14_ground_truth.png , 373 , 1256 , 29 , alive
C20_15_ground_truth.png , 310 , 1256 , 24 , dead
C21_02_ground_truth.png , 506 , 1256 , 40 , alive
C21_03_ground_truth.png , 335 , 1256 , 26 , alive
C21_04_ground_truth.png , 355 , 1256 , 28 , alive
C21_05_ground_truth.png , 346 , 1256 , 27 , alive
C21_07_ground_truth.png , 372 , 1256 , 29 , alive
C21_09_ground_truth.png , 354 , 1256 , 28 , alive
C21_10_ground_truth.png , 378 , 1256 , 30 , alive
C21_11_ground_truth.png , 380 , 1256 , 30 , alive
C21_12_ground_truth.png , 327 , 1256 , 26 , alive
C21_13_ground_truth.png , 437 , 1256 , 34 , alive
C21_14_ground_truth.png , 342 , 1256 , 27 , alive
C22_01_ground_truth.png , 451 , 1256 , 35 , alive
C22_02_ground_truth.png , 395 , 1256 , 31 , alive
C22_03_ground_truth.png , 358 , 1256 , 28 , alive
C22_04_ground_truth.png , 291 , 1256 , 23 , dead
C22_05_ground_truth.png , 315 , 1256 , 25 , dead
C22_06_ground_truth.png , 377 , 1256 , 30 , alive
C22_07_ground_truth.png , 398 , 1256 , 31 , alive
C22_08_ground_truth.png , 314 , 1256 , 25 , dead
C22_09_ground_truth.png , 395 , 1256 , 31 , alive
C22_10_ground_truth.png , 397 , 1256 , 31 , alive
C22_12_ground_truth.png , 420 , 1256 , 33 , alive
C22_13_ground_truth.png , 326 , 1256 , 25 , dead
C22_14_ground_truth.png , 426 , 1256 , 33 , alive
C23_01_ground_truth.png , 336 , 1256 , 26 , alive
C23_02_ground_truth.png , 454 , 1256 , 36 , alive
C23_03_ground_truth.png , 380 , 1256 , 30 , alive
C23_05_ground_truth.png , 342 , 1256 , 27 , alive
C23_06_ground_truth.png , 341 , 1256 , 27 , alive
C23_07_ground_truth.png , 368 , 1256 , 29 , alive
C23_08_ground_truth.png , 413 , 1256 , 32 , alive
C23_09_ground_truth.png , 346 , 1256 , 27 , alive
C23_10_ground_truth.png , 431 , 1256 , 34 , alive
C23_11_ground_truth.png , 375 , 1256 , 29 , alive
C23_12_ground_truth.png , 443 , 1256 , 35 , alive
C23_13_ground_truth.png , 369 , 1256 , 29 , alive
C23_14_ground_truth.png , 383 , 1256 , 30 , alive
C24_01_ground_truth.png , 309 , 1256 , 24 , dead
C24_02_ground_truth.png , 340 , 1256 , 27 , alive
C24_03_ground_truth.png , 349 , 1256 , 27 , alive
C24_04_ground_truth.png , 363 , 1256 , 28 , alive
C24_05_ground_truth.png , 422 , 1256 , 33 , alive
C24_06_ground_truth.png , 363 , 1256 , 28 , alive
C24_07_ground_truth.png , 355 , 1256 , 28 , alive
C24_08_ground_truth.png , 438 , 1256 , 34 , alive
C24_09_ground_truth.png , 321 , 1256 , 25 , dead
C24_10_ground_truth.png , 362 , 1256 , 28 , alive
C24_11_ground_truth.png , 398 , 1256 , 31 , alive
C24_12_ground_truth.png , 360 , 1256 , 28 , alive
C24_13_ground_truth.png , 340 , 1256 , 27 , alive
C24_14_ground_truth.png , 363 , 1256 , 28 , alive
C24_15_ground_truth.png , 378 , 1256 , 30 , alive
D01_01_ground_truth.png , 366 , 1256 , 29 , alive
D01_02_ground_truth.png , 400 , 1256 , 31 , alive
D01_03_ground_truth.png , 362 , 1256 , 28 , alive
D01_04_ground_truth.png , 351 , 1256 , 27 , alive
D01_05_ground_truth.png , 354 , 1256 , 28 , alive
D01_06_ground_truth.png , 413 , 1256 , 32 , alive
D01_07_ground_truth.png , 353 , 1256 , 28 , alive
D01_08_ground_truth.png , 519 , 1256 , 41 , alive
D01_09_ground_truth.png , 507 , 1256 , 40 , alive
D01_10_ground_truth.png , 398 , 1256 , 31 , alive
D01_11_ground_truth.png , 452 , 1256 , 35 , alive
D01_12_ground_truth.png , 412 , 1256 , 32 , alive
D01_13_ground_truth.png , 378 , 1256 , 30 , alive
D01_14_ground_truth.png , 376 , 1256 , 29 , alive
D01_15_ground_truth.png , 399 , 1256 , 31 , alive
D02_01_ground_truth.png , 419 , 1256 , 33 , alive
D02_02_ground_truth.png , 399 , 1256 , 31 , alive
D02_03_ground_truth.png , 327 , 1256 , 26 , alive
D02_04_ground_truth.png , 314 , 1256 , 25 , dead
D02_05_ground_truth.png , 660 , 1256 , 52 , alive
D02_06_ground_truth.png , 484 , 1256 , 38 , alive
D02_07_ground_truth.png , 373 , 1256 , 29 , alive
D02_08_ground_truth.png , 390 , 1256 , 31 , alive
D02_09_ground_truth.png , 472 , 1256 , 37 , alive
D02_10_ground_truth.png , 336 , 1256 , 26 , alive
D02_11_ground_truth.png , 397 , 1256 , 31 , alive
D02_12_ground_truth.png , 392 , 1256 , 31 , alive
D02_13_ground_truth.png , 477 , 1256 , 37 , alive
D02_14_ground_truth.png , 911 , 1256 , 72 , alive
D02_15_ground_truth.png , 368 , 1256 , 29 , alive
D03_01_ground_truth.png , 395 , 1256 , 31 , alive
D03_02_ground_truth.png , 378 , 1256 , 30 , alive
D03_03_ground_truth.png , 849 , 1256 , 67 , alive
D03_04_ground_truth.png , 396 , 1256 , 31 , alive
D03_05_ground_truth.png , 375 , 1256 , 29 , alive
D03_06_ground_truth.png , 343 , 1256 , 27 , alive
D03_07_ground_truth.png , 366 , 1256 , 29 , alive
D03_08_ground_truth.png , 321 , 1256 , 25 , dead
D03_09_ground_truth.png , 348 , 1256 , 27 , alive
D03_10_ground_truth.png , 379 , 1256 , 30 , alive
D03_11_ground_truth.png , 410 , 1256 , 32 , alive
D03_12_ground_truth.png , 382 , 1256 , 30 , alive
D03_13_ground_truth.png , 391 , 1256 , 31 , alive
D03_14_ground_truth.png , 397 , 1256 , 31 , alive
D03_15_ground_truth.png , 346 , 1256 , 27 , alive
D04_01_ground_truth.png , 408 , 1256 , 32 , alive
D04_02_ground_truth.png , 424 , 1256 , 33 , alive
D04_03_ground_truth.png , 396 , 1256 , 31 , alive
D04_04_ground_truth.png , 322 , 1256 , 25 , dead
D04_05_ground_truth.png , 402 , 1256 , 32 , alive
D04_06_ground_truth.png , 367 , 1256 , 29 , alive
D04_07_ground_truth.png , 391 , 1256 , 31 , alive
D04_08_ground_truth.png , 361 , 1256 , 28 , alive
D04_09_ground_truth.png , 365 , 1256 , 29 , alive
D04_10_ground_truth.png , 335 , 1256 , 26 , alive
D04_11_ground_truth.png , 353 , 1256 , 28 , alive
D04_12_ground_truth.png , 855 , 1256 , 68 , alive
D04_13_ground_truth.png , 436 , 1256 , 34 , alive
D04_14_ground_truth.png , 420 , 1256 , 33 , alive
D04_15_ground_truth.png , 378 , 1256 , 30 , alive
D05_01_ground_truth.png , 307 , 1256 , 24 , dead
D05_02_ground_truth.png , 419 , 1256 , 33 , alive
D05_03_ground_truth.png , 393 , 1256 , 31 , alive
D05_04_ground_truth.png , 309 , 1256 , 24 , dead
D05_05_ground_truth.png , 337 , 1256 , 26 , alive
D05_06_ground_truth.png , 408 , 1256 , 32 , alive
D05_07_ground_truth.png , 312 , 1256 , 24 , dead
D05_08_ground_truth.png , 414 , 1256 , 32 , alive
D05_09_ground_truth.png , 252 , 1256 , 20 , dead
D05_10_ground_truth.png , 410 , 1256 , 32 , alive
D05_11_ground_truth.png , 859 , 1256 , 68 , alive
D05_12_ground_truth.png , 373 , 1256 , 29 , alive
D05_13_ground_truth.png , 392 , 1256 , 31 , alive
D05_14_ground_truth.png , 335 , 1256 , 26 , alive
D05_15_ground_truth.png , 315 , 1256 , 25 , dead
D06_01_ground_truth.png , 367 , 1256 , 29 , alive
D06_02_ground_truth.png , 338 , 1256 , 26 , alive
D06_03_ground_truth.png , 426 , 1256 , 33 , alive
D06_04_ground_truth.png , 346 , 1256 , 27 , alive
D06_05_ground_truth.png , 827 , 1256 , 65 , alive
D06_06_ground_truth.png , 430 , 1256 , 34 , alive
D06_07_ground_truth.png , 369 , 1256 , 29 , alive
D06_08_ground_truth.png , 424 , 1256 , 33 , alive
D06_09_ground_truth.png , 398 , 1256 , 31 , alive
D06_10_ground_truth.png , 360 , 1256 , 28 , alive
D06_11_ground_truth.png , 380 , 1256 , 30 , alive
D06_12_ground_truth.png , 409 , 1256 , 32 , alive
D06_13_ground_truth.png , 346 , 1256 , 27 , alive
D06_14_ground_truth.png , 357 , 1256 , 28 , alive
D06_15_ground_truth.png , 356 , 1256 , 28 , alive
D07_01_ground_truth.png , 508 , 1256 , 40 , alive
D07_02_ground_truth.png , 339 , 1256 , 26 , alive
D07_03_ground_truth.png , 353 , 1256 , 28 , alive
D07_04_ground_truth.png , 325 , 1256 , 25 , dead
D07_05_ground_truth.png , 418 , 1256 , 33 , alive
D07_06_ground_truth.png , 395 , 1256 , 31 , alive
D07_07_ground_truth.png , 433 , 1256 , 34 , alive
D07_08_ground_truth.png , 395 , 1256 , 31 , alive
D07_09_ground_truth.png , 394 , 1256 , 31 , alive
D07_10_ground_truth.png , 406 , 1256 , 32 , alive
D07_11_ground_truth.png , 434 , 1256 , 34 , alive
D07_12_ground_truth.png , 369 , 1256 , 29 , alive
D07_13_ground_truth.png , 451 , 1256 , 35 , alive
D07_14_ground_truth.png , 404 , 1256 , 32 , alive
D07_15_ground_truth.png , 456 , 1256 , 36 , alive
D08_01_ground_truth.png , 813 , 1256 , 64 , alive
D08_02_ground_truth.png , 420 , 1256 , 33 , alive
D08_03_ground_truth.png , 384 , 1256 , 30 , alive
D08_04_ground_truth.png , 360 , 1256 , 28 , alive
D08_05_ground_truth.png , 398 , 1256 , 31 , alive
D08_06_ground_truth.png , 411 , 1256 , 32 , alive
D08_07_ground_truth.png , 570 , 1256 , 45 , alive
D08_08_ground_truth.png , 413 , 1256 , 32 , alive
D08_09_ground_truth.png , 804 , 1256 , 64 , alive
D08_10_ground_truth.png , 400 , 1256 , 31 , alive
D08_11_ground_truth.png , 548 , 1256 , 43 , alive
D08_12_ground_truth.png , 440 , 1256 , 35 , alive
D08_13_ground_truth.png , 424 , 1256 , 33 , alive
D08_14_ground_truth.png , 431 , 1256 , 34 , alive
D09_01_ground_truth.png , 429 , 1256 , 34 , alive
D09_02_ground_truth.png , 365 , 1256 , 29 , alive
D09_03_ground_truth.png , 406 , 1256 , 32 , alive
D09_04_ground_truth.png , 299 , 1256 , 23 , dead
D09_05_ground_truth.png , 437 , 1256 , 34 , alive
D09_06_ground_truth.png , 433 , 1256 , 34 , alive
D09_07_ground_truth.png , 362 , 1256 , 28 , alive
D09_08_ground_truth.png , 422 , 1256 , 33 , alive
D09_09_ground_truth.png , 387 , 1256 , 30 , alive
D09_10_ground_truth.png , 439 , 1256 , 34 , alive
D09_11_ground_truth.png , 415 , 1256 , 33 , alive
D09_12_ground_truth.png , 408 , 1256 , 32 , alive
D09_13_ground_truth.png , 391 , 1256 , 31 , alive
D09_14_ground_truth.png , 382 , 1256 , 30 , alive
D10_01_ground_truth.png , 422 , 1256 , 33 , alive
D10_02_ground_truth.png , 429 , 1256 , 34 , alive
D10_03_ground_truth.png , 441 , 1256 , 35 , alive
D10_04_ground_truth.png , 394 , 1256 , 31 , alive
D10_05_ground_truth.png , 657 , 1256 , 52 , alive
D10_06_ground_truth.png , 369 , 1256 , 29 , alive
D10_07_ground_truth.png , 402 , 1256 , 32 , alive
D10_08_ground_truth.png , 451 , 1256 , 35 , alive
D10_09_ground_truth.png , 382 , 1256 , 30 , alive
D10_10_ground_truth.png , 410 , 1256 , 32 , alive
D10_11_ground_truth.png , 718 , 1256 , 57 , alive
D10_12_ground_truth.png , 819 , 1256 , 65 , alive
D10_13_ground_truth.png , 401 , 1256 , 31 , alive
D10_14_ground_truth.png , 428 , 1256 , 34 , alive
D10_15_ground_truth.png , 385 , 1256 , 30 , alive
D11_01_ground_truth.png , 319 , 1256 , 25 , dead
D11_02_ground_truth.png , 411 , 1256 , 32 , alive
D11_03_ground_truth.png , 385 , 1256 , 30 , alive
D11_04_ground_truth.png , 356 , 1256 , 28 , alive
D11_05_ground_truth.png , 409 , 1256 , 32 , alive
D11_06_ground_truth.png , 343 , 1256 , 27 , alive
D11_07_ground_truth.png , 717 , 1256 , 57 , alive
D11_08_ground_truth.png , 471 , 1256 , 37 , alive
D11_09_ground_truth.png , 715 , 1256 , 56 , alive
D11_10_ground_truth.png , 468 , 1256 , 37 , alive
D11_11_ground_truth.png , 392 , 1256 , 31 , alive
D11_12_ground_truth.png , 394 , 1256 , 31 , alive
D11_13_ground_truth.png , 446 , 1256 , 35 , alive
D11_14_ground_truth.png , 640 , 1256 , 50 , alive
D11_15_ground_truth.png , 373 , 1256 , 29 , alive
D12_01_ground_truth.png , 402 , 1256 , 32 , alive
D12_02_ground_truth.png , 363 , 1256 , 28 , alive
D12_03_ground_truth.png , 368 , 1256 , 29 , alive
D12_04_ground_truth.png , 398 , 1256 , 31 , alive
D12_05_ground_truth.png , 353 , 1256 , 28 , alive
D12_06_ground_truth.png , 334 , 1256 , 26 , alive
D12_07_ground_truth.png , 693 , 1256 , 55 , alive
D12_08_ground_truth.png , 476 , 1256 , 37 , alive
D12_09_ground_truth.png , 371 , 1256 , 29 , alive
D12_10_ground_truth.png , 348 , 1256 , 27 , alive
D12_11_ground_truth.png , 439 , 1256 , 34 , alive
D12_12_ground_truth.png , 401 , 1256 , 31 , alive
D12_13_ground_truth.png , 333 , 1256 , 26 , alive
D12_14_ground_truth.png , 359 , 1256 , 28 , alive
D12_15_ground_truth.png , 427 , 1256 , 33 , alive
D13_01_ground_truth.png , 378 , 1256 , 30 , alive
D13_02_ground_truth.png , 406 , 1256 , 32 , alive
D13_03_ground_truth.png , 429 , 1256 , 34 , alive
D13_04_ground_truth.png , 407 , 1256 , 32 , alive
D13_05_ground_truth.png , 354 , 1256 , 28 , alive
D13_06_ground_truth.png , 356 , 1256 , 28 , alive
D13_07_ground_truth.png , 398 , 1256 , 31 , alive
D13_08_ground_truth.png , 352 , 1256 , 28 , alive
D13_09_ground_truth.png , 412 , 1256 , 32 , alive
D13_10_ground_truth.png , 398 , 1256 , 31 , alive
D13_11_ground_truth.png , 345 , 1256 , 27 , alive
D13_12_ground_truth.png , 378 , 1256 , 30 , alive
D13_13_ground_truth.png , 389 , 1256 , 30 , alive
D14_01_ground_truth.png , 341 , 1256 , 27 , alive
D14_02_ground_truth.png , 389 , 1256 , 30 , alive
D14_03_ground_truth.png , 383 , 1256 , 30 , alive
D14_04_ground_truth.png , 381 , 1256 , 30 , alive
D14_05_ground_truth.png , 509 , 1256 , 40 , alive
D14_06_ground_truth.png , 363 , 1256 , 28 , alive
D14_07_ground_truth.png , 427 , 1256 , 33 , alive
D14_08_ground_truth.png , 426 , 1256 , 33 , alive
D14_09_ground_truth.png , 420 , 1256 , 33 , alive
D14_10_ground_truth.png , 352 , 1256 , 28 , alive
D14_11_ground_truth.png , 306 , 1256 , 24 , dead
D14_12_ground_truth.png , 328 , 1256 , 26 , alive
D14_13_ground_truth.png , 348 , 1256 , 27 , alive
D15_02_ground_truth.png , 351 , 1256 , 27 , alive
D15_03_ground_truth.png , 374 , 1256 , 29 , alive
D15_04_ground_truth.png , 388 , 1256 , 30 , alive
D15_05_ground_truth.png , 370 , 1256 , 29 , alive
D15_06_ground_truth.png , 376 , 1256 , 29 , alive
D15_08_ground_truth.png , 361 , 1256 , 28 , alive
D15_09_ground_truth.png , 400 , 1256 , 31 , alive
D15_10_ground_truth.png , 386 , 1256 , 30 , alive
D15_11_ground_truth.png , 353 , 1256 , 28 , alive
D15_12_ground_truth.png , 399 , 1256 , 31 , alive
D15_13_ground_truth.png , 332 , 1256 , 26 , alive
D16_01_ground_truth.png , 389 , 1256 , 30 , alive
D16_02_ground_truth.png , 386 , 1256 , 30 , alive
D16_03_ground_truth.png , 340 , 1256 , 27 , alive
D16_05_ground_truth.png , 453 , 1256 , 36 , alive
D16_06_ground_truth.png , 377 , 1256 , 30 , alive
D16_07_ground_truth.png , 417 , 1256 , 33 , alive
D16_08_ground_truth.png , 382 , 1256 , 30 , alive
D16_09_ground_truth.png , 379 , 1256 , 30 , alive
D16_10_ground_truth.png , 388 , 1256 , 30 , alive
D16_11_ground_truth.png , 395 , 1256 , 31 , alive
D16_12_ground_truth.png , 406 , 1256 , 32 , alive
D16_13_ground_truth.png , 385 , 1256 , 30 , alive
D16_14_ground_truth.png , 352 , 1256 , 28 , alive
D17_01_ground_truth.png , 343 , 1256 , 27 , alive
D17_02_ground_truth.png , 386 , 1256 , 30 , alive
D17_03_ground_truth.png , 348 , 1256 , 27 , alive
D17_04_ground_truth.png , 388 , 1256 , 30 , alive
D17_05_ground_truth.png , 334 , 1256 , 26 , alive
D17_06_ground_truth.png , 301 , 1256 , 23 , dead
D17_07_ground_truth.png , 396 , 1256 , 31 , alive
D17_08_ground_truth.png , 345 , 1256 , 27 , alive
D17_09_ground_truth.png , 364 , 1256 , 28 , alive
D17_10_ground_truth.png , 362 , 1256 , 28 , alive
D17_11_ground_truth.png , 370 , 1256 , 29 , alive
D17_12_ground_truth.png , 366 , 1256 , 29 , alive
D17_13_ground_truth.png , 321 , 1256 , 25 , dead
D18_02_ground_truth.png , 343 , 1256 , 27 , alive
D18_03_ground_truth.png , 368 , 1256 , 29 , alive
D18_04_ground_truth.png , 399 , 1256 , 31 , alive
D18_05_ground_truth.png , 360 , 1256 , 28 , alive
D18_06_ground_truth.png , 433 , 1256 , 34 , alive
D18_07_ground_truth.png , 329 , 1256 , 26 , alive
D18_08_ground_truth.png , 425 , 1256 , 33 , alive
D18_09_ground_truth.png , 380 , 1256 , 30 , alive
D18_10_ground_truth.png , 302 , 1256 , 24 , dead
D18_11_ground_truth.png , 454 , 1256 , 36 , alive
D18_12_ground_truth.png , 412 , 1256 , 32 , alive
D19_01_ground_truth.png , 371 , 1256 , 29 , alive
D19_02_ground_truth.png , 321 , 1256 , 25 , dead
D19_03_ground_truth.png , 410 , 1256 , 32 , alive
D19_04_ground_truth.png , 367 , 1256 , 29 , alive
D19_05_ground_truth.png , 339 , 1256 , 26 , alive
D19_06_ground_truth.png , 358 , 1256 , 28 , alive
D19_07_ground_truth.png , 408 , 1256 , 32 , alive
D19_08_ground_truth.png , 436 , 1256 , 34 , alive
D19_09_ground_truth.png , 353 , 1256 , 28 , alive
D19_10_ground_truth.png , 341 , 1256 , 27 , alive
D19_11_ground_truth.png , 278 , 1256 , 22 , dead
D20_01_ground_truth.png , 344 , 1256 , 27 , alive
D20_02_ground_truth.png , 338 , 1256 , 26 , alive
D20_03_ground_truth.png , 397 , 1256 , 31 , alive
D20_04_ground_truth.png , 373 , 1256 , 29 , alive
D20_05_ground_truth.png , 363 , 1256 , 28 , alive
D20_06_ground_truth.png , 396 , 1256 , 31 , alive
D20_07_ground_truth.png , 360 , 1256 , 28 , alive
D20_08_ground_truth.png , 309 , 1256 , 24 , dead
D20_09_ground_truth.png , 341 , 1256 , 27 , alive
D20_10_ground_truth.png , 399 , 1256 , 31 , alive
D20_11_ground_truth.png , 434 , 1256 , 34 , alive
D20_12_ground_truth.png , 371 , 1256 , 29 , alive
D20_13_ground_truth.png , 365 , 1256 , 29 , alive
D20_14_ground_truth.png , 381 , 1256 , 30 , alive
D21_01_ground_truth.png , 367 , 1256 , 29 , alive
D21_02_ground_truth.png , 419 , 1256 , 33 , alive
D21_03_ground_truth.png , 301 , 1256 , 23 , dead
D21_04_ground_truth.png , 330 , 1256 , 26 , alive
D21_05_ground_truth.png , 329 , 1256 , 26 , alive
D21_06_ground_truth.png , 397 , 1256 , 31 , alive
D21_07_ground_truth.png , 311 , 1256 , 24 , dead
D21_08_ground_truth.png , 365 , 1256 , 29 , alive
D21_09_ground_truth.png , 361 , 1256 , 28 , alive
D21_10_ground_truth.png , 393 , 1256 , 31 , alive
D21_11_ground_truth.png , 344 , 1256 , 27 , alive
D21_13_ground_truth.png , 339 , 1256 , 26 , alive
D21_14_ground_truth.png , 346 , 1256 , 27 , alive
D21_15_ground_truth.png , 314 , 1256 , 25 , dead
D22_01_ground_truth.png , 330 , 1256 , 26 , alive
D22_02_ground_truth.png , 393 , 1256 , 31 , alive
D22_03_ground_truth.png , 378 , 1256 , 30 , alive
D22_04_ground_truth.png , 358 , 1256 , 28 , alive
D22_05_ground_truth.png , 355 , 1256 , 28 , alive
D22_06_ground_truth.png , 379 , 1256 , 30 , alive
D22_07_ground_truth.png , 310 , 1256 , 24 , dead
D22_08_ground_truth.png , 359 , 1256 , 28 , alive
D22_09_ground_truth.png , 378 , 1256 , 30 , alive
D22_10_ground_truth.png , 435 , 1256 , 34 , alive
D22_11_ground_truth.png , 340 , 1256 , 27 , alive
D22_12_ground_truth.png , 353 , 1256 , 28 , alive
D22_13_ground_truth.png , 355 , 1256 , 28 , alive
D22_14_ground_truth.png , 360 , 1256 , 28 , alive
D23_01_ground_truth.png , 358 , 1256 , 28 , alive
D23_02_ground_truth.png , 291 , 1256 , 23 , dead
D23_03_ground_truth.png , 334 , 1256 , 26 , alive
D23_04_ground_truth.png , 368 , 1256 , 29 , alive
D23_05_ground_truth.png , 389 , 1256 , 30 , alive
D23_06_ground_truth.png , 369 , 1256 , 29 , alive
D23_07_ground_truth.png , 303 , 1256 , 24 , dead
D23_08_ground_truth.png , 330 , 1256 , 26 , alive
D23_09_ground_truth.png , 334 , 1256 , 26 , alive
D23_10_ground_truth.png , 327 , 1256 , 26 , alive
D23_11_ground_truth.png , 375 , 1256 , 29 , alive
D23_12_ground_truth.png , 293 , 1256 , 23 , dead
D23_13_ground_truth.png , 524 , 1256 , 41 , alive
D24_01_ground_truth.png , 380 , 1256 , 30 , alive
D24_02_ground_truth.png , 403 , 1256 , 32 , alive
D24_03_ground_truth.png , 338 , 1256 , 26 , alive
D24_04_ground_truth.png , 386 , 1256 , 30 , alive
D24_05_ground_truth.png , 390 , 1256 , 31 , alive
D24_06_ground_truth.png , 389 , 1256 , 30 , alive
D24_07_ground_truth.png , 397 , 1256 , 31 , alive
D24_08_ground_truth.png , 372 , 1256 , 29 , alive
D24_09_ground_truth.png , 386 , 1256 , 30 , alive
D24_10_ground_truth.png , 347 , 1256 , 27 , alive
D24_11_ground_truth.png , 366 , 1256 , 29 , alive
D24_12_ground_truth.png , 407 , 1256 , 32 , alive
E01_01_ground_truth.png , 427 , 1256 , 33 , alive
E01_02_ground_truth.png , 410 , 1256 , 32 , alive
E01_03_ground_truth.png , 372 , 1256 , 29 , alive
E01_04_ground_truth.png , 387 , 1256 , 30 , alive
E01_05_ground_truth.png , 376 , 1256 , 29 , alive
E01_06_ground_truth.png , 440 , 1256 , 35 , alive
E01_07_ground_truth.png , 621 , 1256 , 49 , alive
E01_08_ground_truth.png , 387 , 1256 , 30 , alive
E01_09_ground_truth.png , 416 , 1256 , 33 , alive
E01_10_ground_truth.png , 355 , 1256 , 28 , alive
E01_11_ground_truth.png , 360 , 1256 , 28 , alive
E01_12_ground_truth.png , 404 , 1256 , 32 , alive
E01_13_ground_truth.png , 396 , 1256 , 31 , alive
E01_14_ground_truth.png , 413 , 1256 , 32 , alive
E01_15_ground_truth.png , 376 , 1256 , 29 , alive
E02_01_ground_truth.png , 338 , 1256 , 26 , alive
E02_02_ground_truth.png , 357 , 1256 , 28 , alive
E02_03_ground_truth.png , 379 , 1256 , 30 , alive
E02_04_ground_truth.png , 429 , 1256 , 34 , alive
E02_05_ground_truth.png , 341 , 1256 , 27 , alive
E02_06_ground_truth.png , 402 , 1256 , 32 , alive
E02_07_ground_truth.png , 393 , 1256 , 31 , alive
E02_08_ground_truth.png , 344 , 1256 , 27 , alive
E02_09_ground_truth.png , 407 , 1256 , 32 , alive
E02_10_ground_truth.png , 368 , 1256 , 29 , alive
E02_11_ground_truth.png , 383 , 1256 , 30 , alive
E02_12_ground_truth.png , 322 , 1256 , 25 , dead
E02_13_ground_truth.png , 396 , 1256 , 31 , alive
E02_14_ground_truth.png , 357 , 1256 , 28 , alive
E02_15_ground_truth.png , 355 , 1256 , 28 , alive
E03_01_ground_truth.png , 400 , 1256 , 31 , alive
E03_02_ground_truth.png , 431 , 1256 , 34 , alive
E03_03_ground_truth.png , 324 , 1256 , 25 , dead
E03_04_ground_truth.png , 501 , 1256 , 39 , alive
E03_05_ground_truth.png , 454 , 1256 , 36 , alive
E03_06_ground_truth.png , 474 , 1256 , 37 , alive
E03_07_ground_truth.png , 343 , 1256 , 27 , alive
E03_08_ground_truth.png , 555 , 1256 , 44 , alive
E03_09_ground_truth.png , 371 , 1256 , 29 , alive
E03_10_ground_truth.png , 362 , 1256 , 28 , alive
E03_11_ground_truth.png , 403 , 1256 , 32 , alive
E03_12_ground_truth.png , 506 , 1256 , 40 , alive
E03_13_ground_truth.png , 346 , 1256 , 27 , alive
E03_14_ground_truth.png , 402 , 1256 , 32 , alive
E04_01_ground_truth.png , 335 , 1256 , 26 , alive
E04_02_ground_truth.png , 378 , 1256 , 30 , alive
E04_03_ground_truth.png , 379 , 1256 , 30 , alive
E04_04_ground_truth.png , 398 , 1256 , 31 , alive
E04_05_ground_truth.png , 315 , 1256 , 25 , dead
E04_06_ground_truth.png , 346 , 1256 , 27 , alive
E04_07_ground_truth.png , 394 , 1256 , 31 , alive
E04_08_ground_truth.png , 394 , 1256 , 31 , alive
E04_09_ground_truth.png , 404 , 1256 , 32 , alive
E04_10_ground_truth.png , 378 , 1256 , 30 , alive
E04_11_ground_truth.png , 383 , 1256 , 30 , alive
E04_12_ground_truth.png , 456 , 1256 , 36 , alive
E04_13_ground_truth.png , 374 , 1256 , 29 , alive
E04_14_ground_truth.png , 349 , 1256 , 27 , alive
E04_15_ground_truth.png , 336 , 1256 , 26 , alive
