A01_01_ground_truth.png , 451 , 1256 , 35.90764331210191
A01_02_ground_truth.png , 368 , 1256 , 29.29936305732484
A01_03_ground_truth.png , 467 , 1256 , 37.181528662420384
A01_04_ground_truth.png , 420 , 1256 , 33.43949044585987
A01_05_ground_truth.png , 707 , 1256 , 56.28980891719745
A01_06_ground_truth.png , 619 , 1256 , 49.28343949044586
A01_07_ground_truth.png , 337 , 1256 , 26.831210191082803
A01_08_ground_truth.png , 412 , 1256 , 32.802547770700635
A01_09_ground_truth.png , 402 , 1256 , 32.00636942675159
A01_10_ground_truth.png , 468 , 1256 , 37.261146496815286
A01_11_ground_truth.png , 390 , 1256 , 31.050955414012737
A01_12_ground_truth.png , 455 , 1256 , 36.22611464968153
A01_13_ground_truth.png , 466 , 1256 , 37.101910828025474
A01_14_ground_truth.png , 377 , 1256 , 30.015923566878982
A01_15_ground_truth.png , 761 , 1256 , 60.589171974522294
A02_01_ground_truth.png , 442 , 1256 , 35.19108280254777
A02_02_ground_truth.png , 380 , 1256 , 30.254777070063692
A02_03_ground_truth.png , 372 , 1256 , 29.617834394904456
A02_04_ground_truth.png , 365 , 1256 , 29.06050955414013
A02_05_ground_truth.png , 389 , 1256 , 30.971337579617835
A02_06_ground_truth.png , 398 , 1256 , 31.687898089171973
A02_07_ground_truth.png , 404 , 1256 , 32.1656050955414
A02_08_ground_truth.png , 406 , 1256 , 32.324840764331206
A02_09_ground_truth.png , 367 , 1256 , 29.219745222929937
A02_10_ground_truth.png , 378 , 1256 , 30.095541401273884
A02_11_ground_truth.png , 392 , 1256 , 31.210191082802545
A02_12_ground_truth.png , 377 , 1256 , 30.015923566878982
A02_13_ground_truth.png , 382 , 1256 , 30.4140127388535
A02_14_ground_truth.png , 427 , 1256 , 33.996815286624205
A02_15_ground_truth.png , 366 , 1256 , 29.14012738853503
A03_01_ground_truth.png , 420 , 1256 , 33.43949044585987
A03_02_ground_truth.png , 402 , 1256 , 32.00636942675159
A03_03_ground_truth.png , 396 , 1256 , 31.528662420382165
A03_04_ground_truth.png , 366 , 1256 , 29.14012738853503
A03_05_ground_truth.png , 373 , 1256 , 29.697452229299365
A03_06_ground_truth.png , 387 , 1256 , 30.812101910828027
A03_07_ground_truth.png , 367 , 1256 , 29.219745222929937
A03_08_ground_truth.png , 404 , 1256 , 32.1656050955414
A03_09_ground_truth.png , 347 , 1256 , 27.627388535031848
A03_10_ground_truth.png , 369 , 1256 , 29.378980891719745
A03_11_ground_truth.png , 355 , 1256 , 28.264331210191084
A03_12_ground_truth.png , 408 , 1256 , 32.48407643312102
A03_13_ground_truth.png , 792 , 1256 , 63.05732484076433
A03_14_ground_truth.png , 317 , 1256 , 25.238853503184718
A03_15_ground_truth.png , 775 , 1256 , 61.70382165605095
A04_01_ground_truth.png , 408 , 1256 , 32.48407643312102
A04_02_ground_truth.png , 783 , 1256 , 62.34076433121019
A04_03_ground_truth.png , 406 , 1256 , 32.324840764331206
A04_04_ground_truth.png , 391 , 1256 , 31.130573248407643
A04_05_ground_truth.png , 402 , 1256 , 32.00636942675159
A04_06_ground_truth.png , 411 , 1256 , 32.72292993630573
A04_07_ground_truth.png , 420 , 1256 , 33.43949044585987
A04_08_ground_truth.png , 321 , 1256 , 25.557324840764334
A04_09_ground_truth.png , 362 , 1256 , 28.82165605095541
A04_10_ground_truth.png , 398 , 1256 , 31.687898089171973
A04_11_ground_truth.png , 346 , 1256 , 27.547770700636942
A04_12_ground_truth.png , 422 , 1256 , 33.59872611464968
A04_13_ground_truth.png , 358 , 1256 , 28.503184713375795
A04_14_ground_truth.png , 355 , 1256 , 28.264331210191084
A04_15_ground_truth.png , 652 , 1256 , 51.910828025477706
A05_01_ground_truth.png , 361 , 1256 , 28.742038216560513
A05_02_ground_truth.png , 396 , 1256 , 31.528662420382165
A05_03_ground_truth.png , 386 , 1256 , 30.73248407643312
A05_04_ground_truth.png , 404 , 1256 , 32.1656050955414
A05_05_ground_truth.png , 361 , 1256 , 28.742038216560513
A05_06_ground_truth.png , 378 , 1256 , 30.095541401273884
A05_07_ground_truth.png , 548 , 1256 , 43.63057324840764
A05_08_ground_truth.png , 475 , 1256 , 37.818471337579616
A05_09_ground_truth.png , 336 , 1256 , 26.751592356687897
A05_10_ground_truth.png , 385 , 1256 , 30.65286624203822
A05_11_ground_truth.png , 386 , 1256 , 30.73248407643312
A05_12_ground_truth.png , 362 , 1256 , 28.82165605095541
A05_13_ground_truth.png , 407 , 1256 , 32.404458598726116
A05_14_ground_truth.png , 416 , 1256 , 33.12101910828025
A05_15_ground_truth.png , 400 , 1256 , 31.84713375796178
A06_01_ground_truth.png , 373 , 1256 , 29.697452229299365
A06_02_ground_truth.png , 446 , 1256 , 35.509554140127385
A06_03_ground_truth.png , 401 , 1256 , 31.926751592356688
A06_04_ground_truth.png , 328 , 1256 , 26.11464968152866
A06_05_ground_truth.png , 413 , 1256 , 32.882165605095544
A06_06_ground_truth.png , 366 , 1256 , 29.14012738853503
A06_07_ground_truth.png , 421 , 1256 , 33.51910828025478
A06_08_ground_truth.png , 458 , 1256 , 36.46496815286624
A06_09_ground_truth.png , 317 , 1256 , 25.238853503184718
A06_10_ground_truth.png , 431 , 1256 , 34.31528662420382
A06_11_ground_truth.png , 386 , 1256 , 30.73248407643312
A06_12_ground_truth.png , 411 , 1256 , 32.72292993630573
A06_13_ground_truth.png , 334 , 1256 , 26.59235668789809
A06_14_ground_truth.png , 720 , 1256 , 57.324840764331206
A06_15_ground_truth.png , 392 , 1256 , 31.210191082802545
A07_01_ground_truth.png , 420 , 1256 , 33.43949044585987
A07_02_ground_truth.png , 403 , 1256 , 32.0859872611465
A07_03_ground_truth.png , 402 , 1256 , 32.00636942675159
A07_04_ground_truth.png , 392 , 1256 , 31.210191082802545
A07_05_ground_truth.png , 397 , 1256 , 31.60828025477707
A07_06_ground_truth.png , 387 , 1256 , 30.812101910828027
A07_07_ground_truth.png , 357 , 1256 , 28.423566878980893
A07_08_ground_truth.png , 390 , 1256 , 31.050955414012737
A07_09_ground_truth.png , 376 , 1256 , 29.936305732484076
A07_10_ground_truth.png , 465 , 1256 , 37.02229299363057
A07_11_ground_truth.png , 427 , 1256 , 33.996815286624205
A07_12_ground_truth.png , 410 , 1256 , 32.64331210191082
A07_13_ground_truth.png , 418 , 1256 , 33.28025477707006
A07_14_ground_truth.png , 340 , 1256 , 27.070063694267514
A08_01_ground_truth.png , 421 , 1256 , 33.51910828025478
A08_02_ground_truth.png , 443 , 1256 , 35.27070063694268
A08_03_ground_truth.png , 394 , 1256 , 31.369426751592357
A08_04_ground_truth.png , 366 , 1256 , 29.14012738853503
A08_05_ground_truth.png , 434 , 1256 , 34.554140127388536
A08_06_ground_truth.png , 378 , 1256 , 30.095541401273884
A08_07_ground_truth.png , 792 , 1256 , 63.05732484076433
A08_08_ground_truth.png , 461 , 1256 , 36.703821656050955
A08_09_ground_truth.png , 435 , 1256 , 34.63375796178344
A08_10_ground_truth.png , 356 , 1256 , 28.343949044585987
A08_11_ground_truth.png , 430 , 1256 , 34.23566878980891
A08_12_ground_truth.png , 458 , 1256 , 36.46496815286624
A08_13_ground_truth.png , 360 , 1256 , 28.662420382165603
A08_14_ground_truth.png , 414 , 1256 , 32.961783439490446
A08_15_ground_truth.png , 395 , 1256 , 31.449044585987263
A09_01_ground_truth.png , 377 , 1256 , 30.015923566878982
A09_02_ground_truth.png , 359 , 1256 , 28.582802547770704
A09_03_ground_truth.png , 351 , 1256 , 27.945859872611468
A09_04_ground_truth.png , 376 , 1256 , 29.936305732484076
A09_06_ground_truth.png , 350 , 1256 , 27.86624203821656
A09_07_ground_truth.png , 360 , 1256 , 28.662420382165603
A09_08_ground_truth.png , 409 , 1256 , 32.56369426751593
A09_09_ground_truth.png , 414 , 1256 , 32.961783439490446
A09_10_ground_truth.png , 373 , 1256 , 29.697452229299365
A09_11_ground_truth.png , 396 , 1256 , 31.528662420382165
A09_12_ground_truth.png , 356 , 1256 , 28.343949044585987
A09_13_ground_truth.png , 387 , 1256 , 30.812101910828027
A09_14_ground_truth.png , 772 , 1256 , 61.46496815286624
A09_15_ground_truth.png , 383 , 1256 , 30.49363057324841
A09_16_ground_truth.png , 401 , 1256 , 31.926751592356688
A10_01_ground_truth.png , 376 , 1256 , 29.936305732484076
A10_02_ground_truth.png , 348 , 1256 , 27.70700636942675
A10_03_ground_truth.png , 339 , 1256 , 26.990445859872615
A10_04_ground_truth.png , 386 , 1256 , 30.73248407643312
A10_05_ground_truth.png , 318 , 1256 , 25.318471337579616
A10_06_ground_truth.png , 406 , 1256 , 32.324840764331206
A10_07_ground_truth.png , 396 , 1256 , 31.528662420382165
A10_08_ground_truth.png , 375 , 1256 , 29.856687898089174
A10_09_ground_truth.png , 412 , 1256 , 32.802547770700635
A10_10_ground_truth.png , 362 , 1256 , 28.82165605095541
A10_11_ground_truth.png , 402 , 1256 , 32.00636942675159
A10_12_ground_truth.png , 394 , 1256 , 31.369426751592357
A10_13_ground_truth.png , 412 , 1256 , 32.802547770700635
A10_14_ground_truth.png , 353 , 1256 , 28.105095541401276
A10_15_ground_truth.png , 349 , 1256 , 27.78662420382166
A11_01_ground_truth.png , 382 , 1256 , 30.4140127388535
A11_02_ground_truth.png , 385 , 1256 , 30.65286624203822
A11_03_ground_truth.png , 361 , 1256 , 28.742038216560513
A11_04_ground_truth.png , 398 , 1256 , 31.687898089171973
A11_05_ground_truth.png , 381 , 1256 , 30.334394904458602
A11_06_ground_truth.png , 358 , 1256 , 28.503184713375795
A11_07_ground_truth.png , 329 , 1256 , 26.19426751592357
A11_08_ground_truth.png , 387 , 1256 , 30.812101910828027
A11_09_ground_truth.png , 379 , 1256 , 30.17515923566879
A11_10_ground_truth.png , 388 , 1256 , 30.89171974522293
A11_11_ground_truth.png , 409 , 1256 , 32.56369426751593
A11_12_ground_truth.png , 324 , 1256 , 25.796178343949045
A11_13_ground_truth.png , 411 , 1256 , 32.72292993630573
A11_14_ground_truth.png , 380 , 1256 , 30.254777070063692
A11_15_ground_truth.png , 419 , 1256 , 33.35987261146497
A12_01_ground_truth.png , 402 , 1256 , 32.00636942675159
A12_02_ground_truth.png , 370 , 1256 , 29.458598726114648
A12_03_ground_truth.png , 397 , 1256 , 31.60828025477707
A12_04_ground_truth.png , 365 , 1256 , 29.06050955414013
A12_05_ground_truth.png , 363 , 1256 , 28.90127388535032
A12_06_ground_truth.png , 370 , 1256 , 29.458598726114648
A12_07_ground_truth.png , 430 , 1256 , 34.23566878980891
A12_08_ground_truth.png , 374 , 1256 , 29.777070063694268
A12_09_ground_truth.png , 437 , 1256 , 34.79299363057325
A12_10_ground_truth.png , 384 , 1256 , 30.573248407643312
A12_11_ground_truth.png , 576 , 1256 , 45.85987261146497
A12_12_ground_truth.png , 565 , 1256 , 44.98407643312102
A12_13_ground_truth.png , 368 , 1256 , 29.29936305732484
A12_14_ground_truth.png , 377 , 1256 , 30.015923566878982
A12_15_ground_truth.png , 375 , 1256 , 29.856687898089174
A13_01_ground_truth.png , 334 , 1256 , 26.59235668789809
A13_02_ground_truth.png , 349 , 1256 , 27.78662420382166
A13_03_ground_truth.png , 369 , 1256 , 29.378980891719745
A13_04_ground_truth.png , 330 , 1256 , 26.273885350318473
A13_05_ground_truth.png , 343 , 1256 , 27.30891719745223
A13_06_ground_truth.png , 378 , 1256 , 30.095541401273884
A13_07_ground_truth.png , 310 , 1256 , 24.681528662420384
A13_08_ground_truth.png , 340 , 1256 , 27.070063694267514
A13_09_ground_truth.png , 371 , 1256 , 29.538216560509557
A13_10_ground_truth.png , 389 , 1256 , 30.971337579617835
A13_11_ground_truth.png , 384 , 1256 , 30.573248407643312
A13_12_ground_truth.png , 420 , 1256 , 33.43949044585987
A13_13_ground_truth.png , 327 , 1256 , 26.03503184713376
A13_14_ground_truth.png , 387 , 1256 , 30.812101910828027
A14_01_ground_truth.png , 419 , 1256 , 33.35987261146497
A14_02_ground_truth.png , 301 , 1256 , 23.96496815286624
A14_03_ground_truth.png , 285 , 1256 , 22.691082802547772
A14_04_ground_truth.png , 401 , 1256 , 31.926751592356688
A14_05_ground_truth.png , 478 , 1256 , 38.05732484076433
A14_06_ground_truth.png , 344 , 1256 , 27.388535031847134
A14_07_ground_truth.png , 365 , 1256 , 29.06050955414013
A14_08_ground_truth.png , 406 , 1256 , 32.324840764331206
A14_09_ground_truth.png , 404 , 1256 , 32.1656050955414
A14_10_ground_truth.png , 424 , 1256 , 33.75796178343949
A14_11_ground_truth.png , 440 , 1256 , 35.03184713375796
A14_12_ground_truth.png , 358 , 1256 , 28.503184713375795
A14_13_ground_truth.png , 376 , 1256 , 29.936305732484076
A14_14_ground_truth.png , 296 , 1256 , 23.56687898089172
A14_15_ground_truth.png , 421 , 1256 , 33.51910828025478
A15_01_ground_truth.png , 347 , 1256 , 27.627388535031848
A15_02_ground_truth.png , 326 , 1256 , 25.955414012738853
A15_03_ground_truth.png , 391 , 1256 , 31.130573248407643
A15_04_ground_truth.png , 299 , 1256 , 23.805732484076433
A15_05_ground_truth.png , 353 , 1256 , 28.105095541401276
A15_06_ground_truth.png , 349 , 1256 , 27.78662420382166
A15_07_ground_truth.png , 312 , 1256 , 24.840764331210192
A15_08_ground_truth.png , 332 , 1256 , 26.43312101910828
A15_09_ground_truth.png , 387 , 1256 , 30.812101910828027
A15_10_ground_truth.png , 386 , 1256 , 30.73248407643312
A15_11_ground_truth.png , 382 , 1256 , 30.4140127388535
A15_12_ground_truth.png , 350 , 1256 , 27.86624203821656
A15_13_ground_truth.png , 304 , 1256 , 24.203821656050955
A15_14_ground_truth.png , 409 , 1256 , 32.56369426751593
A15_15_ground_truth.png , 349 , 1256 , 27.78662420382166
A16_01_ground_truth.png , 349 , 1256 , 27.78662420382166
A16_02_ground_truth.png , 346 , 1256 , 27.547770700636942
A16_03_ground_truth.png , 348 , 1256 , 27.70700636942675
A16_04_ground_truth.png , 334 , 1256 , 26.59235668789809
A16_05_ground_truth.png , 333 , 1256 , 26.512738853503187
A16_06_ground_truth.png , 369 , 1256 , 29.378980891719745
A16_07_ground_truth.png , 387 , 1256 , 30.812101910828027
A16_08_ground_truth.png , 333 , 1256 , 26.512738853503187
A16_09_ground_truth.png , 332 , 1256 , 26.43312101910828
A16_10_ground_truth.png , 350 , 1256 , 27.86624203821656
A16_12_ground_truth.png , 427 , 1256 , 33.996815286624205
A16_13_ground_truth.png , 381 , 1256 , 30.334394904458602
A16_14_ground_truth.png , 424 , 1256 , 33.75796178343949
A17_01_ground_truth.png , 387 , 1256 , 30.812101910828027
A17_02_ground_truth.png , 392 , 1256 , 31.210191082802545
A17_03_ground_truth.png , 427 , 1256 , 33.996815286624205
A17_04_ground_truth.png , 294 , 1256 , 23.40764331210191
A17_05_ground_truth.png , 398 , 1256 , 31.687898089171973
A17_06_ground_truth.png , 351 , 1256 , 27.945859872611468
A17_07_ground_truth.png , 370 , 1256 , 29.458598726114648
A17_08_ground_truth.png , 353 , 1256 , 28.105095541401276
A17_09_ground_truth.png , 371 , 1256 , 29.538216560509557
A17_10_ground_truth.png , 396 , 1256 , 31.528662420382165
A17_11_ground_truth.png , 363 , 1256 , 28.90127388535032
A17_12_ground_truth.png , 418 , 1256 , 33.28025477707006
A17_13_ground_truth.png , 365 , 1256 , 29.06050955414013
A17_14_ground_truth.png , 383 , 1256 , 30.49363057324841
A18_01_ground_truth.png , 393 , 1256 , 31.289808917197455
A18_02_ground_truth.png , 351 , 1256 , 27.945859872611468
A18_03_ground_truth.png , 357 , 1256 , 28.423566878980893
A18_04_ground_truth.png , 311 , 1256 , 24.761146496815286
A18_05_ground_truth.png , 337 , 1256 , 26.831210191082803
A18_06_ground_truth.png , 368 , 1256 , 29.29936305732484
A18_07_ground_truth.png , 326 , 1256 , 25.955414012738853
A18_08_ground_truth.png , 402 , 1256 , 32.00636942675159
A18_09_ground_truth.png , 302 , 1256 , 24.044585987261147
A18_10_ground_truth.png , 469 , 1256 , 37.34076433121019
A18_11_ground_truth.png , 436 , 1256 , 34.71337579617834
A18_12_ground_truth.png , 389 , 1256 , 30.971337579617835
A18_13_ground_truth.png , 324 , 1256 , 25.796178343949045
A18_14_ground_truth.png , 361 , 1256 , 28.742038216560513
A19_01_ground_truth.png , 391 , 1256 , 31.130573248407643
A19_02_ground_truth.png , 370 , 1256 , 29.458598726114648
A19_03_ground_truth.png , 319 , 1256 , 25.398089171974526
A19_04_ground_truth.png , 416 , 1256 , 33.12101910828025
A19_05_ground_truth.png , 426 , 1256 , 33.917197452229296
A19_06_ground_truth.png , 355 , 1256 , 28.264331210191084
A19_07_ground_truth.png , 387 , 1256 , 30.812101910828027
A19_08_ground_truth.png , 368 , 1256 , 29.29936305732484
A19_09_ground_truth.png , 336 , 1256 , 26.751592356687897
A19_10_ground_truth.png , 421 , 1256 , 33.51910828025478
A19_11_ground_truth.png , 472 , 1256 , 37.57961783439491
A19_12_ground_truth.png , 336 , 1256 , 26.751592356687897
A20_01_ground_truth.png , 338 , 1256 , 26.910828025477706
A20_02_ground_truth.png , 397 , 1256 , 31.60828025477707
A20_03_ground_truth.png , 340 , 1256 , 27.070063694267514
A20_04_ground_truth.png , 349 , 1256 , 27.78662420382166
A20_05_ground_truth.png , 332 , 1256 , 26.43312101910828
A20_06_ground_truth.png , 379 , 1256 , 30.17515923566879
A20_07_ground_truth.png , 329 , 1256 , 26.19426751592357
A20_08_ground_truth.png , 403 , 1256 , 32.0859872611465
A20_09_ground_truth.png , 389 , 1256 , 30.971337579617835
A20_10_ground_truth.png , 396 , 1256 , 31.528662420382165
A20_11_ground_truth.png , 393 , 1256 , 31.289808917197455
A20_12_ground_truth.png , 345 , 1256 , 27.46815286624204
A20_13_ground_truth.png , 329 , 1256 , 26.19426751592357
A20_14_ground_truth.png , 337 , 1256 , 26.831210191082803
A21_01_ground_truth.png , 402 , 1256 , 32.00636942675159
A21_02_ground_truth.png , 276 , 1256 , 21.97452229299363
A21_03_ground_truth.png , 334 , 1256 , 26.59235668789809
A21_04_ground_truth.png , 314 , 1256 , 25.0
A21_05_ground_truth.png , 372 , 1256 , 29.617834394904456
A21_06_ground_truth.png , 376 , 1256 , 29.936305732484076
A21_07_ground_truth.png , 366 , 1256 , 29.14012738853503
A21_08_ground_truth.png , 340 , 1256 , 27.070063694267514
A21_09_ground_truth.png , 332 , 1256 , 26.43312101910828
A21_10_ground_truth.png , 352 , 1256 , 28.02547770700637
A21_11_ground_truth.png , 424 , 1256 , 33.75796178343949
A21_12_ground_truth.png , 322 , 1256 , 25.636942675159236
A21_13_ground_truth.png , 374 , 1256 , 29.777070063694268
A21_14_ground_truth.png , 336 , 1256 , 26.751592356687897
A22_01_ground_truth.png , 353 , 1256 , 28.105095541401276
A22_02_ground_truth.png , 379 , 1256 , 30.17515923566879
A22_03_ground_truth.png , 288 , 1256 , 22.929936305732486
A22_04_ground_truth.png , 293 , 1256 , 23.32802547770701
A22_05_ground_truth.png , 349 , 1256 , 27.78662420382166
A22_06_ground_truth.png , 275 , 1256 , 21.894904458598727
A22_07_ground_truth.png , 355 , 1256 , 28.264331210191084
A22_08_ground_truth.png , 355 , 1256 , 28.264331210191084
A22_09_ground_truth.png , 418 , 1256 , 33.28025477707006
A22_10_ground_truth.png , 339 , 1256 , 26.990445859872615
A22_11_ground_truth.png , 375 , 1256 , 29.856687898089174
A22_12_ground_truth.png , 300 , 1256 , 23.88535031847134
A22_13_ground_truth.png , 322 , 1256 , 25.636942675159236
A22_14_ground_truth.png , 293 , 1256 , 23.32802547770701
A22_15_ground_truth.png , 331 , 1256 , 26.35350318471338
A23_01_ground_truth.png , 365 , 1256 , 29.06050955414013
A23_02_ground_truth.png , 414 , 1256 , 32.961783439490446
A23_03_ground_truth.png , 325 , 1256 , 25.87579617834395
A23_04_ground_truth.png , 314 , 1256 , 25.0
A23_05_ground_truth.png , 434 , 1256 , 34.554140127388536
A23_06_ground_truth.png , 376 , 1256 , 29.936305732484076
A23_07_ground_truth.png , 401 , 1256 , 31.926751592356688
A23_08_ground_truth.png , 469 , 1256 , 37.34076433121019
A23_09_ground_truth.png , 408 , 1256 , 32.48407643312102
A23_10_ground_truth.png , 398 , 1256 , 31.687898089171973
A23_11_ground_truth.png , 364 , 1256 , 28.980891719745223
A23_12_ground_truth.png , 338 , 1256 , 26.910828025477706
A24_01_ground_truth.png , 353 , 1256 , 28.105095541401276
A24_02_ground_truth.png , 372 , 1256 , 29.617834394904456
A24_03_ground_truth.png , 335 , 1256 , 26.671974522292995
A24_04_ground_truth.png , 374 , 1256 , 29.777070063694268
A24_05_ground_truth.png , 402 , 1256 , 32.00636942675159
A24_06_ground_truth.png , 391 , 1256 , 31.130573248407643
A24_07_ground_truth.png , 334 , 1256 , 26.59235668789809
A24_08_ground_truth.png , 357 , 1256 , 28.423566878980893
A24_09_ground_truth.png , 369 , 1256 , 29.378980891719745
A24_10_ground_truth.png , 337 , 1256 , 26.831210191082803
A24_11_ground_truth.png , 345 , 1256 , 27.46815286624204
A24_12_ground_truth.png , 387 , 1256 , 30.812101910828027
A24_13_ground_truth.png , 391 , 1256 , 31.130573248407643
A24_14_ground_truth.png , 385 , 1256 , 30.65286624203822
B01_01_ground_truth.png , 425 , 1256 , 33.83757961783439
B01_02_ground_truth.png , 416 , 1256 , 33.12101910828025
B01_03_ground_truth.png , 402 , 1256 , 32.00636942675159
B01_04_ground_truth.png , 389 , 1256 , 30.971337579617835
B01_05_ground_truth.png , 325 , 1256 , 25.87579617834395
B01_06_ground_truth.png , 357 , 1256 , 28.423566878980893
B01_07_ground_truth.png , 417 , 1256 , 33.20063694267516
B01_08_ground_truth.png , 443 , 1256 , 35.27070063694268
B01_09_ground_truth.png , 431 , 1256 , 34.31528662420382
B01_10_ground_truth.png , 408 , 1256 , 32.48407643312102
B01_11_ground_truth.png , 420 , 1256 , 33.43949044585987
B01_12_ground_truth.png , 419 , 1256 , 33.35987261146497
B01_13_ground_truth.png , 401 , 1256 , 31.926751592356688
B01_14_ground_truth.png , 397 , 1256 , 31.60828025477707
B01_15_ground_truth.png , 324 , 1256 , 25.796178343949045
B02_01_ground_truth.png , 409 , 1256 , 32.56369426751593
B02_02_ground_truth.png , 347 , 1256 , 27.627388535031848
B02_03_ground_truth.png , 596 , 1256 , 47.452229299363054
B02_04_ground_truth.png , 361 , 1256 , 28.742038216560513
B02_05_ground_truth.png , 392 , 1256 , 31.210191082802545
B02_06_ground_truth.png , 391 , 1256 , 31.130573248407643
B02_07_ground_truth.png , 403 , 1256 , 32.0859872611465
B02_08_ground_truth.png , 340 , 1256 , 27.070063694267514
B02_09_ground_truth.png , 362 , 1256 , 28.82165605095541
B02_10_ground_truth.png , 392 , 1256 , 31.210191082802545
B02_11_ground_truth.png , 446 , 1256 , 35.509554140127385
B02_12_ground_truth.png , 407 , 1256 , 32.404458598726116
B02_13_ground_truth.png , 381 , 1256 , 30.334394904458602
B02_14_ground_truth.png , 314 , 1256 , 25.0
B02_15_ground_truth.png , 417 , 1256 , 33.20063694267516
B03_01_ground_truth.png , 411 , 1256 , 32.72292993630573
B03_02_ground_truth.png , 389 , 1256 , 30.971337579617835
B03_03_ground_truth.png , 349 , 1256 , 27.78662420382166
B03_04_ground_truth.png , 360 , 1256 , 28.662420382165603
B03_05_ground_truth.png , 368 , 1256 , 29.29936305732484
B03_06_ground_truth.png , 372 , 1256 , 29.617834394904456
B03_07_ground_truth.png , 419 , 1256 , 33.35987261146497
B03_08_ground_truth.png , 366 , 1256 , 29.14012738853503
B03_09_ground_truth.png , 394 , 1256 , 31.369426751592357
B03_10_ground_truth.png , 405 , 1256 , 32.245222929936304
B03_11_ground_truth.png , 496 , 1256 , 39.490445859872615
B03_12_ground_truth.png , 710 , 1256 , 56.52866242038217
B03_13_ground_truth.png , 395 , 1256 , 31.449044585987263
B03_14_ground_truth.png , 373 , 1256 , 29.697452229299365
B03_15_ground_truth.png , 384 , 1256 , 30.573248407643312
B04_01_ground_truth.png , 352 , 1256 , 28.02547770700637
B04_02_ground_truth.png , 646 , 1256 , 51.433121019108285
B04_03_ground_truth.png , 338 , 1256 , 26.910828025477706
B04_04_ground_truth.png , 329 , 1256 , 26.19426751592357
B04_05_ground_truth.png , 346 , 1256 , 27.547770700636942
B04_06_ground_truth.png , 435 , 1256 , 34.63375796178344
B04_07_ground_truth.png , 416 , 1256 , 33.12101910828025
B04_08_ground_truth.png , 452 , 1256 , 35.98726114649681
B04_09_ground_truth.png , 404 , 1256 , 32.1656050955414
B04_10_ground_truth.png , 426 , 1256 , 33.917197452229296
B04_11_ground_truth.png , 393 , 1256 , 31.289808917197455
B04_12_ground_truth.png , 363 , 1256 , 28.90127388535032
B04_13_ground_truth.png , 451 , 1256 , 35.90764331210191
B04_14_ground_truth.png , 382 , 1256 , 30.4140127388535
B04_15_ground_truth.png , 308 , 1256 , 24.522292993630572
B05_01_ground_truth.png , 414 , 1256 , 32.961783439490446
B05_02_ground_truth.png , 376 , 1256 , 29.936305732484076
B05_03_ground_truth.png , 425 , 1256 , 33.83757961783439
B05_04_ground_truth.png , 405 , 1256 , 32.245222929936304
B05_05_ground_truth.png , 412 , 1256 , 32.802547770700635
B05_06_ground_truth.png , 422 , 1256 , 33.59872611464968
B05_07_ground_truth.png , 402 , 1256 , 32.00636942675159
B05_08_ground_truth.png , 329 , 1256 , 26.19426751592357
B05_09_ground_truth.png , 356 , 1256 , 28.343949044585987
B05_10_ground_truth.png , 578 , 1256 , 46.01910828025478
B05_11_ground_truth.png , 564 , 1256 , 44.904458598726116
B05_12_ground_truth.png , 352 , 1256 , 28.02547770700637
B05_13_ground_truth.png , 412 , 1256 , 32.802547770700635
B05_14_ground_truth.png , 375 , 1256 , 29.856687898089174
B06_01_ground_truth.png , 450 , 1256 , 35.828025477707
B06_02_ground_truth.png , 806 , 1256 , 64.171974522293
B06_03_ground_truth.png , 457 , 1256 , 36.38535031847134
B06_04_ground_truth.png , 343 , 1256 , 27.30891719745223
B06_05_ground_truth.png , 393 , 1256 , 31.289808917197455
B06_06_ground_truth.png , 358 , 1256 , 28.503184713375795
B06_07_ground_truth.png , 385 , 1256 , 30.65286624203822
B06_08_ground_truth.png , 385 , 1256 , 30.65286624203822
B06_09_ground_truth.png , 371 , 1256 , 29.538216560509557
B06_10_ground_truth.png , 452 , 1256 , 35.98726114649681
B06_11_ground_truth.png , 419 , 1256 , 33.35987261146497
B06_12_ground_truth.png , 424 , 1256 , 33.75796178343949
B06_13_ground_truth.png , 599 , 1256 , 47.69108280254777
B06_14_ground_truth.png , 355 , 1256 , 28.264331210191084
B06_15_ground_truth.png , 357 , 1256 , 28.423566878980893
B07_01_ground_truth.png , 480 , 1256 , 38.21656050955414
B07_02_ground_truth.png , 498 , 1256 , 39.64968152866242
B07_03_ground_truth.png , 364 , 1256 , 28.980891719745223
B07_04_ground_truth.png , 369 , 1256 , 29.378980891719745
B07_05_ground_truth.png , 393 , 1256 , 31.289808917197455
B07_06_ground_truth.png , 456 , 1256 , 36.30573248407643
B07_07_ground_truth.png , 481 , 1256 , 38.296178343949045
B07_08_ground_truth.png , 285 , 1256 , 22.691082802547772
B07_09_ground_truth.png , 393 , 1256 , 31.289808917197455
B07_10_ground_truth.png , 405 , 1256 , 32.245222929936304
B07_11_ground_truth.png , 521 , 1256 , 41.48089171974522
B07_12_ground_truth.png , 409 , 1256 , 32.56369426751593
B07_13_ground_truth.png , 447 , 1256 , 35.589171974522294
B07_14_ground_truth.png , 374 , 1256 , 29.777070063694268
B07_15_ground_truth.png , 466 , 1256 , 37.101910828025474
B08_01_ground_truth.png , 365 , 1256 , 29.06050955414013
B08_02_ground_truth.png , 410 , 1256 , 32.64331210191082
B08_03_ground_truth.png , 393 , 1256 , 31.289808917197455
B08_04_ground_truth.png , 415 , 1256 , 33.04140127388535
B08_05_ground_truth.png , 375 , 1256 , 29.856687898089174
B08_06_ground_truth.png , 419 , 1256 , 33.35987261146497
B08_07_ground_truth.png , 404 , 1256 , 32.1656050955414
B08_08_ground_truth.png , 684 , 1256 , 54.45859872611465
B08_09_ground_truth.png , 466 , 1256 , 37.101910828025474
B08_10_ground_truth.png , 427 , 1256 , 33.996815286624205
B08_11_ground_truth.png , 376 , 1256 , 29.936305732484076
B08_12_ground_truth.png , 360 , 1256 , 28.662420382165603
B08_13_ground_truth.png , 343 , 1256 , 27.30891719745223
B08_14_ground_truth.png , 366 , 1256 , 29.14012738853503
B08_15_ground_truth.png , 417 , 1256 , 33.20063694267516
B09_01_ground_truth.png , 418 , 1256 , 33.28025477707006
B09_02_ground_truth.png , 449 , 1256 , 35.7484076433121
B09_03_ground_truth.png , 409 , 1256 , 32.56369426751593
B09_04_ground_truth.png , 399 , 1256 , 31.76751592356688
B09_05_ground_truth.png , 422 , 1256 , 33.59872611464968
B09_06_ground_truth.png , 391 , 1256 , 31.130573248407643
B09_07_ground_truth.png , 411 , 1256 , 32.72292993630573
B09_08_ground_truth.png , 434 , 1256 , 34.554140127388536
B09_09_ground_truth.png , 413 , 1256 , 32.882165605095544
B09_10_ground_truth.png , 423 , 1256 , 33.67834394904459
B09_11_ground_truth.png , 431 , 1256 , 34.31528662420382
B09_12_ground_truth.png , 422 , 1256 , 33.59872611464968
B09_13_ground_truth.png , 350 , 1256 , 27.86624203821656
B09_14_ground_truth.png , 464 , 1256 , 36.94267515923567
B10_01_ground_truth.png , 398 , 1256 , 31.687898089171973
B10_02_ground_truth.png , 358 , 1256 , 28.503184713375795
B10_03_ground_truth.png , 314 , 1256 , 25.0
B10_04_ground_truth.png , 435 , 1256 , 34.63375796178344
B10_05_ground_truth.png , 374 , 1256 , 29.777070063694268
B10_06_ground_truth.png , 385 , 1256 , 30.65286624203822
B10_07_ground_truth.png , 409 , 1256 , 32.56369426751593
B10_08_ground_truth.png , 379 , 1256 , 30.17515923566879
B10_09_ground_truth.png , 366 , 1256 , 29.14012738853503
B10_10_ground_truth.png , 381 , 1256 , 30.334394904458602
B10_11_ground_truth.png , 460 , 1256 , 36.624203821656046
B10_12_ground_truth.png , 308 , 1256 , 24.522292993630572
B10_13_ground_truth.png , 405 , 1256 , 32.245222929936304
B10_14_ground_truth.png , 419 , 1256 , 33.35987261146497
B11_02_ground_truth.png , 442 , 1256 , 35.19108280254777
B11_03_ground_truth.png , 395 , 1256 , 31.449044585987263
B11_04_ground_truth.png , 437 , 1256 , 34.79299363057325
B11_05_ground_truth.png , 303 , 1256 , 24.12420382165605
B11_06_ground_truth.png , 383 , 1256 , 30.49363057324841
B11_07_ground_truth.png , 384 , 1256 , 30.573248407643312
B11_08_ground_truth.png , 436 , 1256 , 34.71337579617834
B11_09_ground_truth.png , 374 , 1256 , 29.777070063694268
B11_10_ground_truth.png , 400 , 1256 , 31.84713375796178
B11_11_ground_truth.png , 364 , 1256 , 28.980891719745223
B11_12_ground_truth.png , 421 , 1256 , 33.51910828025478
B11_13_ground_truth.png , 459 , 1256 , 36.544585987261144
B11_14_ground_truth.png , 344 , 1256 , 27.388535031847134
B11_15_ground_truth.png , 404 , 1256 , 32.1656050955414
B12_01_ground_truth.png , 440 , 1256 , 35.03184713375796
B12_02_ground_truth.png , 411 , 1256 , 32.72292993630573
B12_03_ground_truth.png , 377 , 1256 , 30.015923566878982
B12_04_ground_truth.png , 311 , 1256 , 24.761146496815286
B12_05_ground_truth.png , 411 , 1256 , 32.72292993630573
B12_06_ground_truth.png , 326 , 1256 , 25.955414012738853
B12_07_ground_truth.png , 440 , 1256 , 35.03184713375796
B12_08_ground_truth.png , 362 , 1256 , 28.82165605095541
B12_09_ground_truth.png , 409 , 1256 , 32.56369426751593
B12_10_ground_truth.png , 363 , 1256 , 28.90127388535032
B12_11_ground_truth.png , 388 , 1256 , 30.89171974522293
B12_12_ground_truth.png , 409 , 1256 , 32.56369426751593
B12_13_ground_truth.png , 430 , 1256 , 34.23566878980891
B12_14_ground_truth.png , 369 , 1256 , 29.378980891719745
B12_15_ground_truth.png , 377 , 1256 , 30.015923566878982
B13_01_ground_truth.png , 413 , 1256 , 32.882165605095544
B13_02_ground_truth.png , 324 , 1256 , 25.796178343949045
B13_03_ground_truth.png , 390 , 1256 , 31.050955414012737
B13_04_ground_truth.png , 294 , 1256 , 23.40764331210191
B13_05_ground_truth.png , 312 , 1256 , 24.840764331210192
B13_06_ground_truth.png , 728 , 1256 , 57.961783439490446
B13_07_ground_truth.png , 350 , 1256 , 27.86624203821656
B13_08_ground_truth.png , 313 , 1256 , 24.920382165605094
B13_09_ground_truth.png , 320 , 1256 , 25.477707006369428
B13_10_ground_truth.png , 271 , 1256 , 21.576433121019107
B13_11_ground_truth.png , 310 , 1256 , 24.681528662420384
B13_12_ground_truth.png , 328 , 1256 , 26.11464968152866
B13_13_ground_truth.png , 451 , 1256 , 35.90764331210191
B14_01_ground_truth.png , 412 , 1256 , 32.802547770700635
B14_02_ground_truth.png , 389 , 1256 , 30.971337579617835
B14_03_ground_truth.png , 335 , 1256 , 26.671974522292995
B14_04_ground_truth.png , 342 , 1256 , 27.229299363057326
B14_06_ground_truth.png , 328 , 1256 , 26.11464968152866
B14_07_ground_truth.png , 389 , 1256 , 30.971337579617835
B14_08_ground_truth.png , 361 , 1256 , 28.742038216560513
B14_09_ground_truth.png , 354 , 1256 , 28.18471337579618
B14_10_ground_truth.png , 377 , 1256 , 30.015923566878982
B14_11_ground_truth.png , 338 , 1256 , 26.910828025477706
B14_12_ground_truth.png , 366 , 1256 , 29.14012738853503
B14_13_ground_truth.png , 355 , 1256 , 28.264331210191084
B15_01_ground_truth.png , 409 , 1256 , 32.56369426751593
B15_02_ground_truth.png , 369 , 1256 , 29.378980891719745
B15_03_ground_truth.png , 301 , 1256 , 23.96496815286624
B15_04_ground_truth.png , 391 , 1256 , 31.130573248407643
B15_05_ground_truth.png , 390 , 1256 , 31.050955414012737
B15_06_ground_truth.png , 360 , 1256 , 28.662420382165603
B15_07_ground_truth.png , 386 , 1256 , 30.73248407643312
B15_08_ground_truth.png , 359 , 1256 , 28.582802547770704
B15_09_ground_truth.png , 386 , 1256 , 30.73248407643312
B15_10_ground_truth.png , 361 , 1256 , 28.742038216560513
B15_11_ground_truth.png , 365 , 1256 , 29.06050955414013
B15_12_ground_truth.png , 342 , 1256 , 27.229299363057326
B15_13_ground_truth.png , 416 , 1256 , 33.12101910828025
B16_01_ground_truth.png , 301 , 1256 , 23.96496815286624
B16_02_ground_truth.png , 409 , 1256 , 32.56369426751593
B16_03_ground_truth.png , 378 , 1256 , 30.095541401273884
B16_04_ground_truth.png , 371 , 1256 , 29.538216560509557
B16_05_ground_truth.png , 360 , 1256 , 28.662420382165603
B16_06_ground_truth.png , 398 , 1256 , 31.687898089171973
B16_07_ground_truth.png , 405 , 1256 , 32.245222929936304
B16_08_ground_truth.png , 359 , 1256 , 28.582802547770704
B16_09_ground_truth.png , 353 , 1256 , 28.105095541401276
B16_10_ground_truth.png , 305 , 1256 , 24.28343949044586
B16_11_ground_truth.png , 380 , 1256 , 30.254777070063692
B16_12_ground_truth.png , 383 , 1256 , 30.49363057324841
B16_13_ground_truth.png , 385 , 1256 , 30.65286624203822
B16_14_ground_truth.png , 308 , 1256 , 24.522292993630572
B17_01_ground_truth.png , 386 , 1256 , 30.73248407643312
B17_02_ground_truth.png , 368 , 1256 , 29.29936305732484
B17_03_ground_truth.png , 400 , 1256 , 31.84713375796178
B17_04_ground_truth.png , 354 , 1256 , 28.18471337579618
B17_05_ground_truth.png , 411 , 1256 , 32.72292993630573
B17_06_ground_truth.png , 421 , 1256 , 33.51910828025478
B17_07_ground_truth.png , 320 , 1256 , 25.477707006369428
B17_08_ground_truth.png , 374 , 1256 , 29.777070063694268
B17_09_ground_truth.png , 357 , 1256 , 28.423566878980893
B17_10_ground_truth.png , 374 , 1256 , 29.777070063694268
B17_11_ground_truth.png , 368 , 1256 , 29.29936305732484
B17_12_ground_truth.png , 364 , 1256 , 28.980891719745223
B18_01_ground_truth.png , 389 , 1256 , 30.971337579617835
B18_02_ground_truth.png , 378 , 1256 , 30.095541401273884
B18_03_ground_truth.png , 420 , 1256 , 33.43949044585987
B18_04_ground_truth.png , 424 , 1256 , 33.75796178343949
B18_05_ground_truth.png , 402 , 1256 , 32.00636942675159
B18_06_ground_truth.png , 368 , 1256 , 29.29936305732484
B18_07_ground_truth.png , 368 , 1256 , 29.29936305732484
B18_08_ground_truth.png , 342 , 1256 , 27.229299363057326
B18_09_ground_truth.png , 370 , 1256 , 29.458598726114648
B18_10_ground_truth.png , 358 , 1256 , 28.503184713375795
B18_11_ground_truth.png , 325 , 1256 , 25.87579617834395
B18_12_ground_truth.png , 332 , 1256 , 26.43312101910828
B18_13_ground_truth.png , 339 , 1256 , 26.990445859872615
B19_01_ground_truth.png , 363 , 1256 , 28.90127388535032
B19_02_ground_truth.png , 335 , 1256 , 26.671974522292995
B19_03_ground_truth.png , 435 , 1256 , 34.63375796178344
B19_04_ground_truth.png , 355 , 1256 , 28.264331210191084
B19_05_ground_truth.png , 357 , 1256 , 28.423566878980893
B19_06_ground_truth.png , 427 , 1256 , 33.996815286624205
B19_07_ground_truth.png , 298 , 1256 , 23.726114649681527
B19_08_ground_truth.png , 392 , 1256 , 31.210191082802545
B19_09_ground_truth.png , 349 , 1256 , 27.78662420382166
B19_10_ground_truth.png , 381 , 1256 , 30.334394904458602
B19_11_ground_truth.png , 362 , 1256 , 28.82165605095541
B19_12_ground_truth.png , 380 , 1256 , 30.254777070063692
B19_13_ground_truth.png , 356 , 1256 , 28.343949044585987
B19_14_ground_truth.png , 436 , 1256 , 34.71337579617834
B20_01_ground_truth.png , 344 , 1256 , 27.388535031847134
B20_02_ground_truth.png , 352 , 1256 , 28.02547770700637
B20_03_ground_truth.png , 299 , 1256 , 23.805732484076433
B20_04_ground_truth.png , 294 , 1256 , 23.40764331210191
B20_05_ground_truth.png , 340 , 1256 , 27.070063694267514
B20_06_ground_truth.png , 355 , 1256 , 28.264331210191084
B20_07_ground_truth.png , 328 , 1256 , 26.11464968152866
B20_08_ground_truth.png , 385 , 1256 , 30.65286624203822
B20_09_ground_truth.png , 317 , 1256 , 25.238853503184718
B20_10_ground_truth.png , 335 , 1256 , 26.671974522292995
B20_11_ground_truth.png , 338 , 1256 , 26.910828025477706
B20_12_ground_truth.png , 371 , 1256 , 29.538216560509557
B20_13_ground_truth.png , 326 , 1256 , 25.955414012738853
B20_14_ground_truth.png , 313 , 1256 , 24.920382165605094
B21_01_ground_truth.png , 324 , 1256 , 25.796178343949045
B21_02_ground_truth.png , 331 , 1256 , 26.35350318471338
B21_03_ground_truth.png , 404 , 1256 , 32.1656050955414
B21_04_ground_truth.png , 283 , 1256 , 22.531847133757964
B21_05_ground_truth.png , 398 , 1256 , 31.687898089171973
B21_06_ground_truth.png , 362 , 1256 , 28.82165605095541
B21_07_ground_truth.png , 399 , 1256 , 31.76751592356688
B21_08_ground_truth.png , 401 , 1256 , 31.926751592356688
B21_09_ground_truth.png , 363 , 1256 , 28.90127388535032
B21_10_ground_truth.png , 339 , 1256 , 26.990445859872615
B21_11_ground_truth.png , 361 , 1256 , 28.742038216560513
B21_12_ground_truth.png , 415 , 1256 , 33.04140127388535
B21_13_ground_truth.png , 381 , 1256 , 30.334394904458602
B22_01_ground_truth.png , 343 , 1256 , 27.30891719745223
B22_02_ground_truth.png , 308 , 1256 , 24.522292993630572
B22_03_ground_truth.png , 330 , 1256 , 26.273885350318473
B22_04_ground_truth.png , 272 , 1256 , 21.656050955414013
B22_05_ground_truth.png , 376 , 1256 , 29.936305732484076
B22_06_ground_truth.png , 319 , 1256 , 25.398089171974526
B22_07_ground_truth.png , 352 , 1256 , 28.02547770700637
B22_08_ground_truth.png , 348 , 1256 , 27.70700636942675
B22_09_ground_truth.png , 349 , 1256 , 27.78662420382166
B22_10_ground_truth.png , 332 , 1256 , 26.43312101910828
B22_11_ground_truth.png , 343 , 1256 , 27.30891719745223
B22_12_ground_truth.png , 298 , 1256 , 23.726114649681527
B22_13_ground_truth.png , 384 , 1256 , 30.573248407643312
B22_14_ground_truth.png , 403 , 1256 , 32.0859872611465
B22_15_ground_truth.png , 378 , 1256 , 30.095541401273884
B23_01_ground_truth.png , 329 , 1256 , 26.19426751592357
B23_02_ground_truth.png , 446 , 1256 , 35.509554140127385
B23_03_ground_truth.png , 317 , 1256 , 25.238853503184718
B23_04_ground_truth.png , 325 , 1256 , 25.87579617834395
B23_05_ground_truth.png , 358 , 1256 , 28.503184713375795
B23_06_ground_truth.png , 339 , 1256 , 26.990445859872615
B23_07_ground_truth.png , 369 , 1256 , 29.378980891719745
B23_08_ground_truth.png , 362 , 1256 , 28.82165605095541
B23_09_ground_truth.png , 355 , 1256 , 28.264331210191084
B23_10_ground_truth.png , 373 , 1256 , 29.697452229299365
B23_11_ground_truth.png , 398 , 1256 , 31.687898089171973
B23_12_ground_truth.png , 409 , 1256 , 32.56369426751593
B23_13_ground_truth.png , 417 , 1256 , 33.20063694267516
B23_14_ground_truth.png , 386 , 1256 , 30.73248407643312
B24_01_ground_truth.png , 343 , 1256 , 27.30891719745223
B24_02_ground_truth.png , 353 , 1256 , 28.105095541401276
B24_03_ground_truth.png , 364 , 1256 , 28.980891719745223
B24_04_ground_truth.png , 342 , 1256 , 27.229299363057326
B24_05_ground_truth.png , 412 , 1256 , 32.802547770700635
B24_06_ground_truth.png , 356 , 1256 , 28.343949044585987
B24_07_ground_truth.png , 353 , 1256 , 28.105095541401276
B24_08_ground_truth.png , 309 , 1256 , 24.601910828025478
B24_09_ground_truth.png , 451 , 1256 , 35.90764331210191
B24_10_ground_truth.png , 378 , 1256 , 30.095541401273884
B24_11_ground_truth.png , 359 , 1256 , 28.582802547770704
B24_12_ground_truth.png , 350 , 1256 , 27.86624203821656
B24_13_ground_truth.png , 316 , 1256 , 25.159235668789808
C01_01_ground_truth.png , 401 , 1256 , 31.926751592356688
C01_02_ground_truth.png , 461 , 1256 , 36.703821656050955
C01_03_ground_truth.png , 343 , 1256 , 27.30891719745223
C01_04_ground_truth.png , 342 , 1256 , 27.229299363057326
C01_05_ground_truth.png , 447 , 1256 , 35.589171974522294
C01_06_ground_truth.png , 395 , 1256 , 31.449044585987263
C01_07_ground_truth.png , 450 , 1256 , 35.828025477707
C01_08_ground_truth.png , 458 , 1256 , 36.46496815286624
C01_09_ground_truth.png , 333 , 1256 , 26.512738853503187
C01_10_ground_truth.png , 387 , 1256 , 30.812101910828027
C01_11_ground_truth.png , 413 , 1256 , 32.882165605095544
C01_12_ground_truth.png , 396 , 1256 , 31.528662420382165
C01_13_ground_truth.png , 375 , 1256 , 29.856687898089174
C01_14_ground_truth.png , 382 , 1256 , 30.4140127388535
C01_15_ground_truth.png , 312 , 1256 , 24.840764331210192
C02_01_ground_truth.png , 393 , 1256 , 31.289808917197455
C02_02_ground_truth.png , 372 , 1256 , 29.617834394904456
C02_03_ground_truth.png , 354 , 1256 , 28.18471337579618
C02_04_ground_truth.png , 380 , 1256 , 30.254777070063692
C02_05_ground_truth.png , 414 , 1256 , 32.961783439490446
C02_06_ground_truth.png , 357 , 1256 , 28.423566878980893
C02_08_ground_truth.png , 373 , 1256 , 29.697452229299365
C02_09_ground_truth.png , 477 , 1256 , 37.97770700636943
C02_10_ground_truth.png , 416 , 1256 , 33.12101910828025
C02_11_ground_truth.png , 399 , 1256 , 31.76751592356688
C02_12_ground_truth.png , 373 , 1256 , 29.697452229299365
C02_13_ground_truth.png , 338 , 1256 , 26.910828025477706
C02_14_ground_truth.png , 387 , 1256 , 30.812101910828027
C02_15_ground_truth.png , 346 , 1256 , 27.547770700636942
C03_01_ground_truth.png , 357 , 1256 , 28.423566878980893
C03_02_ground_truth.png , 867 , 1256 , 69.02866242038218
C03_03_ground_truth.png , 499 , 1256 , 39.72929936305732
C03_04_ground_truth.png , 403 , 1256 , 32.0859872611465
C03_05_ground_truth.png , 351 , 1256 , 27.945859872611468
C03_06_ground_truth.png , 402 , 1256 , 32.00636942675159
C03_07_ground_truth.png , 410 , 1256 , 32.64331210191082
C03_08_ground_truth.png , 366 , 1256 , 29.14012738853503
C03_09_ground_truth.png , 416 , 1256 , 33.12101910828025
C03_10_ground_truth.png , 388 , 1256 , 30.89171974522293
C03_11_ground_truth.png , 425 , 1256 , 33.83757961783439
C03_12_ground_truth.png , 409 , 1256 , 32.56369426751593
C03_13_ground_truth.png , 403 , 1256 , 32.0859872611465
C03_14_ground_truth.png , 393 , 1256 , 31.289808917197455
C03_15_ground_truth.png , 411 , 1256 , 32.72292993630573
C04_01_ground_truth.png , 836 , 1256 , 66.56050955414013
C04_02_ground_truth.png , 376 , 1256 , 29.936305732484076
C04_03_ground_truth.png , 444 , 1256 , 35.35031847133758
C04_04_ground_truth.png , 338 , 1256 , 26.910828025477706
C04_05_ground_truth.png , 446 , 1256 , 35.509554140127385
C04_06_ground_truth.png , 374 , 1256 , 29.777070063694268
C04_07_ground_truth.png , 333 , 1256 , 26.512738853503187
C04_08_ground_truth.png , 452 , 1256 , 35.98726114649681
C04_09_ground_truth.png , 367 , 1256 , 29.219745222929937
C04_10_ground_truth.png , 589 , 1256 , 46.894904458598724
C04_11_ground_truth.png , 390 , 1256 , 31.050955414012737
C04_12_ground_truth.png , 414 , 1256 , 32.961783439490446
C04_13_ground_truth.png , 355 , 1256 , 28.264331210191084
C04_14_ground_truth.png , 418 , 1256 , 33.28025477707006
C04_15_ground_truth.png , 496 , 1256 , 39.490445859872615
C05_01_ground_truth.png , 433 , 1256 , 34.47452229299363
C05_02_ground_truth.png , 423 , 1256 , 33.67834394904459
C05_03_ground_truth.png , 436 , 1256 , 34.71337579617834
C05_04_ground_truth.png , 423 , 1256 , 33.67834394904459
C05_05_ground_truth.png , 429 , 1256 , 34.15605095541402
C05_06_ground_truth.png , 658 , 1256 , 52.38853503184714
C05_07_ground_truth.png , 279 , 1256 , 22.213375796178344
C05_08_ground_truth.png , 404 , 1256 , 32.1656050955414
C05_09_ground_truth.png , 367 , 1256 , 29.219745222929937
C05_10_ground_truth.png , 396 , 1256 , 31.528662420382165
C05_11_ground_truth.png , 424 , 1256 , 33.75796178343949
C05_13_ground_truth.png , 331 , 1256 , 26.35350318471338
C05_14_ground_truth.png , 461 , 1256 , 36.703821656050955
C05_15_ground_truth.png , 385 , 1256 , 30.65286624203822
C06_01_ground_truth.png , 333 , 1256 , 26.512738853503187
C06_02_ground_truth.png , 290 , 1256 , 23.089171974522294
C06_03_ground_truth.png , 439 , 1256 , 34.952229299363054
C06_04_ground_truth.png , 457 , 1256 , 36.38535031847134
C06_05_ground_truth.png , 304 , 1256 , 24.203821656050955
C06_06_ground_truth.png , 458 , 1256 , 36.46496815286624
C06_07_ground_truth.png , 859 , 1256 , 68.39171974522293
C06_08_ground_truth.png , 444 , 1256 , 35.35031847133758
C06_09_ground_truth.png , 250 , 1256 , 19.904458598726116
C06_10_ground_truth.png , 369 , 1256 , 29.378980891719745
C06_11_ground_truth.png , 323 , 1256 , 25.716560509554142
C06_12_ground_truth.png , 380 , 1256 , 30.254777070063692
C06_13_ground_truth.png , 377 , 1256 , 30.015923566878982
C06_14_ground_truth.png , 373 , 1256 , 29.697452229299365
C06_15_ground_truth.png , 389 , 1256 , 30.971337579617835
C07_01_ground_truth.png , 394 , 1256 , 31.369426751592357
C07_02_ground_truth.png , 778 , 1256 , 61.94267515923567
C07_03_ground_truth.png , 427 , 1256 , 33.996815286624205
C07_04_ground_truth.png , 457 , 1256 , 36.38535031847134
C07_05_ground_truth.png , 457 , 1256 , 36.38535031847134
C07_06_ground_truth.png , 392 , 1256 , 31.210191082802545
C07_07_ground_truth.png , 495 , 1256 , 39.410828025477706
C07_08_ground_truth.png , 676 , 1256 , 53.82165605095541
C07_09_ground_truth.png , 448 , 1256 , 35.6687898089172
C07_10_ground_truth.png , 437 , 1256 , 34.79299363057325
C07_11_ground_truth.png , 337 , 1256 , 26.831210191082803
C07_12_ground_truth.png , 575 , 1256 , 45.78025477707006
C07_13_ground_truth.png , 419 , 1256 , 33.35987261146497
C07_14_ground_truth.png , 719 , 1256 , 57.245222929936304
C08_01_ground_truth.png , 469 , 1256 , 37.34076433121019
C08_02_ground_truth.png , 458 , 1256 , 36.46496815286624
C08_03_ground_truth.png , 335 , 1256 , 26.671974522292995
C08_04_ground_truth.png , 391 , 1256 , 31.130573248407643
C08_05_ground_truth.png , 383 , 1256 , 30.49363057324841
C08_06_ground_truth.png , 367 , 1256 , 29.219745222929937
C08_07_ground_truth.png , 476 , 1256 , 37.898089171974526
C08_08_ground_truth.png , 340 , 1256 , 27.070063694267514
C08_09_ground_truth.png , 380 , 1256 , 30.254777070063692
C08_10_ground_truth.png , 298 , 1256 , 23.726114649681527
C08_11_ground_truth.png , 313 , 1256 , 24.920382165605094
C08_12_ground_truth.png , 420 , 1256 , 33.43949044585987
C08_13_ground_truth.png , 433 , 1256 , 34.47452229299363
C08_14_ground_truth.png , 372 , 1256 , 29.617834394904456
C08_15_ground_truth.png , 416 , 1256 , 33.12101910828025
C09_01_ground_truth.png , 425 , 1256 , 33.83757961783439
C09_02_ground_truth.png , 338 , 1256 , 26.910828025477706
C09_03_ground_truth.png , 375 , 1256 , 29.856687898089174
C09_04_ground_truth.png , 394 , 1256 , 31.369426751592357
C09_05_ground_truth.png , 478 , 1256 , 38.05732484076433
C09_06_ground_truth.png , 400 , 1256 , 31.84713375796178
C09_07_ground_truth.png , 382 , 1256 , 30.4140127388535
C09_08_ground_truth.png , 369 , 1256 , 29.378980891719745
C09_09_ground_truth.png , 422 , 1256 , 33.59872611464968
C09_10_ground_truth.png , 408 , 1256 , 32.48407643312102
C09_11_ground_truth.png , 453 , 1256 , 36.06687898089172
C09_12_ground_truth.png , 389 , 1256 , 30.971337579617835
C09_13_ground_truth.png , 407 , 1256 , 32.404458598726116
C09_14_ground_truth.png , 445 , 1256 , 35.42993630573248
C09_15_ground_truth.png , 383 , 1256 , 30.49363057324841
C10_01_ground_truth.png , 543 , 1256 , 43.23248407643312
C10_02_ground_truth.png , 390 , 1256 , 31.050955414012737
C10_03_ground_truth.png , 378 , 1256 , 30.095541401273884
C10_04_ground_truth.png , 376 , 1256 , 29.936305732484076
C10_05_ground_truth.png , 748 , 1256 , 59.554140127388536
C10_06_ground_truth.png , 412 , 1256 , 32.802547770700635
C10_07_ground_truth.png , 386 , 1256 , 30.73248407643312
C10_08_ground_truth.png , 361 , 1256 , 28.742038216560513
C10_09_ground_truth.png , 398 , 1256 , 31.687898089171973
C10_10_ground_truth.png , 412 , 1256 , 32.802547770700635
C10_11_ground_truth.png , 339 , 1256 , 26.990445859872615
C10_12_ground_truth.png , 326 , 1256 , 25.955414012738853
C10_13_ground_truth.png , 776 , 1256 , 61.78343949044586
C10_14_ground_truth.png , 344 , 1256 , 27.388535031847134
C10_15_ground_truth.png , 430 , 1256 , 34.23566878980891
C11_01_ground_truth.png , 636 , 1256 , 50.63694267515923
C11_02_ground_truth.png , 430 , 1256 , 34.23566878980891
C11_03_ground_truth.png , 420 , 1256 , 33.43949044585987
C11_04_ground_truth.png , 336 , 1256 , 26.751592356687897
C11_05_ground_truth.png , 436 , 1256 , 34.71337579617834
C11_06_ground_truth.png , 602 , 1256 , 47.92993630573248
C11_07_ground_truth.png , 444 , 1256 , 35.35031847133758
C11_08_ground_truth.png , 380 , 1256 , 30.254777070063692
C11_09_ground_truth.png , 404 , 1256 , 32.1656050955414
C11_10_ground_truth.png , 357 , 1256 , 28.423566878980893
C11_11_ground_truth.png , 457 , 1256 , 36.38535031847134
C11_12_ground_truth.png , 449 , 1256 , 35.7484076433121
C11_13_ground_truth.png , 400 , 1256 , 31.84713375796178
C11_14_ground_truth.png , 450 , 1256 , 35.828025477707
C12_01_ground_truth.png , 319 , 1256 , 25.398089171974526
C12_02_ground_truth.png , 450 , 1256 , 35.828025477707
C12_03_ground_truth.png , 383 , 1256 , 30.49363057324841
C12_04_ground_truth.png , 334 , 1256 , 26.59235668789809
C12_05_ground_truth.png , 466 , 1256 , 37.101910828025474
C12_06_ground_truth.png , 305 , 1256 , 24.28343949044586
C12_07_ground_truth.png , 401 , 1256 , 31.926751592356688
C12_08_ground_truth.png , 749 , 1256 , 59.63375796178344
C12_09_ground_truth.png , 374 , 1256 , 29.777070063694268
C12_10_ground_truth.png , 423 , 1256 , 33.67834394904459
C12_11_ground_truth.png , 395 , 1256 , 31.449044585987263
C12_12_ground_truth.png , 342 , 1256 , 27.229299363057326
C12_13_ground_truth.png , 435 , 1256 , 34.63375796178344
C12_14_ground_truth.png , 335 , 1256 , 26.671974522292995
C12_15_ground_truth.png , 399 , 1256 , 31.76751592356688
C13_01_ground_truth.png , 296 , 1256 , 23.56687898089172
C13_02_ground_truth.png , 383 , 1256 , 30.49363057324841
C13_03_ground_truth.png , 404 , 1256 , 32.1656050955414
C13_04_ground_truth.png , 404 , 1256 , 32.1656050955414
C13_05_ground_truth.png , 371 , 1256 , 29.538216560509557
C13_06_ground_truth.png , 381 , 1256 , 30.334394904458602
C13_07_ground_truth.png , 320 , 1256 , 25.477707006369428
C13_08_ground_truth.png , 347 , 1256 , 27.627388535031848
C13_09_ground_truth.png , 381 , 1256 , 30.334394904458602
C13_10_ground_truth.png , 347 , 1256 , 27.627388535031848
C13_11_ground_truth.png , 334 , 1256 , 26.59235668789809
C13_12_ground_truth.png , 327 , 1256 , 26.03503184713376
C13_13_ground_truth.png , 335 , 1256 , 26.671974522292995
C13_14_ground_truth.png , 437 , 1256 , 34.79299363057325
C14_01_ground_truth.png , 366 , 1256 , 29.14012738853503
C14_02_ground_truth.png , 382 , 1256 , 30.4140127388535
C14_03_ground_truth.png , 334 , 1256 , 26.59235668789809
C14_04_ground_truth.png , 346 , 1256 , 27.547770700636942
C14_05_ground_truth.png , 327 , 1256 , 26.03503184713376
C14_06_ground_truth.png , 316 , 1256 , 25.159235668789808
C14_07_ground_truth.png , 358 , 1256 , 28.503184713375795
C14_08_ground_truth.png , 388 , 1256 , 30.89171974522293
C14_09_ground_truth.png , 401 , 1256 , 31.926751592356688
C14_10_ground_truth.png , 362 , 1256 , 28.82165605095541
C14_11_ground_truth.png , 384 , 1256 , 30.573248407643312
C14_12_ground_truth.png , 345 , 1256 , 27.46815286624204
C14_13_ground_truth.png , 359 , 1256 , 28.582802547770704
C15_01_ground_truth.png , 260 , 1256 , 20.70063694267516
C15_02_ground_truth.png , 348 , 1256 , 27.70700636942675
C15_03_ground_truth.png , 385 , 1256 , 30.65286624203822
C15_04_ground_truth.png , 537 , 1256 , 42.754777070063696
C15_05_ground_truth.png , 408 , 1256 , 32.48407643312102
C15_06_ground_truth.png , 359 , 1256 , 28.582802547770704
C15_07_ground_truth.png , 418 , 1256 , 33.28025477707006
C15_08_ground_truth.png , 460 , 1256 , 36.624203821656046
C15_09_ground_truth.png , 348 , 1256 , 27.70700636942675
C15_10_ground_truth.png , 366 , 1256 , 29.14012738853503
C15_11_ground_truth.png , 467 , 1256 , 37.181528662420384
C15_12_ground_truth.png , 370 , 1256 , 29.458598726114648
C15_13_ground_truth.png , 376 , 1256 , 29.936305732484076
C16_01_ground_truth.png , 345 , 1256 , 27.46815286624204
C16_02_ground_truth.png , 364 , 1256 , 28.980891719745223
C16_03_ground_truth.png , 370 , 1256 , 29.458598726114648
C16_04_ground_truth.png , 362 , 1256 , 28.82165605095541
C16_05_ground_truth.png , 437 , 1256 , 34.79299363057325
C16_06_ground_truth.png , 334 , 1256 , 26.59235668789809
C16_07_ground_truth.png , 424 , 1256 , 33.75796178343949
C16_08_ground_truth.png , 391 , 1256 , 31.130573248407643
C16_09_ground_truth.png , 394 , 1256 , 31.369426751592357
C16_10_ground_truth.png , 357 , 1256 , 28.423566878980893
C16_11_ground_truth.png , 324 , 1256 , 25.796178343949045
C16_12_ground_truth.png , 339 , 1256 , 26.990445859872615
C16_13_ground_truth.png , 280 , 1256 , 22.29299363057325
C16_14_ground_truth.png , 333 , 1256 , 26.512738853503187
C17_01_ground_truth.png , 391 , 1256 , 31.130573248407643
C17_02_ground_truth.png , 390 , 1256 , 31.050955414012737
C17_03_ground_truth.png , 325 , 1256 , 25.87579617834395
C17_04_ground_truth.png , 379 , 1256 , 30.17515923566879
C17_05_ground_truth.png , 362 , 1256 , 28.82165605095541
C17_06_ground_truth.png , 337 , 1256 , 26.831210191082803
C17_07_ground_truth.png , 361 , 1256 , 28.742038216560513
C17_08_ground_truth.png , 400 , 1256 , 31.84713375796178
C17_09_ground_truth.png , 390 , 1256 , 31.050955414012737
C17_10_ground_truth.png , 345 , 1256 , 27.46815286624204
C17_11_ground_truth.png , 362 , 1256 , 28.82165605095541
C17_12_ground_truth.png , 360 , 1256 , 28.662420382165603
C17_13_ground_truth.png , 429 , 1256 , 34.15605095541402
C18_01_ground_truth.png , 372 , 1256 , 29.617834394904456
C18_02_ground_truth.png , 382 , 1256 , 30.4140127388535
C18_03_ground_truth.png , 439 , 1256 , 34.952229299363054
C18_04_ground_truth.png , 413 , 1256 , 32.882165605095544
C18_05_ground_truth.png , 375 , 1256 , 29.856687898089174
C18_07_ground_truth.png , 327 , 1256 , 26.03503184713376
C18_08_ground_truth.png , 362 , 1256 , 28.82165605095541
C18_09_ground_truth.png , 419 , 1256 , 33.35987261146497
C18_10_ground_truth.png , 350 , 1256 , 27.86624203821656
C18_11_ground_truth.png , 363 , 1256 , 28.90127388535032
C18_12_ground_truth.png , 368 , 1256 , 29.29936305732484
C18_13_ground_truth.png , 390 , 1256 , 31.050955414012737
C18_14_ground_truth.png , 370 , 1256 , 29.458598726114648
C19_01_ground_truth.png , 411 , 1256 , 32.72292993630573
C19_02_ground_truth.png , 390 , 1256 , 31.050955414012737
C19_03_ground_truth.png , 352 , 1256 , 28.02547770700637
C19_04_ground_truth.png , 311 , 1256 , 24.761146496815286
C19_05_ground_truth.png , 411 , 1256 , 32.72292993630573
C19_06_ground_truth.png , 344 , 1256 , 27.388535031847134
C19_07_ground_truth.png , 345 , 1256 , 27.46815286624204
C19_08_ground_truth.png , 402 , 1256 , 32.00636942675159
C19_09_ground_truth.png , 397 , 1256 , 31.60828025477707
C19_10_ground_truth.png , 381 , 1256 , 30.334394904458602
C19_11_ground_truth.png , 308 , 1256 , 24.522292993630572
C19_12_ground_truth.png , 370 , 1256 , 29.458598726114648
C19_13_ground_truth.png , 331 , 1256 , 26.35350318471338
C19_14_ground_truth.png , 377 , 1256 , 30.015923566878982
C20_01_ground_truth.png , 357 , 1256 , 28.423566878980893
C20_02_ground_truth.png , 292 , 1256 , 23.248407643312103
C20_03_ground_truth.png , 352 , 1256 , 28.02547770700637
C20_04_ground_truth.png , 344 , 1256 , 27.388535031847134
C20_05_ground_truth.png , 405 , 1256 , 32.245222929936304
C20_06_ground_truth.png , 277 , 1256 , 22.054140127388536
C20_07_ground_truth.png , 329 , 1256 , 26.19426751592357
C20_08_ground_truth.png , 375 , 1256 , 29.856687898089174
C20_09_ground_truth.png , 324 , 1256 , 25.796178343949045
C20_10_ground_truth.png , 348 , 1256 , 27.70700636942675
C20_11_ground_truth.png , 351 , 1256 , 27.945859872611468
C20_12_ground_truth.png , 359 , 1256 , 28.582802547770704
C20_13_ground_truth.png , 411 , 1256 , 32.72292993630573
C20_14_ground_truth.png , 373 , 1256 , 29.697452229299365
C20_15_ground_truth.png , 310 , 1256 , 24.681528662420384
C21_02_ground_truth.png , 506 , 1256 , 40.28662420382166
C21_03_ground_truth.png , 335 , 1256 , 26.671974522292995
C21_04_ground_truth.png , 355 , 1256 , 28.264331210191084
C21_05_ground_truth.png , 346 , 1256 , 27.547770700636942
C21_07_ground_truth.png , 372 , 1256 , 29.617834394904456
C21_09_ground_truth.png , 354 , 1256 , 28.18471337579618
C21_10_ground_truth.png , 378 , 1256 , 30.095541401273884
C21_11_ground_truth.png , 380 , 1256 , 30.254777070063692
C21_12_ground_truth.png , 327 , 1256 , 26.03503184713376
C21_13_ground_truth.png , 437 , 1256 , 34.79299363057325
C21_14_ground_truth.png , 342 , 1256 , 27.229299363057326
C22_01_ground_truth.png , 451 , 1256 , 35.90764331210191
C22_02_ground_truth.png , 395 , 1256 , 31.449044585987263
C22_03_ground_truth.png , 358 , 1256 , 28.503184713375795
C22_04_ground_truth.png , 291 , 1256 , 23.168789808917197
C22_05_ground_truth.png , 315 , 1256 , 25.079617834394906
C22_06_ground_truth.png , 377 , 1256 , 30.015923566878982
C22_07_ground_truth.png , 398 , 1256 , 31.687898089171973
C22_08_ground_truth.png , 314 , 1256 , 25.0
C22_09_ground_truth.png , 395 , 1256 , 31.449044585987263
C22_10_ground_truth.png , 397 , 1256 , 31.60828025477707
C22_12_ground_truth.png , 420 , 1256 , 33.43949044585987
C22_13_ground_truth.png , 326 , 1256 , 25.955414012738853
C22_14_ground_truth.png , 426 , 1256 , 33.917197452229296
C23_01_ground_truth.png , 336 , 1256 , 26.751592356687897
C23_02_ground_truth.png , 454 , 1256 , 36.146496815286625
C23_03_ground_truth.png , 380 , 1256 , 30.254777070063692
C23_05_ground_truth.png , 342 , 1256 , 27.229299363057326
C23_06_ground_truth.png , 341 , 1256 , 27.149681528662423
C23_07_ground_truth.png , 368 , 1256 , 29.29936305732484
C23_08_ground_truth.png , 413 , 1256 , 32.882165605095544
C23_09_ground_truth.png , 346 , 1256 , 27.547770700636942
C23_10_ground_truth.png , 431 , 1256 , 34.31528662420382
C23_11_ground_truth.png , 375 , 1256 , 29.856687898089174
C23_12_ground_truth.png , 443 , 1256 , 35.27070063694268
C23_13_ground_truth.png , 369 , 1256 , 29.378980891719745
C23_14_ground_truth.png , 383 , 1256 , 30.49363057324841
C24_01_ground_truth.png , 309 , 1256 , 24.601910828025478
C24_02_ground_truth.png , 340 , 1256 , 27.070063694267514
C24_03_ground_truth.png , 349 , 1256 , 27.78662420382166
C24_04_ground_truth.png , 363 , 1256 , 28.90127388535032
C24_05_ground_truth.png , 422 , 1256 , 33.59872611464968
C24_06_ground_truth.png , 363 , 1256 , 28.90127388535032
C24_07_ground_truth.png , 355 , 1256 , 28.264331210191084
C24_08_ground_truth.png , 438 , 1256 , 34.87261146496815
C24_09_ground_truth.png , 321 , 1256 , 25.557324840764334
C24_10_ground_truth.png , 362 , 1256 , 28.82165605095541
C24_11_ground_truth.png , 398 , 1256 , 31.687898089171973
C24_12_ground_truth.png , 360 , 1256 , 28.662420382165603
C24_13_ground_truth.png , 340 , 1256 , 27.070063694267514
C24_14_ground_truth.png , 363 , 1256 , 28.90127388535032
C24_15_ground_truth.png , 378 , 1256 , 30.095541401273884
D01_01_ground_truth.png , 366 , 1256 , 29.14012738853503
D01_02_ground_truth.png , 400 , 1256 , 31.84713375796178
D01_03_ground_truth.png , 362 , 1256 , 28.82165605095541
D01_04_ground_truth.png , 351 , 1256 , 27.945859872611468
D01_05_ground_truth.png , 354 , 1256 , 28.18471337579618
D01_06_ground_truth.png , 413 , 1256 , 32.882165605095544
D01_07_ground_truth.png , 353 , 1256 , 28.105095541401276
D01_08_ground_truth.png , 519 , 1256 , 41.32165605095541
D01_09_ground_truth.png , 507 , 1256 , 40.36624203821656
D01_10_ground_truth.png , 398 , 1256 , 31.687898089171973
D01_11_ground_truth.png , 452 , 1256 , 35.98726114649681
D01_12_ground_truth.png , 412 , 1256 , 32.802547770700635
D01_13_ground_truth.png , 378 , 1256 , 30.095541401273884
D01_14_ground_truth.png , 376 , 1256 , 29.936305732484076
D01_15_ground_truth.png , 399 , 1256 , 31.76751592356688
D02_01_ground_truth.png , 419 , 1256 , 33.35987261146497
D02_02_ground_truth.png , 399 , 1256 , 31.76751592356688
D02_03_ground_truth.png , 327 , 1256 , 26.03503184713376
D02_04_ground_truth.png , 314 , 1256 , 25.0
D02_05_ground_truth.png , 660 , 1256 , 52.547770700636946
D02_06_ground_truth.png , 484 , 1256 , 38.53503184713376
D02_07_ground_truth.png , 373 , 1256 , 29.697452229299365
D02_08_ground_truth.png , 390 , 1256 , 31.050955414012737
D02_09_ground_truth.png , 472 , 1256 , 37.57961783439491
D02_10_ground_truth.png , 336 , 1256 , 26.751592356687897
D02_11_ground_truth.png , 397 , 1256 , 31.60828025477707
D02_12_ground_truth.png , 392 , 1256 , 31.210191082802545
D02_13_ground_truth.png , 477 , 1256 , 37.97770700636943
D02_14_ground_truth.png , 911 , 1256 , 72.53184713375796
D02_15_ground_truth.png , 368 , 1256 , 29.29936305732484
D03_01_ground_truth.png , 395 , 1256 , 31.449044585987263
D03_02_ground_truth.png , 378 , 1256 , 30.095541401273884
D03_03_ground_truth.png , 849 , 1256 , 67.59554140127389
D03_04_ground_truth.png , 396 , 1256 , 31.528662420382165
D03_05_ground_truth.png , 375 , 1256 , 29.856687898089174
D03_06_ground_truth.png , 343 , 1256 , 27.30891719745223
D03_07_ground_truth.png , 366 , 1256 , 29.14012738853503
D03_08_ground_truth.png , 321 , 1256 , 25.557324840764334
D03_09_ground_truth.png , 348 , 1256 , 27.70700636942675
D03_10_ground_truth.png , 379 , 1256 , 30.17515923566879
D03_11_ground_truth.png , 410 , 1256 , 32.64331210191082
D03_12_ground_truth.png , 382 , 1256 , 30.4140127388535
D03_13_ground_truth.png , 391 , 1256 , 31.130573248407643
D03_14_ground_truth.png , 397 , 1256 , 31.60828025477707
D03_15_ground_truth.png , 346 , 1256 , 27.547770700636942
D04_01_ground_truth.png , 408 , 1256 , 32.48407643312102
D04_02_ground_truth.png , 424 , 1256 , 33.75796178343949
D04_03_ground_truth.png , 396 , 1256 , 31.528662420382165
D04_04_ground_truth.png , 322 , 1256 , 25.636942675159236
D04_05_ground_truth.png , 402 , 1256 , 32.00636942675159
D04_06_ground_truth.png , 367 , 1256 , 29.219745222929937
D04_07_ground_truth.png , 391 , 1256 , 31.130573248407643
D04_08_ground_truth.png , 361 , 1256 , 28.742038216560513
D04_09_ground_truth.png , 365 , 1256 , 29.06050955414013
D04_10_ground_truth.png , 335 , 1256 , 26.671974522292995
D04_11_ground_truth.png , 353 , 1256 , 28.105095541401276
D04_12_ground_truth.png , 855 , 1256 , 68.07324840764332
D04_13_ground_truth.png , 436 , 1256 , 34.71337579617834
D04_14_ground_truth.png , 420 , 1256 , 33.43949044585987
D04_15_ground_truth.png , 378 , 1256 , 30.095541401273884
D05_01_ground_truth.png , 307 , 1256 , 24.44267515923567
D05_02_ground_truth.png , 419 , 1256 , 33.35987261146497
D05_03_ground_truth.png , 393 , 1256 , 31.289808917197455
D05_04_ground_truth.png , 309 , 1256 , 24.601910828025478
D05_05_ground_truth.png , 337 , 1256 , 26.831210191082803
D05_06_ground_truth.png , 408 , 1256 , 32.48407643312102
D05_07_ground_truth.png , 312 , 1256 , 24.840764331210192
D05_08_ground_truth.png , 414 , 1256 , 32.961783439490446
D05_09_ground_truth.png , 252 , 1256 , 20.063694267515924
D05_10_ground_truth.png , 410 , 1256 , 32.64331210191082
D05_11_ground_truth.png , 859 , 1256 , 68.39171974522293
D05_12_ground_truth.png , 373 , 1256 , 29.697452229299365
D05_13_ground_truth.png , 392 , 1256 , 31.210191082802545
D05_14_ground_truth.png , 335 , 1256 , 26.671974522292995
D05_15_ground_truth.png , 315 , 1256 , 25.079617834394906
D06_01_ground_truth.png , 367 , 1256 , 29.219745222929937
D06_02_ground_truth.png , 338 , 1256 , 26.910828025477706
D06_03_ground_truth.png , 426 , 1256 , 33.917197452229296
D06_04_ground_truth.png , 346 , 1256 , 27.547770700636942
D06_05_ground_truth.png , 827 , 1256 , 65.843949044586
D06_06_ground_truth.png , 430 , 1256 , 34.23566878980891
D06_07_ground_truth.png , 369 , 1256 , 29.378980891719745
D06_08_ground_truth.png , 424 , 1256 , 33.75796178343949
D06_09_ground_truth.png , 398 , 1256 , 31.687898089171973
D06_10_ground_truth.png , 360 , 1256 , 28.662420382165603
D06_11_ground_truth.png , 380 , 1256 , 30.254777070063692
D06_12_ground_truth.png , 409 , 1256 , 32.56369426751593
D06_13_ground_truth.png , 346 , 1256 , 27.547770700636942
D06_14_ground_truth.png , 357 , 1256 , 28.423566878980893
D06_15_ground_truth.png , 356 , 1256 , 28.343949044585987
D07_01_ground_truth.png , 508 , 1256 , 40.445859872611464
D07_02_ground_truth.png , 339 , 1256 , 26.990445859872615
D07_03_ground_truth.png , 353 , 1256 , 28.105095541401276
D07_04_ground_truth.png , 325 , 1256 , 25.87579617834395
D07_05_ground_truth.png , 418 , 1256 , 33.28025477707006
D07_06_ground_truth.png , 395 , 1256 , 31.449044585987263
D07_07_ground_truth.png , 433 , 1256 , 34.47452229299363
D07_08_ground_truth.png , 395 , 1256 , 31.449044585987263
D07_09_ground_truth.png , 394 , 1256 , 31.369426751592357
D07_10_ground_truth.png , 406 , 1256 , 32.324840764331206
D07_11_ground_truth.png , 434 , 1256 , 34.554140127388536
D07_12_ground_truth.png , 369 , 1256 , 29.378980891719745
D07_13_ground_truth.png , 451 , 1256 , 35.90764331210191
D07_14_ground_truth.png , 404 , 1256 , 32.1656050955414
D07_15_ground_truth.png , 456 , 1256 , 36.30573248407643
D08_01_ground_truth.png , 813 , 1256 , 64.72929936305732
D08_02_ground_truth.png , 420 , 1256 , 33.43949044585987
D08_03_ground_truth.png , 384 , 1256 , 30.573248407643312
D08_04_ground_truth.png , 360 , 1256 , 28.662420382165603
D08_05_ground_truth.png , 398 , 1256 , 31.687898089171973
D08_06_ground_truth.png , 411 , 1256 , 32.72292993630573
D08_07_ground_truth.png , 570 , 1256 , 45.382165605095544
D08_08_ground_truth.png , 413 , 1256 , 32.882165605095544
D08_09_ground_truth.png , 804 , 1256 , 64.01273885350318
D08_10_ground_truth.png , 400 , 1256 , 31.84713375796178
D08_11_ground_truth.png , 548 , 1256 , 43.63057324840764
D08_12_ground_truth.png , 440 , 1256 , 35.03184713375796
D08_13_ground_truth.png , 424 , 1256 , 33.75796178343949
D08_14_ground_truth.png , 431 , 1256 , 34.31528662420382
D09_01_ground_truth.png , 429 , 1256 , 34.15605095541402
D09_02_ground_truth.png , 365 , 1256 , 29.06050955414013
D09_03_ground_truth.png , 406 , 1256 , 32.324840764331206
D09_04_ground_truth.png , 299 , 1256 , 23.805732484076433
D09_05_ground_truth.png , 437 , 1256 , 34.79299363057325
D09_06_ground_truth.png , 433 , 1256 , 34.47452229299363
D09_07_ground_truth.png , 362 , 1256 , 28.82165605095541
D09_08_ground_truth.png , 422 , 1256 , 33.59872611464968
D09_09_ground_truth.png , 387 , 1256 , 30.812101910828027
D09_10_ground_truth.png , 439 , 1256 , 34.952229299363054
D09_11_ground_truth.png , 415 , 1256 , 33.04140127388535
D09_12_ground_truth.png , 408 , 1256 , 32.48407643312102
D09_13_ground_truth.png , 391 , 1256 , 31.130573248407643
D09_14_ground_truth.png , 382 , 1256 , 30.4140127388535
D10_01_ground_truth.png , 422 , 1256 , 33.59872611464968
D10_02_ground_truth.png , 429 , 1256 , 34.15605095541402
D10_03_ground_truth.png , 441 , 1256 , 35.111464968152866
D10_04_ground_truth.png , 394 , 1256 , 31.369426751592357
D10_05_ground_truth.png , 657 , 1256 , 52.30891719745223
D10_06_ground_truth.png , 369 , 1256 , 29.378980891719745
D10_07_ground_truth.png , 402 , 1256 , 32.00636942675159
D10_08_ground_truth.png , 451 , 1256 , 35.90764331210191
D10_09_ground_truth.png , 382 , 1256 , 30.4140127388535
D10_10_ground_truth.png , 410 , 1256 , 32.64331210191082
D10_11_ground_truth.png , 718 , 1256 , 57.16560509554141
D10_12_ground_truth.png , 819 , 1256 , 65.20700636942675
D10_13_ground_truth.png , 401 , 1256 , 31.926751592356688
D10_14_ground_truth.png , 428 , 1256 , 34.07643312101911
D10_15_ground_truth.png , 385 , 1256 , 30.65286624203822
D11_01_ground_truth.png , 319 , 1256 , 25.398089171974526
D11_02_ground_truth.png , 411 , 1256 , 32.72292993630573
D11_03_ground_truth.png , 385 , 1256 , 30.65286624203822
D11_04_ground_truth.png , 356 , 1256 , 28.343949044585987
D11_05_ground_truth.png , 409 , 1256 , 32.56369426751593
D11_06_ground_truth.png , 343 , 1256 , 27.30891719745223
D11_07_ground_truth.png , 717 , 1256 , 57.0859872611465
D11_08_ground_truth.png , 471 , 1256 , 37.5
D11_09_ground_truth.png , 715 , 1256 , 56.92675159235668
D11_10_ground_truth.png , 468 , 1256 , 37.261146496815286
D11_11_ground_truth.png , 392 , 1256 , 31.210191082802545
D11_12_ground_truth.png , 394 , 1256 , 31.369426751592357
D11_13_ground_truth.png , 446 , 1256 , 35.509554140127385
D11_14_ground_truth.png , 640 , 1256 , 50.955414012738856
D11_15_ground_truth.png , 373 , 1256 , 29.697452229299365
D12_01_ground_truth.png , 402 , 1256 , 32.00636942675159
D12_02_ground_truth.png , 363 , 1256 , 28.90127388535032
D12_03_ground_truth.png , 368 , 1256 , 29.29936305732484
D12_04_ground_truth.png , 398 , 1256 , 31.687898089171973
D12_05_ground_truth.png , 353 , 1256 , 28.105095541401276
D12_06_ground_truth.png , 334 , 1256 , 26.59235668789809
D12_07_ground_truth.png , 693 , 1256 , 55.175159235668794
D12_08_ground_truth.png , 476 , 1256 , 37.898089171974526
D12_09_ground_truth.png , 371 , 1256 , 29.538216560509557
D12_10_ground_truth.png , 348 , 1256 , 27.70700636942675
D12_11_ground_truth.png , 439 , 1256 , 34.952229299363054
D12_12_ground_truth.png , 401 , 1256 , 31.926751592356688
D12_13_ground_truth.png , 333 , 1256 , 26.512738853503187
D12_14_ground_truth.png , 359 , 1256 , 28.582802547770704
D12_15_ground_truth.png , 427 , 1256 , 33.996815286624205
D13_01_ground_truth.png , 378 , 1256 , 30.095541401273884
D13_02_ground_truth.png , 406 , 1256 , 32.324840764331206
D13_03_ground_truth.png , 429 , 1256 , 34.15605095541402
D13_04_ground_truth.png , 407 , 1256 , 32.404458598726116
D13_05_ground_truth.png , 354 , 1256 , 28.18471337579618
D13_06_ground_truth.png , 356 , 1256 , 28.343949044585987
D13_07_ground_truth.png , 398 , 1256 , 31.687898089171973
D13_08_ground_truth.png , 352 , 1256 , 28.02547770700637
D13_09_ground_truth.png , 412 , 1256 , 32.802547770700635
D13_10_ground_truth.png , 398 , 1256 , 31.687898089171973
D13_11_ground_truth.png , 345 , 1256 , 27.46815286624204
D13_12_ground_truth.png , 378 , 1256 , 30.095541401273884
D13_13_ground_truth.png , 389 , 1256 , 30.971337579617835
D14_01_ground_truth.png , 341 , 1256 , 27.149681528662423
D14_02_ground_truth.png , 389 , 1256 , 30.971337579617835
D14_03_ground_truth.png , 383 , 1256 , 30.49363057324841
D14_04_ground_truth.png , 381 , 1256 , 30.334394904458602
D14_05_ground_truth.png , 509 , 1256 , 40.52547770700637
D14_06_ground_truth.png , 363 , 1256 , 28.90127388535032
D14_07_ground_truth.png , 427 , 1256 , 33.996815286624205
D14_08_ground_truth.png , 426 , 1256 , 33.917197452229296
D14_09_ground_truth.png , 420 , 1256 , 33.43949044585987
D14_10_ground_truth.png , 352 , 1256 , 28.02547770700637
D14_11_ground_truth.png , 306 , 1256 , 24.363057324840764
D14_12_ground_truth.png , 328 , 1256 , 26.11464968152866
D14_13_ground_truth.png , 348 , 1256 , 27.70700636942675
D15_02_ground_truth.png , 351 , 1256 , 27.945859872611468
D15_03_ground_truth.png , 374 , 1256 , 29.777070063694268
D15_04_ground_truth.png , 388 , 1256 , 30.89171974522293
D15_05_ground_truth.png , 370 , 1256 , 29.458598726114648
D15_06_ground_truth.png , 376 , 1256 , 29.936305732484076
D15_08_ground_truth.png , 361 , 1256 , 28.742038216560513
D15_09_ground_truth.png , 400 , 1256 , 31.84713375796178
D15_10_ground_truth.png , 386 , 1256 , 30.73248407643312
D15_11_ground_truth.png , 353 , 1256 , 28.105095541401276
D15_12_ground_truth.png , 399 , 1256 , 31.76751592356688
D15_13_ground_truth.png , 332 , 1256 , 26.43312101910828
D16_01_ground_truth.png , 389 , 1256 , 30.971337579617835
D16_02_ground_truth.png , 386 , 1256 , 30.73248407643312
D16_03_ground_truth.png , 340 , 1256 , 27.070063694267514
D16_05_ground_truth.png , 453 , 1256 , 36.06687898089172
D16_06_ground_truth.png , 377 , 1256 , 30.015923566878982
D16_07_ground_truth.png , 417 , 1256 , 33.20063694267516
D16_08_ground_truth.png , 382 , 1256 , 30.4140127388535
D16_09_ground_truth.png , 379 , 1256 , 30.17515923566879
D16_10_ground_truth.png , 388 , 1256 , 30.89171974522293
D16_11_ground_truth.png , 395 , 1256 , 31.449044585987263
D16_12_ground_truth.png , 406 , 1256 , 32.324840764331206
D16_13_ground_truth.png , 385 , 1256 , 30.65286624203822
D16_14_ground_truth.png , 352 , 1256 , 28.02547770700637
D17_01_ground_truth.png , 343 , 1256 , 27.30891719745223
D17_02_ground_truth.png , 386 , 1256 , 30.73248407643312
D17_03_ground_truth.png , 348 , 1256 , 27.70700636942675
D17_04_ground_truth.png , 388 , 1256 , 30.89171974522293
D17_05_ground_truth.png , 334 , 1256 , 26.59235668789809
D17_06_ground_truth.png , 301 , 1256 , 23.96496815286624
D17_07_ground_truth.png , 396 , 1256 , 31.528662420382165
D17_08_ground_truth.png , 345 , 1256 , 27.46815286624204
D17_09_ground_truth.png , 364 , 1256 , 28.980891719745223
D17_10_ground_truth.png , 362 , 1256 , 28.82165605095541
D17_11_ground_truth.png , 370 , 1256 , 29.458598726114648
D17_12_ground_truth.png , 366 , 1256 , 29.14012738853503
D17_13_ground_truth.png , 321 , 1256 , 25.557324840764334
D18_02_ground_truth.png , 343 , 1256 , 27.30891719745223
D18_03_ground_truth.png , 368 , 1256 , 29.29936305732484
D18_04_ground_truth.png , 399 , 1256 , 31.76751592356688
D18_05_ground_truth.png , 360 , 1256 , 28.662420382165603
D18_06_ground_truth.png , 433 , 1256 , 34.47452229299363
D18_07_ground_truth.png , 329 , 1256 , 26.19426751592357
D18_08_ground_truth.png , 425 , 1256 , 33.83757961783439
D18_09_ground_truth.png , 380 , 1256 , 30.254777070063692
D18_10_ground_truth.png , 302 , 1256 , 24.044585987261147
D18_11_ground_truth.png , 454 , 1256 , 36.146496815286625
D18_12_ground_truth.png , 412 , 1256 , 32.802547770700635
D19_01_ground_truth.png , 371 , 1256 , 29.538216560509557
D19_02_ground_truth.png , 321 , 1256 , 25.557324840764334
D19_03_ground_truth.png , 410 , 1256 , 32.64331210191082
D19_04_ground_truth.png , 367 , 1256 , 29.219745222929937
D19_05_ground_truth.png , 339 , 1256 , 26.990445859872615
D19_06_ground_truth.png , 358 , 1256 , 28.503184713375795
D19_07_ground_truth.png , 408 , 1256 , 32.48407643312102
D19_08_ground_truth.png , 436 , 1256 , 34.71337579617834
D19_09_ground_truth.png , 353 , 1256 , 28.105095541401276
D19_10_ground_truth.png , 341 , 1256 , 27.149681528662423
D19_11_ground_truth.png , 278 , 1256 , 22.13375796178344
D20_01_ground_truth.png , 344 , 1256 , 27.388535031847134
D20_02_ground_truth.png , 338 , 1256 , 26.910828025477706
D20_03_ground_truth.png , 397 , 1256 , 31.60828025477707
D20_04_ground_truth.png , 373 , 1256 , 29.697452229299365
D20_05_ground_truth.png , 363 , 1256 , 28.90127388535032
D20_06_ground_truth.png , 396 , 1256 , 31.528662420382165
D20_07_ground_truth.png , 360 , 1256 , 28.662420382165603
D20_08_ground_truth.png , 309 , 1256 , 24.601910828025478
D20_09_ground_truth.png , 341 , 1256 , 27.149681528662423
D20_10_ground_truth.png , 399 , 1256 , 31.76751592356688
D20_11_ground_truth.png , 434 , 1256 , 34.554140127388536
D20_12_ground_truth.png , 371 , 1256 , 29.538216560509557
D20_13_ground_truth.png , 365 , 1256 , 29.06050955414013
D20_14_ground_truth.png , 381 , 1256 , 30.334394904458602
D21_01_ground_truth.png , 367 , 1256 , 29.219745222929937
D21_02_ground_truth.png , 419 , 1256 , 33.35987261146497
D21_03_ground_truth.png , 301 , 1256 , 23.96496815286624
D21_04_ground_truth.png , 330 , 1256 , 26.273885350318473
D21_05_ground_truth.png , 329 , 1256 , 26.19426751592357
D21_06_ground_truth.png , 397 , 1256 , 31.60828025477707
D21_07_ground_truth.png , 311 , 1256 , 24.761146496815286
D21_08_ground_truth.png , 365 , 1256 , 29.06050955414013
D21_09_ground_truth.png , 361 , 1256 , 28.742038216560513
D21_10_ground_truth.png , 393 , 1256 , 31.289808917197455
D21_11_ground_truth.png , 344 , 1256 , 27.388535031847134
D21_13_ground_truth.png , 339 , 1256 , 26.990445859872615
D21_14_ground_truth.png , 346 , 1256 , 27.547770700636942
D21_15_ground_truth.png , 314 , 1256 , 25.0
D22_01_ground_truth.png , 330 , 1256 , 26.273885350318473
D22_02_ground_truth.png , 393 , 1256 , 31.289808917197455
D22_03_ground_truth.png , 378 , 1256 , 30.095541401273884
D22_04_ground_truth.png , 358 , 1256 , 28.503184713375795
D22_05_ground_truth.png , 355 , 1256 , 28.264331210191084
D22_06_ground_truth.png , 379 , 1256 , 30.17515923566879
D22_07_ground_truth.png , 310 , 1256 , 24.681528662420384
D22_08_ground_truth.png , 359 , 1256 , 28.582802547770704
D22_09_ground_truth.png , 378 , 1256 , 30.095541401273884
D22_10_ground_truth.png , 435 , 1256 , 34.63375796178344
D22_11_ground_truth.png , 340 , 1256 , 27.070063694267514
D22_12_ground_truth.png , 353 , 1256 , 28.105095541401276
D22_13_ground_truth.png , 355 , 1256 , 28.264331210191084
D22_14_ground_truth.png , 360 , 1256 , 28.662420382165603
D23_01_ground_truth.png , 358 , 1256 , 28.503184713375795
D23_02_ground_truth.png , 291 , 1256 , 23.168789808917197
D23_03_ground_truth.png , 334 , 1256 , 26.59235668789809
D23_04_ground_truth.png , 368 , 1256 , 29.29936305732484
D23_05_ground_truth.png , 389 , 1256 , 30.971337579617835
D23_06_ground_truth.png , 369 , 1256 , 29.378980891719745
D23_07_ground_truth.png , 303 , 1256 , 24.12420382165605
D23_08_ground_truth.png , 330 , 1256 , 26.273885350318473
D23_09_ground_truth.png , 334 , 1256 , 26.59235668789809
D23_10_ground_truth.png , 327 , 1256 , 26.03503184713376
D23_11_ground_truth.png , 375 , 1256 , 29.856687898089174
D23_12_ground_truth.png , 293 , 1256 , 23.32802547770701
D23_13_ground_truth.png , 524 , 1256 , 41.71974522292994
D24_01_ground_truth.png , 380 , 1256 , 30.254777070063692
D24_02_ground_truth.png , 403 , 1256 , 32.0859872611465
D24_03_ground_truth.png , 338 , 1256 , 26.910828025477706
D24_04_ground_truth.png , 386 , 1256 , 30.73248407643312
D24_05_ground_truth.png , 390 , 1256 , 31.050955414012737
D24_06_ground_truth.png , 389 , 1256 , 30.971337579617835
D24_07_ground_truth.png , 397 , 1256 , 31.60828025477707
D24_08_ground_truth.png , 372 , 1256 , 29.617834394904456
D24_09_ground_truth.png , 386 , 1256 , 30.73248407643312
D24_10_ground_truth.png , 347 , 1256 , 27.627388535031848
D24_11_ground_truth.png , 366 , 1256 , 29.14012738853503
D24_12_ground_truth.png , 407 , 1256 , 32.404458598726116
E01_01_ground_truth.png , 427 , 1256 , 33.996815286624205
E01_02_ground_truth.png , 410 , 1256 , 32.64331210191082
E01_03_ground_truth.png , 372 , 1256 , 29.617834394904456
E01_04_ground_truth.png , 387 , 1256 , 30.812101910828027
E01_05_ground_truth.png , 376 , 1256 , 29.936305732484076
E01_06_ground_truth.png , 440 , 1256 , 35.03184713375796
E01_07_ground_truth.png , 621 , 1256 , 49.44267515923567
E01_08_ground_truth.png , 387 , 1256 , 30.812101910828027
E01_09_ground_truth.png , 416 , 1256 , 33.12101910828025
E01_10_ground_truth.png , 355 , 1256 , 28.264331210191084
E01_11_ground_truth.png , 360 , 1256 , 28.662420382165603
E01_12_ground_truth.png , 404 , 1256 , 32.1656050955414
E01_13_ground_truth.png , 396 , 1256 , 31.528662420382165
E01_14_ground_truth.png , 413 , 1256 , 32.882165605095544
E01_15_ground_truth.png , 376 , 1256 , 29.936305732484076
E02_01_ground_truth.png , 338 , 1256 , 26.910828025477706
E02_02_ground_truth.png , 357 , 1256 , 28.423566878980893
E02_03_ground_truth.png , 379 , 1256 , 30.17515923566879
E02_04_ground_truth.png , 429 , 1256 , 34.15605095541402
E02_05_ground_truth.png , 341 , 1256 , 27.149681528662423
E02_06_ground_truth.png , 402 , 1256 , 32.00636942675159
E02_07_ground_truth.png , 393 , 1256 , 31.289808917197455
E02_08_ground_truth.png , 344 , 1256 , 27.388535031847134
E02_09_ground_truth.png , 407 , 1256 , 32.404458598726116
E02_10_ground_truth.png , 368 , 1256 , 29.29936305732484
E02_11_ground_truth.png , 383 , 1256 , 30.49363057324841
E02_12_ground_truth.png , 322 , 1256 , 25.636942675159236
E02_13_ground_truth.png , 396 , 1256 , 31.528662420382165
E02_14_ground_truth.png , 357 , 1256 , 28.423566878980893
E02_15_ground_truth.png , 355 , 1256 , 28.264331210191084
E03_01_ground_truth.png , 400 , 1256 , 31.84713375796178
E03_02_ground_truth.png , 431 , 1256 , 34.31528662420382
E03_03_ground_truth.png , 324 , 1256 , 25.796178343949045
E03_04_ground_truth.png , 501 , 1256 , 39.888535031847134
E03_05_ground_truth.png , 454 , 1256 , 36.146496815286625
E03_06_ground_truth.png , 474 , 1256 , 37.738853503184714
E03_07_ground_truth.png , 343 , 1256 , 27.30891719745223
E03_08_ground_truth.png , 555 , 1256 , 44.18789808917197
E03_09_ground_truth.png , 371 , 1256 , 29.538216560509557
E03_10_ground_truth.png , 362 , 1256 , 28.82165605095541
E03_11_ground_truth.png , 403 , 1256 , 32.0859872611465
E03_12_ground_truth.png , 506 , 1256 , 40.28662420382166
E03_13_ground_truth.png , 346 , 1256 , 27.547770700636942
E03_14_ground_truth.png , 402 , 1256 , 32.00636942675159
E04_01_ground_truth.png , 335 , 1256 , 26.671974522292995
E04_02_ground_truth.png , 378 , 1256 , 30.095541401273884
E04_03_ground_truth.png , 379 , 1256 , 30.17515923566879
E04_04_ground_truth.png , 398 , 1256 , 31.687898089171973
E04_05_ground_truth.png , 315 , 1256 , 25.079617834394906
E04_06_ground_truth.png , 346 , 1256 , 27.547770700636942
E04_07_ground_truth.png , 394 , 1256 , 31.369426751592357
E04_08_ground_truth.png , 394 , 1256 , 31.369426751592357
E04_09_ground_truth.png , 404 , 1256 , 32.1656050955414
E04_10_ground_truth.png , 378 , 1256 , 30.095541401273884
E04_11_ground_truth.png , 383 , 1256 , 30.49363057324841
E04_12_ground_truth.png , 456 , 1256 , 36.30573248407643
E04_13_ground_truth.png , 374 , 1256 , 29.777070063694268
E04_14_ground_truth.png , 349 , 1256 , 27.78662420382166
E04_15_ground_truth.png , 336 , 1256 , 26.751592356687897
