 ,Pixels ,R-Mean ,R-Mode ,R-Median ,G-Mean ,G-Mode ,G-Median ,B-Mean ,B-Mode ,B-Median 
1,56,64247.804,64192,64252,62460.161,62467,62477,51104.107,51225,51141
2,56,64194.196,64149,64202,62559.107,62545,62563,51547.982,51472,51553
3,56,64009.625,64263,64200,62200.893,62272,62318,51212.768,51266,51294
4,56,64082.375,64070,64092,62270.286,62296,62284,51182.411,51180,51238
5,56,7325.661,7187,7344,6139.125,6030,6142,4553.232,4439,4540
6,56,63991.429,64028,64028,62502.411,62447,62511,51258.143,51232,51252
7,56,64009.339,64107,64035,62493.804,62455,62502,52249.429,52106,52244
8,56,63949.393,64086,63983,62382.143,62394,62402,51474.589,51508,51490
9,56,63087.839,63100,63103,59349.304,59267,59398,46587.696,46608,46618
10,56,64105.375,64052,64119,62388.232,62314,62399,52811.554,52706,52818
11,56,63984.179,63921,64024,62418.732,62332,62430,52832.732,52930,52909
12,56,63942.304,64090,64102,62276.411,62419,62453,51191.554,51241,51322
13,56,64329.768,64243,64352,62467.571,62390,62482,50953.232,50898,50923
14,56,64275.696,64240,64304,62562.893,62546,62593,51487.321,51489,51498
15,56,64169.286,64258,64222,62219.714,62151,62212,51202.786,51267,51254
16,56,64066.821,64101,64070,62254.839,62225,62262,51303.554,51305,51305
17,56,15384.089,16334,14915,7168.304,6845,6943,4093.304,4077,4097
18,56,64239.786,64177,64259,62484.75,62536,62484,50942.071,50915,50944
19,56,64250.839,64268,64274,62651.911,62670,62673,52607.625,52458,52640
20,56,64069,63905,64070,62486.482,62414,62482,51528.357,51409,51527
21,56,62935.964,62866,62944,59431.893,59591,59448,46946.232,46995,46992
22,56,63591.75,64089,64148,61960.536,62485,62455,51397.589,51572,51740
23,56,64126.5,63890,64135,62523.75,62435,62540,52082.036,52146,52093
24,56,63323.214,63981,64017,61848.143,62418,62561,50851.286,50475,51386
25,56,63904.554,64305,64223,62104.339,50857,62571,50901.732,51553,51525
26,56,64192.429,64123,64215,62609.107,62629,62638,51547.232,51619,51527
27,56,64250.589,64189,64257,62278.589,62322,62318,51149.25,51065,51191
28,56,64152.036,63261,64194,62426.143,62404,62426,51256.554,51239,51281
29,56,6175.179,6113,6168,5288.911,5192,5296,3774.214,3822,3808
30,56,64048.625,63716,64059,62488.929,62386,62527,51236.179,51220,51242
31,56,64179.5,63966,64192,62597.696,62490,62611,52422.607,52271,52444
32,56,63890.429,64117,63886,62383.875,62265,62371,51330.732,51229,51301
33,56,62875.875,62860,62897,59494.643,59529,59532,47339.411,47321,47376
34,56,64106.679,63970,64128,62513.321,62499,62516,52342.554,52233,52336
35,56,64181.125,64086,64210,62614.054,62576,62618,52496.054,52443,52491
36,56,64216.304,64238,64256,62570.589,62588,62592,51518.268,51551,51526
37,56,64315.786,64364,64306,62550.679,62479,62556,50990.625,50824,51025
38,56,64180.714,64126,64168,62610.804,62474,62631,51635.018,51635,51645
39,56,64274.446,64285,64324,62348.911,62335,62412,51231.75,51263,51262
40,56,64060.429,63937,64078,62472.429,62231,62486,51591.357,51571,51615
41,56,7129.911,6989,7144,6087.446,6126,6095,4370.821,4243,4355
42,56,64054.893,63922,64063,62498.571,62514,62507,51238.125,51236,51239
43,56,64052.839,63958,64057,62470.875,62522,62450,51964.75,52045,51979
44,56,64050.589,64007,64060,62369.089,62402,62438,51288,51278,51327
45,56,62849.75,62847,62978,59235.875,59251,59395,46720.411,46837,46895
46,56,63909.393,63749,63932,62397.232,62390,62394,52691.625,52756,52705
47,56,63953.929,63896,64010,62534.482,62569,62592,52707.464,52725,52777
48,56,63823.179,63571,63850,62274.232,61266,62318,51644.393,51528,51671
49,56,64272.679,64306,64275,62561.679,62560,62567,51296.589,51225,51282
50,56,64264.321,64220,64287,62690.464,62577,62704,51823.018,51748,51818
51,56,64377.536,64282,64360,62449.964,62385,62462,51305.214,51256,51308
52,56,64000.589,63964,63986,62427.232,62352,62422,51636.429,51529,51650
53,56,6411.25,6404,6462,5333.071,5207,5303,3955.804,4055,3979
54,56,64005.518,64006,64022,62471.339,62560,62494,51232.286,51227,51250
55,56,63960.446,63937,63962,62464.625,62496,62469,52444.946,52350,52451
56,56,64047.643,63928,64069,62361.911,62432,62404,51235.732,51256,51265
57,56,63066.179,62927,63058,59540.768,59466,59533,47186.393,47150,47210
58,56,63916.089,63979,63951,62348.554,62371,62356,52239.804,52154,52251
59,56,63828.482,63944,63826,62362.304,62255,62349,52403.339,52436,52408
60,56,63971.607,64054,64020,62310.071,62260,62327,51377.625,51320,51397
61,56,64246.375,64207,64251,62395.411,62502,62390,51147.143,51065,51205
62,56,64285.357,64317,64304,62525.5,62258,62552,51344.036,51264,51331
63,56,64076.607,64322,64335,62246.107,62433,62417,51247.589,51291,51365
64,56,63721.232,64019,64019,61833,62091,62182,50977.768,51281,51254
65,56,6299.982,6191,6287,5359.321,5509,5354,3782.321,3947,3791
66,56,64179.179,64202,64157,62427.625,62380,62429,50899.446,50979,50915
67,56,63815.161,63798,63840,62039.357,61953,62077,51678.161,51856,51741
68,56,64001.143,63879,63997,62120.214,62078,62134,50307.839,50169,50316
69,56,62887.964,62870,62916,59213.411,59237,59276,46716.536,46768,46800
70,56,63651.661,63890,63826,61895.75,62010,62049,51526.446,51661,51718
71,56,63848.589,63938,63898,62181.911,62012,62192,52688.089,52732,52736
72,56,63929.107,63829,63937,62182.429,62228,62228,51496.679,51339,51513
73,56,64229.821,64247,64231,62312.411,62117,62324,50676.929,50644,50672
74,56,64095,64072,64082,62361.786,62243,62363,51479.268,51408,51486
75,56,64304.607,64348,64331,62284.107,62228,62293,51266.839,51257,51268
76,56,63662.839,63914,63951,61884.036,62040,62195,51158,51360,51468
77,56,7351.732,7298,7358,6309.821,6278,6297,4687.214,4464,4667
78,56,64037.304,63876,64030,62244.643,62322,62253,50968.893,50979,50985
79,56,63845.964,63880,63858,62181.464,61984,62204,52286.179,52327,52314
80,56,63936.839,64143,64026,62142.821,62057,62201,51144.786,51263,51228
81,56,62967.054,63062,62959,59312.161,59261,59310,46770.804,46651,46804
82,56,63095.625,63544,63685,61459.643,61800,61918,51842.625,52332,52332
83,56,63660.179,63651,63660,61860.536,61769,61851,52818.054,52940,52863
84,56,63761.732,63741,63820,62054.089,62031,62060,51283.268,51310,51310
85,56,64017.161,64006,64093,62254.786,62303,62326,50797.821,50819,50881
86,56,64129.661,64245,64144,62531.589,62575,62544,51760.232,51800,51762
87,56,64184.804,64247,64202,62262.429,62302,62274,51090.786,51034,51111
88,56,64007.232,64007,64007,62331.232,62102,62343,51261.536,51276,51261
89,56,7140.696,7146,7146,6073.893,6004,6081,4312.232,4245,4296
90,56,63988,64065,64055,62359.5,62416,62419,50877.857,50896,50925
91,56,63857.643,63809,63915,62336.768,62357,62384,52207.268,52323,52275
92,56,64054.179,64033,64045,62280.768,62356,62298,51135.768,51123,51139
93,56,63171.464,63209,63215,59538.571,59539,59576,46972.679,46930,47043
94,56,64066.339,63989,64070,62438.429,62447,62444,52341.429,52243,52343
95,56,63972.982,63904,63991,62368.536,62408,62408,51963.214,52020,52020
96,56,63915.232,63873,63966,62221.857,62164,62247,51242.625,51276,51276
