 ,Pixels ,R-Mean ,R-Mode ,R-Median ,G-Mean ,G-Mode ,G-Median ,B-Mean ,B-Mode ,B-Median 
1,56,65535,65535,65535,53979.679,53886,53986,36233.446,36264,36262
2,56,65535,65535,65535,53823.018,53758,53838,16647.054,16611,16652
3,56,65534.893,65535,65535,53123.821,53129,53129,36017.232,36015,36062
4,56,65525.696,65535,65535,53704.143,53746,53758,36045.554,36066,36127
5,56,65534.893,65535,65535,53963.286,53812,53969,23345.071,23149,23353
6,56,65482.321,65535,65535,56232.696,56480,56445,34823.589,34903,34958
7,56,65535,65535,65535,55790.732,55784,55795,13734.821,13599,13729
8,56,65492.964,65535,65535,56434.196,56180,56638,26132.589,26145,26163
9,56,65520.304,65535,65535,56553.661,56595,56575,35929.268,35882,35898
10,56,65251.161,65532,65312,56217.732,56462,56305,35963.661,35885,35957
11,56,63179.661,63032,63236,63068.464,63003,63128,62922.571,63044,63015
12,56,63375.875,63276,63387,63271.107,63209,63270,63141.339,63151,63147
13,56,65535,65535,65535,53832.304,53813,53827,36306.089,36308,36310
14,56,65534.786,65535,65535,53916.286,53976,53922,16742.161,16719,16746
15,56,65535,65535,65535,53322.411,53336,53311,36370.429,36385,36385
16,56,65535,65535,65535,53639.768,53673,53670,36070.875,36022,36088
17,56,65535,65535,65535,53732.875,53676,53745,23397.018,23396,23419
18,56,65535,65535,65535,55290.625,55119,55315,34935.786,34970,34929
19,56,65535,65535,65535,55906.125,55873,55897,13651.893,13620,13657
20,56,65532.125,65535,65535,55185.929,53924,55269,25610.321,25800,25607
21,56,65533.929,65535,65535,56405.482,56475,56484,35545.286,35882,35577
22,56,64891.482,65531,65002,55801.75,53564,55996,36142.679,35861,36236
23,56,63466.089,63383,63476,63375.482,63399,63399,63225.714,63250,63250
24,56,63436.143,63434,63468,63403.536,63473,63437,63329.304,63267,63333
25,56,65535,65535,65535,53739.679,53754,53749,36088.518,36017,36096
26,56,65535,65535,65535,53812.411,53693,53803,16497.375,16374,16517
27,56,65535,65535,65535,53288.911,53233,53288,36042.429,35987,36052
28,56,65535,65535,65535,53793.554,53763,53798,35949.696,35895,35950
29,56,65535,65535,65535,53919.25,53882,53913,23670.286,23646,23677
30,56,65534.911,65535,65535,55254.714,55229,55304,34909.214,34917,34905
31,56,65535,65535,65535,55835.321,55873,55865,13565.732,13510,13555
32,56,65534.964,65535,65535,55141.768,55181,55200,25814.911,25842,25832
33,56,63152.107,58570,63335,52963.232,51613,53156,32401.5,29445,32579
34,56,62649.714,62503,62732,54370.214,53929,54412,38785.071,37523,38816
35,56,63470.768,63435,63466,63401.071,63346,63411,63352.625,63376,63365
36,56,63495.714,63506,63506,63448.482,63417,63466,63363.75,63352,63394
37,56,65534.964,65535,65535,53645.821,53703,53670,35923.393,35940,35930
38,56,65535,65535,65535,53931.446,53822,53941,16527.75,16592,16550
39,56,65534.732,65535,65535,53209.714,53217,53220,35989.339,36039,36010
40,56,65535,65535,65535,53765.875,53775,53765,35973.143,35859,35988
41,56,65535,65535,65535,53638.339,53661,53681,23177.536,23276,23202
42,56,65534.929,65535,65535,56315.429,56421,56380,35423.964,34997,35445
43,56,65535,65535,65535,55631.357,55728,55680,13556.036,13546,13563
44,56,65475.518,65535,65535,56001.839,56000,56156,26372.25,23003,26932
45,56,65511.964,65535,65535,56008.143,56141,56053,34798.857,34054,34861
46,56,64182.125,63807,64125,54708.571,54904,54795,34746.911,31286,35612
47,56,63533.25,63501,63526,63485.375,63476,63492,63426.857,63456,63433
48,56,63506.339,63459,63522,63468.857,63525,63524,63406.268,63435,63469
49,56,65535,65535,65535,53713.018,53669,53716,36094.964,36160,36114
50,56,65535,65535,65535,53967.518,53991,53979,16508.75,16348,16521
51,56,65535,65535,65535,53271.196,53170,53279,36301.857,36247,36304
52,56,65535,65535,65535,53675.661,53665,53675,35753,35628,35770
53,56,65535,65535,65535,53954.768,53810,53976,23786.821,23736,23798
54,56,65535,65535,65535,56423.518,56466,56459,35648.054,35731,35731
55,56,65535,65535,65535,55445.714,55229,55464,13373.018,13303,13362
56,56,65535,65535,65535,55901.25,55553,55910,25601.286,27098,26456
57,56,62316.375,62878,62551,51866.696,48811,51942,31164.161,31256,31256
58,56,65131.339,65532,65261,55749.5,55676,55827,35908.732,36012,35957
59,56,63447.179,63345,63444,63384.554,63345,63389,63257.196,63243,63256
60,56,63050.286,63397,63488,62911.018,63395,63401,62788.214,63404,63385
61,56,65535,65535,65535,53554.214,53527,53557,35664.054,35542,35664
62,56,65535,65535,65535,53937.339,53804,53940,16151.482,16144,16144
63,56,65535,65535,65535,53284.411,53268,53282,36015.643,35906,36035
64,56,65535,65535,65535,53738.571,53583,53751,35818.232,35836,35822
65,56,65535,65535,65535,53764.357,53655,53754,23279.732,23130,23267
66,56,65535,65535,65535,56133.804,56073,56160,35051.589,35133,35094
67,56,65535,65535,65535,55709.857,55668,55734,13216.036,13187,13215
68,56,65422.161,65535,65535,54842.821,55335,55052,23861.536,20622,23516
69,56,65397.696,65534,65511,55315.018,54925,55302,33989.839,33903,33964
70,56,65015.161,65530,65012,55446.161,54548,55366,37135.732,37560,37149
71,56,63209.804,63294,63343,63138.875,63252,63283,62954.732,63180,63128
72,56,63392.946,63472,63480,63309.161,63308,63355,63178.982,63143,63268
73,56,65535,65535,65535,53655.268,53538,53661,36089.429,36044,36090
74,56,65535,65535,65535,53734.286,53670,53733,16304.732,16209,16291
75,56,65535,65535,65535,53174.571,53091,53175,35944.893,35909,35950
76,56,65535,65535,65535,53556.661,53540,53561,35832.143,35860,35831
77,56,65535,65535,65535,53665.679,53664,53668,23106.107,23058,23099
78,56,65535,65535,65535,56428.464,56422,56435,35203.107,35045,35155
79,56,65535,65535,65535,55744.982,55877,55795,13372.768,13234,13375
80,56,65026.357,65535,65525,55109.143,51935,55780,26201.286,24955,26367
81,56,65476.893,65535,65535,55360.625,55050,55274,33863.179,33562,33799
82,56,64822.786,64866,64866,55732.5,55132,55849,36444.179,36835,36486
83,56,63365.268,63408,63401,63148.446,63135,63181,62953.804,62907,62975
84,56,63177.071,63272,63257,63056.982,63027,63084,62876.518,63077,62953
85,56,65535,65535,65535,53610.357,53596,53618,35781.464,35735,35783
86,56,65535,65535,65535,53998.143,54011,54011,16213.071,16171,16213
87,56,65534.857,65535,65535,53038.982,53001,53034,35401.964,35436,35399
88,56,65535,65535,65535,53686.732,53562,53696,35699.982,35633,35715
89,56,65535,65535,65535,53678.964,53676,53677,22903.339,22950,22924
90,56,65526.214,65535,65535,56104.161,56270,56197,34117.768,34368,34217
91,56,65535,65535,65535,56029.714,56038,56022,13216.429,13189,13211
92,56,65367.321,65535,65535,56070.714,56396,56375,26246.821,26342,26304
93,56,64967.089,65535,65372,54940.357,55361,55094,33924,27702,34083
94,56,65478.482,65535,65535,56666.804,55495,56697,36541.964,36237,36549
95,56,63516.393,63481,63526,63337.286,63329,63337,63190.214,63061,63199
96,56,63451.143,63364,63448,63335.857,63291,63336,63207.179,63079,63217
