 ,Pixels ,R-Mean ,R-Mode ,R-Median ,G-Mean ,G-Mode ,G-Median ,B-Mean ,B-Mode ,B-Median 
1,56,65535,65535,65535,62894.268,62888,62883,29543.286,29552,29551
2,56,65535,65535,65535,62861.607,62860,62864,29600.946,29530,29601
3,56,65535,65535,65535,60550.768,60439,60542,35097.821,35054,35114
4,56,65535,65535,65535,62827.107,62839,62839,29817,29754,29805
5,56,63749.857,63757,63761,63773.714,63793,63788,62645.411,62657,62657
6,56,65535,65535,65535,62896.304,62879,62885,29395.25,29408,29393
7,56,65178.143,65202,65187,63808.786,63818,63803,41973.857,41836,41995
8,56,65535,65535,65535,62939.821,62949,62937,30502.5,30491,30514
9,56,65535,65535,65535,62872.732,62864,62884,29505.321,29325,29531
10,56,64676.661,64626,64708,63635.357,63574,63703,44245.982,44004,44355
11,56,64811.875,64776,64801,63654.929,63628,63658,43450.929,43451,43451
12,56,65535,65535,65535,63044.446,62987,63056,31166.768,31156,31165
13,56,65194.768,65535,65531,62429.929,62859,62864,29145.768,29443,29375
14,56,65535,65535,65535,62858.286,62856,62857,29587.411,29553,29592
15,56,65535,65535,65535,60519.321,60459,60517,35204.304,35215,35206
16,56,65535,65535,65535,62867.232,62874,62873,29190.946,29099,29198
17,56,63852.786,63809,63851,63875.768,63881,63881,62890.268,62661,62923
18,56,65535,65535,65535,62900.964,62869,62896,29325.571,29238,29341
19,56,65091.446,65160,65100,63802.161,63759,63813,43002.036,42847,42930
20,56,65535,65535,65535,62850.625,62842,62846,29931.446,29898,29942
21,56,65529.946,65535,65535,62851.411,62892,62884,29187.857,29173,29192
22,56,65034.714,65007,65046,63540.357,63425,63551,41326.893,41200,41329
23,56,65144.339,65042,65135,63499,63466,63498,40505.625,40477,40477
24,56,65528.893,65535,65535,63092,62981,63107,31479.482,31367,31496
25,56,65535,65535,65535,62953.25,62938,62939,29105.696,29036,29113
26,56,65535,65535,65535,62880.179,62854,62865,29650.911,29599,29656
27,56,65535,65535,65535,60703.982,60634,60709,35094.5,35174,35114
28,56,65535,65535,65535,62876.357,62864,62866,29412.5,29341,29410
29,56,63898.732,63783,63915,63945.143,63650,63952,62735.982,62654,62749
30,56,65535,65535,65535,63020.411,62897,63029,29545.946,29534,29549
31,56,64977.857,64923,64992,63850.857,63857,63857,44253.393,43735,44325
32,56,65535,65535,65535,62861.804,62865,62862,29705.607,29651,29716
33,56,65535,65535,65535,62859.554,62854,62864,29601.107,29578,29590
34,56,64712.786,64524,64708,63878.411,63780,63874,45368.339,45298,45356
35,56,64895.125,64737,64898,63654.107,63532,63660,44474.393,44309,44481
36,56,65535,65535,65535,63258.696,63179,63269,31143.482,31123,31136
37,56,65535,65535,65535,62920.143,62881,62901,29298.429,29194,29302
38,56,65535,65535,65535,62910.821,62912,62912,29594.125,29539,29595
39,56,65522.018,65535,65535,60550.268,60551,60624,35088.321,35164,35129
40,56,65535,65535,65535,62870.339,62834,62863,29927.714,29912,29939
41,56,63797.339,63759,63786,63844.268,63786,63834,62826.875,62772,62821
42,56,65535,65535,65535,62970.982,62877,62964,29063.875,29024,29056
43,56,64995.714,64947,65012,63804.161,63747,63804,43331.714,43215,43299
44,56,65535,65535,65535,62888.429,62865,62877,29388.625,29356,29401
45,56,65534.089,65535,65535,62843.839,62879,62868,29378.411,29354,29389
46,56,64937.321,64879,64922,63445.411,63487,63474,40357.036,40344,40354
47,56,64688.482,64622,64739,63712.286,63778,63804,45095.786,45119,45172
48,56,65529.25,65535,65535,63176.589,63190,63190,31142.321,31139,31141
49,56,65535,65535,65535,62931.446,62877,62932,29122.268,29044,29138
50,56,65534.875,65535,65535,62865.232,62857,62860,29475.411,29359,29471
51,56,65535,65535,65535,60287.071,60259,60276,36288.161,36216,36281
52,56,65535,65535,65535,62857.304,62862,62864,29504.054,29592,29508
53,56,63764.661,63766,63767,63791.893,63787,63799,62545.518,62617,62581
54,56,65533.304,65535,65535,62930.875,62897,62930,28888.482,28930,28910
55,56,64766.071,64732,64762,63905.857,63828,63894,46188.929,46181,46218
56,56,65535,65535,65535,62898.179,62885,62891,29073.5,29059,29075
57,56,65535,65535,65535,62869.607,62900,62892,28924.786,28795,28929
58,56,64885.821,64848,64870,63445,63430,63439,41514.446,41657,41555
59,56,64928.268,64881,64934,63626.911,63635,63629,43091.804,43187,43084
60,56,65529.482,65535,65535,63024.946,63125,63012,30757.804,30789,30774
61,56,65533.321,65535,65535,62886.679,62898,62898,28994.214,28843,29003
62,56,65535,65535,65535,62883.536,62877,62882,29183.911,29196,29194
63,56,65535,65535,65535,60324.5,60199,60327,35665.875,35672,35673
64,56,65535,65535,65535,62870.071,62874,62881,28833.214,28859,28838
65,56,63788.214,63757,63776,63788.5,63795,63795,62506.089,62456,62500
66,56,65535,65535,65535,62924.393,62903,62913,28779.411,28789,28787
67,56,64657.393,64699,64675,63789.357,63731,63807,46631,46443,46642
68,56,65535,65535,65535,62887.089,62883,62891,29000.554,28884,28995
69,56,65514.857,65535,65535,62814.214,62874,62881,29126.875,29036,29150
70,56,64861.357,64848,64851,63410.214,63431,63428,41504.946,41422,41522
71,56,64944.464,64906,64963,63440.054,63449,63449,41101.643,41093,41146
72,56,65501.214,65535,65535,62917.857,62846,62925,30903.857,30849,30912
73,56,65535,65535,65535,62901.429,62886,62896,29141.589,29075,29154
74,56,65535,65535,65535,62826.196,62876,62876,29251.768,29285,29285
75,56,65535,65535,65535,60352.929,60313,60356,35419.25,35300,35402
76,56,65535,65535,65535,62802.286,62756,62821,29341.268,29344,29346
77,56,63764.464,63773,63773,63784.893,63802,63802,62383.268,62210,62376
78,56,65529.25,65535,65535,62864.071,62896,62896,29062.643,29104,29093
79,56,64793.071,64733,64781,63727.536,63596,63735,45062.214,44661,45094
80,56,65245.286,65535,65535,62727.875,62901,62890,29039.054,29206,29110
81,56,65527.821,65535,65535,62735.482,62811,62813,28768.554,28720,28813
82,56,64704.143,64819,64799,63291.286,63376,63378,42472,39460,42591
83,56,64724.625,64633,64720,63675.107,63648,63675,45498.304,45530,45509
84,56,65507.768,65535,65534,62891.518,62793,62901,31210.982,31209,31205
85,56,65535,65535,65535,62981.339,62928,62965,29069.125,28966,29069
86,56,65535,65535,65535,62896.054,62899,62894,29152.911,29127,29162
87,56,65535,65535,65535,60495.107,60472,60491,34961.036,34903,34964
88,56,65535,65535,65535,62885.554,62896,62894,29072.054,29048,29067
89,56,63757.911,63761,63765,63792.304,63789,63796,62562.357,62549,62556
90,56,65504.875,65535,65535,62942.339,62950,62990,28822.75,28871,28847
91,56,64721.804,64667,64728,63858.125,63920,63861,45394.036,45277,45393
92,56,65535,65535,65535,62943,62901,62926,29093.964,29089,29089
93,56,65474,65535,65535,62810.464,62896,62907,28880.911,28958,28950
94,56,65369.268,65308,65375,63456.982,63355,63451,36090.536,36118,36108
95,56,65225.589,65185,65221,63527.786,63460,63524,40431.482,40461,40458
96,56,65535,65535,65535,63097.25,63109,63111,31166.411,31162,31162
