, ,Pixels ,R-Mean ,R-Mode ,R-Median ,G-Mean ,G-Mode ,G-Median ,B-Mean ,B-Mode ,B-Median 
0,1,56,64275.768,64231,64300,62674.232,62675,62679,52821.03599999999,52717,52822
12,13,56,64301.982,64142,64301,62681.268,62655,62685,52796.679000000004,52679,52800
24,25,56,64282.53599999999,64245,64280,62754.607,62786,62779,52952.820999999996,52978,52981
36,37,56,64041.71400000001,63876,64079,62590.0,62529,62610,52978.0,53021,53006
48,49,56,63922.91099999999,63904,63929,62481.357,62443,62493,53049.554000000004,53033,53049
60,61,56,64127.018,64010,64117,62599.25,62405,62618,52982.21400000001,53011,52993
72,73,56,64011.518,63869,64000,62517.28599999999,62519,62536,53002.625,53046,53040
84,85,56,63717.945999999996,64064,63984,62309.320999999996,62529,62587,52790.679000000004,53023,53044
1,2,56,65386.143,65533,65391,62837.429000000004,62620,62836,21981.642999999996,21896,21981
13,14,56,65352.857,65534,65382,62878.91099999999,62871,62883,22202.161,22171,22192
25,26,56,65458.820999999996,65534,65494,63031.46400000001,62995,63071,22079.589,22048,22092
37,38,56,65192.695999999996,65124,65213,62849.53599999999,62773,62864,22297.0,22188,22290
49,50,56,65162.03599999999,65038,65154,62622.857,62578,62644,22040.75,22026,22036
61,62,56,65366.46400000001,65534,65389,62760.375,62585,62786,21888.625,21762,21884
73,74,56,65339.304000000004,65534,65346,62821.28599999999,62625,62822,22189.767999999996,22094,22191
85,86,56,65308.107,65294,65333,62808.429000000004,62832,62837,21815.321,21775,21817
2,3,56,64304.41099999999,64298,64311,62654.554000000004,62658,62658,52098.768,51935,52103
14,15,56,64239.66099999999,64149,64271,62698.143,62664,62701,51959.08900000001,51880,51969
26,27,56,64200.445999999996,64098,64246,62686.58900000001,62813,62799,52094.25,52134,52153
38,39,56,64071.195999999996,64002,64104,62652.66099999999,62512,62714,52028.268,51934,52045
50,51,56,63942.893,63985,63946,62332.018,62307,62371,51983.125,51846,52045
62,63,56,64297.41099999999,64234,64298,62658.857,62674,62665,51858.804000000004,51738,51871
74,75,56,64228.96400000001,64134,64254,62613.482,62538,62667,52035.570999999996,52021,52060
86,87,56,64043.429000000004,64010,64055,62547.28599999999,62473,62548,51815.393,51703,51830
3,4,56,63848.929000000004,63857,63857,62160.91099999999,62216,62205,54099.445999999996,54040,54153
15,16,56,63864.75,63859,63865,62176.875,62163,62173,54032.143,53850,54041
27,28,56,64010.28599999999,64047,64004,62215.16099999999,62131,62221,53384.78599999999,53270,53385
39,40,56,63841.21400000001,63800,63853,62117.929000000004,62093,62124,53961.03599999999,53898,53960
51,52,56,63811.71400000001,63892,63799,62019.375,61963,62035,54108.018,54017,54113
63,64,56,64027.625,64078,64035,62151.08900000001,62394,62159,54093.820999999996,53932,54113
75,76,56,64020.625,63977,64029,62207.982,62129,62208,53875.804000000004,53826,53877
87,88,56,63892.643,63804,63881,62194.482,62231,62199,53048.804000000004,53085,53070
4,5,56,64556.018,64564,64608,62489.03599999999,62608,62617,35457.589,35566,35550
16,17,56,64709.820999999996,64622,64729,62634.482,62612,62631,35439.75,35269,35452
28,29,56,64483.16099999999,64602,64532,62554.83900000001,62536,62622,35469.196,35277,35496
40,41,56,64216.0,64222,64237,62430.625,62606,62525,35452.875,35177,35449
52,53,56,64294.982,64211,64314,62475.875,62230,62531,35767.929,35716,35792
64,65,56,64300.5,64410,64337,62333.83900000001,62101,62440,35592.018,35441,35584
76,77,56,64390.482,64601,64410,62506.554000000004,62610,62589,35638.125,35691,35675
88,89,56,64088.695999999996,64436,64522,62196.320999999996,62584,62611,35303.464,35599,35599
5,6,56,62954.28599999999,63828,63881,61301.679000000004,62207,62183,51425.320999999996,52069,52160
17,18,56,63839.893,63875,63889,62144.945999999996,62106,62148,52124.21400000001,51942,52093
29,30,56,63644.625,63906,63761,61998.375,61813,62085,52004.179000000004,51916,52082
41,42,56,63425.554000000004,63191,63426,61874.893,61827,61862,51622.195999999996,51448,51617
53,54,56,63497.08900000001,63346,63481,61852.83900000001,61812,61834,51748.125,51719,51756
65,66,56,63553.125,63685,63644,61689.03599999999,61782,61793,51391.732,51361,51493
77,78,56,63476.875,63732,63762,61671.08900000001,61789,61913,51680.78599999999,52104,52020
89,90,56,64075.83900000001,63240,64062,62245.570999999996,62279,62271,51808.857,51836,51879
6,7,56,65535.0,65535,65535,58524.16099999999,58494,58525,13690.946000000002,13663,13695
18,19,56,65535.0,65535,65535,57604.875,57676,57670,12903.071000000002,12845,12896
30,31,56,65535.0,65535,65535,57991.445999999996,58009,57970,13230.464,13218,13223
42,43,56,65535.0,65535,65535,57780.16099999999,57695,57758,13096.911,13086,13098
54,55,56,65534.607,65535,65535,58124.445999999996,57962,58105,13233.732,13251,13242
66,67,56,65535.0,65535,65535,58012.768,57688,57992,12990.339,12883,13000
78,79,56,65475.429000000004,65535,65535,57628.018,57676,57748,13079.696000000002,13045,13093
90,91,56,65535.0,65535,65535,58526.71400000001,58417,58498,13024.161,12933,13023
7,8,56,63975.875,64249,64115,62101.625,62381,62344,39216.339,36470,39356
19,20,56,63797.018,62555,63833,61860.375,60120,62048,38498.196,36746,38579
31,32,56,62960.66099999999,63689,63321,61082.679000000004,56060,61335,39215.107,34442,39223
43,44,56,63533.143,63289,63631,61705.857,61879,61784,40259.054,38813,40371
55,56,56,63635.357,63600,63648,61722.96400000001,61834,61798,41428.25,40664,41414
67,68,56,63182.320999999996,63707,63412,61072.16099999999,58507,61277,41943.41099999999,43166,42125
79,80,56,63951.03599999999,63742,64022,62037.768,62250,62104,42608.21400000001,42804,42621
91,92,56,64291.929000000004,64108,64268,62283.5,62167,62262,44336.125,44311,44345
8,9,56,51454.679000000004,35621,53653,50082.0,51054,51700,41005.839,29784,42445
20,21,56,55840.28599999999,41551,57407,54117.429000000004,40463,55382,44196.929000000004,51136,45675
32,33,56,58547.070999999996,43133,60398,57033.03599999999,40873,58460,47067.804000000004,31023,48289
44,45,56,61541.78599999999,60962,62031,59937.46400000001,55194,60220,50283.195999999996,44654,50618
56,57,56,62483.16099999999,58660,62800,60683.570999999996,57799,60759,50160.482,45589,50197
68,69,56,63278.070999999996,63243,63352,61214.518,60869,61300,51177.018,50958,51307
80,81,56,57419.143,43367,61489,55312.179000000004,61239,58419,45794.875,32400,48569
92,93,56,59258.08900000001,46253,61372,57469.393,45351,58806,47688.820999999996,36398,48588
9,10,56,62715.41099999999,63235,62757,60130.66099999999,60071,60230,50435.46400000001,50672,50466
21,22,56,62564.16099999999,62380,62610,59774.732,58397,59881,49868.375,49925,49916
33,34,56,63020.445999999996,63408,63108,60595.445999999996,60441,60552,51230.375,51329,51329
45,46,56,62131.375,62451,62302,59298.232,60252,59484,49699.982,50124,49986
57,58,56,62243.16099999999,62671,62538,59642.268,59704,59801,50017.070999999996,50143,50228
69,70,56,62665.107,62774,62735,59718.179000000004,59628,59899,50092.804000000004,50499,50272
81,82,56,62370.0,60200,62641,59298.445999999996,57100,59517,49503.0,47059,49925
93,94,56,62946.393,62458,62895,59944.268,59854,59997,49700.820999999996,49865,49821
10,11,56,63398.25,63333,63407,63271.46400000001,63155,63278,63117.08900000001,63032,63110
22,23,56,63490.03599999999,63475,63475,63361.054000000004,63270,63363,63205.857,63223,63208
34,35,56,63528.16099999999,63447,63536,63356.393,63311,63347,63175.625,63133,63173
46,47,56,63655.945999999996,63652,63659,63439.570999999996,63452,63445,63175.21400000001,63153,63173
58,59,56,63477.0,63432,63471,63322.58900000001,63289,63329,63135.732,63154,63163
70,71,56,63407.16099999999,63362,63424,63228.58900000001,63187,63236,63049.143,63015,63058
82,83,56,63397.643,63317,63394,63204.320999999996,63160,63196,63033.320999999996,62956,63060
94,95,56,63428.929000000004,63392,63426,63182.5,63113,63184,63004.375,62919,63013
11,12,56,63237.232,63156,63235,63126.179000000004,63106,63125,63103.893,63069,63119
23,24,56,63410.070999999996,63309,63425,63293.429000000004,63235,63286,63204.16099999999,63172,63193
35,36,56,63479.445999999996,63409,63481,63329.732,63307,63318,63199.03599999999,63122,63202
47,48,56,63412.125,63220,63447,63265.21400000001,63341,63315,63135.768,63188,63174
59,60,56,63409.53599999999,63346,63411,63294.0,63237,63302,63177.929000000004,63176,63181
71,72,56,63148.28599999999,62372,63195,62986.5,62855,63014,62906.232,62814,62936
83,84,56,63248.5,63175,63256,63017.304000000004,62946,63027,62885.143,62861,62901
95,96,56,63093.320999999996,63107,63090,62812.804000000004,62788,62833,62751.393,62740,62772
