, ,Pixels ,R-Mean ,R-Mode ,R-Median ,G-Mean ,G-Mode ,G-Median ,B-Mean ,B-Mode ,B-Median 
0,1,56,64676.625,64566,64680,37133.589,37093,37133,34273.589,34171,34275
12,13,56,64739.195999999996,64757,64757,36354.5,36305,36342,33459.036,33430,33451
24,25,56,64699.143,64718,64704,36003.571,35985,36017,33294.232,33052,33301
36,37,56,64747.16099999999,64699,64757,36669.143,36606,36677,33950.571,33955,33961
48,49,56,64814.554000000004,64814,64814,36188.411,36174,36201,33326.143,33224,33329
60,61,56,64952.393,64873,64955,36476.821,36477,36477,33608.375,33532,33614
72,73,56,64922.570999999996,64833,64941,36561.036,36503,36562,33708.196,33624,33713
84,85,56,64881.875,64789,64893,36386.554,36370,36393,33489.161,33425,33504
1,2,56,65382.107,65332,65384,36517.786,36523,36523,12616.75,12582,12623
13,14,56,65262.33900000001,65172,65270,36420.964,36373,36432,12624.036,12663,12629
25,26,56,65325.375,65211,65331,36678.732,36671,36683,12621.768,12619,12625
37,38,56,65260.03599999999,65233,65250,36494.714,36482,36511,12608.053999999998,12544,12612
49,50,56,65481.875,65534,65487,37174.357,37094,37179,12718.428999999998,12709,12718
61,62,56,65434.554000000004,65534,65448,36102.286,36110,36114,12340.143,12331,12339
73,74,56,65364.445999999996,65294,65361,36096.161,36121,36107,12523.678999999998,12474,12524
85,86,56,65342.857,65291,65335,35924.143,35959,35936,12273.607,12211,12274
2,3,56,64740.08900000001,64726,64748,37198.911,37159,37190,34126.196,34038,34130
14,15,56,64173.643,64440,64441,36568.196,36689,36684,33544.464,33642,33670
26,27,56,64344.070999999996,64254,64338,35954.304,35909,35958,33239.036,33226,33243
38,39,56,64490.71400000001,64512,64536,36734.911,36762,36762,33659.393,33637,33681
50,51,56,64605.482,64682,64616,35606.518,35544,35590,32628.482000000004,32643,32643
62,63,56,64519.570999999996,64539,64524,36515.857,36476,36518,33394.446,33302,33405
74,75,56,64780.695999999996,64709,64779,36342.125,36347,36347,33287.982,33324,33284
86,87,56,64714.28599999999,64695,64721,36139.5,36066,36145,33031.786,32966,33027
3,4,56,62753.03599999999,62666,62732,59233.91099999999,59176,59216,51805.83900000001,51803,51804
15,16,56,62672.054000000004,62585,62674,59213.857,59198,59219,53133.018,53084,53134
27,28,56,62693.982,62663,62705,59056.054000000004,58991,59045,52870.232,52843,52878
39,40,56,62713.232,62632,62703,59178.232,59112,59187,52160.71400000001,52113,52158
51,52,56,62714.320999999996,62612,62717,59149.375,59095,59151,52514.71400000001,52464,52514
63,64,56,62720.857,62696,62700,58911.375,58914,58913,53140.570999999996,53074,53134
75,76,56,62750.857,62690,62735,58994.875,58940,58982,52408.875,52411,52410
87,88,56,62689.28599999999,62618,62685,59199.16099999999,59150,59187,52485.71400000001,52530,52484
4,5,56,64620.78599999999,64516,64619,36943.161,36765,36953,20537.589,20412,20553
16,17,56,64212.21400000001,64181,64463,36134.054,36211,36237,20088.125,19995,20173
28,29,56,64437.107,64392,64516,36292.179,36179,36316,20146.893,20105,20160
40,41,56,64442.945999999996,64399,64441,37076.536,37013,37068,20591.821,20505,20601
52,53,56,64543.125,64607,64607,36472.554,36408,36475,20168.625,20105,20171
64,65,56,64608.643,64625,64653,36365.821,36170,36355,20216.304,20062,20217
76,77,56,64529.53599999999,64213,64594,36158.411,36121,36162,20085.732,20126,20080
88,89,56,64678.16099999999,64644,64677,36455.125,36373,36455,20070.429,20040,20075
5,6,56,63118.46400000001,63215,63122,33569.125,33474,33564,35213.607,35136,35205
17,18,56,63147.820999999996,63137,63169,32746.732000000004,32712,32732,34504.018,34480,34512
29,30,56,63098.78599999999,63057,63107,32889.464,32680,32899,34654.0,34708,34652
41,42,56,62993.304000000004,62683,63017,32492.679,32391,32509,34141.714,33991,34136
53,54,56,63052.320999999996,63013,63013,33226.196,33185,33223,34876.821,34805,34879
65,66,56,63224.5,63112,63261,32224.392999999996,32088,32204,33901.446,33880,33916
77,78,56,63337.893,63224,63270,32638.054,31266,32664,34071.679,34100,34074
89,90,56,63504.268,63336,63486,32422.964,32465,32479,34074.036,34168,34136
6,7,56,64258.393,64250,64280,33906.946,33948,33908,9811.661,9804,9815
18,19,56,64334.179000000004,64297,64381,34716.161,34746,34735,9819.179,9776,9829
30,31,56,64044.143,64093,64044,33976.357,33892,34006,9589.0,9540,9580
42,43,56,63875.482,63801,63909,33768.143,33753,33771,9664.571,9604,9671
54,55,56,63984.945999999996,63914,63972,33737.107,33662,33746,9493.179,9429,9500
66,67,56,64097.445999999996,64109,64061,33503.536,33283,33491,9250.821,9173,9251
78,79,56,64032.018,63936,64016,33758.964,33875,33805,9633.929,9664,9657
90,91,56,64436.66099999999,64185,64368,33988.125,33769,33980,9431.804,9474,9437
7,8,56,61436.893,57045,61587,31771.679,31554,31746,23480.286,22386,23507
19,20,56,61696.445999999996,62018,62112,32025.536,29737,32229,23866.607000000004,21643,23936
31,32,56,62229.018,62009,62365,32335.857000000004,32120,32371,24583.267999999996,24759,24639
43,44,56,61912.375,62298,62246,32210.821,32496,32421,24367.5,24564,24496
55,56,56,60502.03599999999,55660,61531,31324.214,30229,31793,23342.642999999996,21098,23918
67,68,56,61792.21400000001,55206,62344,31721.017999999996,32215,32283,24863.696,25292,25066
79,80,56,61905.41099999999,62928,62707,32405.625,32906,32853,24384.429,24784,24722
91,92,56,61445.53599999999,58506,62180,31415.089,29248,31643,24025.875,22042,24215
8,9,56,60884.304000000004,61179,61132,29229.161,28733,28996,34201.161,30977,34107
20,21,56,60601.46400000001,53959,61042,29391.142999999996,27251,29545,33866.232,30346,33972
32,33,56,61090.857,61227,61166,28701.232000000004,28645,28670,34851.304,34781,34869
44,45,56,60204.625,58060,60356,31547.161,29594,31752,36841.304,37327,36779
56,57,56,59674.03599999999,59554,59857,30810.339,31571,30984,36618.089,34967,36705
68,69,56,60209.643,60393,60253,27773.517999999996,26323,27985,34928.357,34786,34913
80,81,56,60113.41099999999,59267,60099,28085.982000000004,27881,28053,35483.857,35510,35489
92,93,56,59743.25,56988,59821,26747.589,25770,26877,35012.375,35153,35088
9,10,56,62255.53599999999,62096,62313,37537.161,37515,37586,35977.821,35951,35951
21,22,56,62010.393,60403,62117,37584.464,37438,37673,36248.393,35333,36292
33,34,56,54679.625,52110,54754,37658.911,37506,37748,34630.821,32972,34685
45,46,56,61252.66099999999,58087,61394,37274.875,35351,37368,36294.179,34113,36333
57,58,56,62377.41099999999,62521,62375,37514.875,37458,37534,36761.607,36643,36754
69,70,56,61921.78599999999,62473,62432,37017.911,33583,36896,36395.143,32132,36430
81,82,56,63052.75,63318,63318,37804.536,37791,37857,37435.607,37561,37561
93,94,56,62778.570999999996,35012,63643,37868.464,22191,38271,37534.518,38312,38099
10,11,56,63282.143,63317,63323,63210.054000000004,63131,63243,63074.875,63083,63111
22,23,56,63554.83900000001,63512,63568,63378.732,63311,63385,63282.16099999999,63239,63277
34,35,56,63486.78599999999,63433,63485,63408.25,63386,63415,63388.875,63372,63385
46,47,56,63459.71400000001,63457,63493,63372.875,63390,63399,63405.518,63407,63456
58,59,56,63391.5,63344,63417,63292.643,63209,63295,63244.320999999996,63307,63260
70,71,56,63256.16099999999,63406,63405,63101.16099999999,63224,63293,62949.0,63135,63144
82,83,56,63301.982,63295,63382,63034.018,63063,63099,62922.570999999996,62984,63011
94,95,56,63461.893,63457,63474,63281.96400000001,63224,63279,63175.445999999996,63198,63198
11,12,56,63381.018,63327,63396,63266.21400000001,63260,63272,63121.08900000001,63138,63130
23,24,56,63401.393,63327,63489,63335.804000000004,63233,63369,63278.875,63233,63292
35,36,56,63487.768,63426,63510,63421.03599999999,63383,63455,63335.732,63263,63348
47,48,56,63431.46400000001,63513,63513,63367.482,63429,63434,63327.482,63350,63415
59,60,56,63476.78599999999,63431,63475,63419.018,63439,63421,63363.16099999999,63306,63358
71,72,56,63436.16099999999,63318,63482,63347.179000000004,63325,63391,63230.482,63182,63275
83,84,56,63165.732,63329,63259,63007.0,62871,63074,62847.179000000004,62866,62895
95,96,56,63445.25,63445,63445,63298.695999999996,63279,63295,63154.054000000004,63112,63164
