, ,Pixels ,R-Mean ,R-Mode ,R-Median ,G-Mean ,G-Mode ,G-Median ,B-Mean ,B-Mode ,B-Median 
0,1,56,60575.945999999996,60521,60581,10458.589,10460,10455,6385.625,6384,6392
12,13,56,60605.445999999996,60564,60617,10398.321,10370,10412,6259.661,6191,6243
24,25,56,60523.357,60568,60547,10123.357,10060,10132,6249.482,6207,6255
36,37,56,60423.804000000004,60584,60509,10368.429,10342,10362,6444.464,6392,6455
48,49,56,60581.732,60610,60610,10253.143,10193,10257,6293.446,6270,6293
60,61,56,60611.107,60581,60613,10278.018,10259,10278,6273.071,6181,6276
72,73,56,60584.625,60481,60570,10615.553999999998,10522,10605,6632.089,6553,6622
84,85,56,60864.91099999999,60816,60842,10437.696,10443,10440,6328.179,6286,6329
1,2,56,60613.75,60549,60596,10468.554,10424,10473,6411.732,6298,6409
13,14,56,60922.25,60900,60945,10604.982,10604,10601,6260.536,6188,6262
25,26,56,60812.268,60705,60877,10426.679,10441,10433,6268.714,6167,6262
37,38,56,61002.570999999996,60857,61012,10721.393,10643,10707,6410.411,6330,6401
49,50,56,61428.375,61346,61423,10744.964,10693,10746,6285.982,6285,6285
61,62,56,60969.820999999996,60873,61003,10440.125,10385,10457,6267.732,6265,6271
73,74,56,60880.643,60846,60891,10712.875,10762,10705,6618.696,6508,6614
85,86,56,61191.08900000001,61239,61195,10464.732,10443,10464,6302.875,6181,6309
2,3,56,60668.643,60753,60679,15601.428999999998,15573,15598,6067.321,6098,6064
14,15,56,60298.304000000004,60372,60336,15751.107,15696,15758,5825.75,5765,5822
26,27,56,60850.554000000004,60810,60883,15762.536,15725,15763,5821.018,5890,5822
38,39,56,60378.66099999999,60311,60401,15208.446000000002,15161,15200,6087.696,6001,6061
50,51,56,60475.768,60454,60491,16994.232,16911,16998,5892.929,5703,5886
62,63,56,61237.143,61190,61226,15087.643,14985,15087,5850.679,5789,5845
74,75,56,60556.304000000004,60498,60572,14583.661,14456,14583,6333.821,6223,6335
86,87,56,60191.732,60221,60214,12867.143,12858,12865,6025.446,6072,6038
3,4,56,60653.125,60623,60662,10952.911,10926,10927,6335.679,6248,6317
15,16,56,60828.732,60778,60837,11169.25,11016,11186,6168.464,6123,6170
27,28,56,60697.518,60493,60704,10826.357,10715,10824,6204.929,6120,6190
39,40,56,60682.107,60595,60694,11136.803999999998,11047,11152,6345.375,6291,6342
51,52,56,60615.804000000004,57096,60963,11124.928999999998,11178,11178,6205.518,6181,6209
63,64,56,61720.625,61455,61725,11591.75,11595,11595,6162.429,6159,6172
75,76,56,60633.820999999996,60771,60832,11222.089,11243,11291,6511.464,6400,6506
87,88,56,61379.643,61396,61395,11192.036,10998,11213,6193.071,6272,6199
4,5,56,52244.625,51506,52362,46519.195999999996,43164,46641,24550.321,22040,24583
16,17,56,49670.268,43426,49802,41615.643,38687,41526,16287.107,13326,15937
28,29,56,50551.304000000004,48403,50708,41117.5,38814,40978,13864.446000000002,13160,13921
40,41,56,53393.91099999999,49813,53369,48273.518,47755,48441,27479.517999999996,23827,27594
52,53,56,51667.71400000001,47521,51454,43982.25,43180,43851,17913.536,15914,17647
64,65,56,53218.054000000004,52746,53235,45358.357,43385,45229,18592.161,18385,18647
76,77,56,55507.58900000001,51214,55623,49712.53599999999,48367,49884,25746.089,27764,25552
88,89,56,51989.554000000004,49023,52040,24037.696,24038,23984,7236.446,7003,7236
5,6,56,61505.25,61414,61556,11501.125,11517,11513,6379.679,6310,6377
17,18,56,60928.518,60772,60905,10689.714,10665,10691,6270.857,6212,6279
29,30,56,61558.732,61652,61790,11356.482,11381,11389,6191.321,6184,6189
41,42,56,61251.570999999996,61226,61246,11181.964,11087,11194,6350.429,6397,6347
53,54,56,61122.53599999999,61377,61444,11136.089,11075,11177,6212.625,6281,6230
65,66,56,61865.179000000004,61806,61854,11390.375,11339,11390,6201.625,6096,6196
77,78,56,61169.96400000001,61213,61203,11186.839,11205,11212,6569.071,6482,6551
89,90,56,61288.820999999996,61291,61351,10638.786,10519,10631,6280.518,6222,6291
6,7,56,58651.018,58586,58647,7921.536,7781,7896,6636.875,6652,6634
18,19,56,58359.5,58567,58579,7744.482,7816,7760,6406.786,6293,6414
30,31,56,58962.53599999999,59367,59337,7889.143,8051,7889,6378.696,6404,6404
42,43,56,58754.820999999996,58669,58761,7838.768,7810,7831,6617.161,6591,6618
54,55,56,59325.53599999999,59252,59317,7834.429,7677,7803,6496.875,6529,6525
66,67,56,58650.107,58645,58663,7636.214,7576,7635,6325.768,6261,6347
78,79,56,58738.46400000001,58623,58750,8077.714,8132,8093,6779.607,6641,6773
90,91,56,58980.518,58751,58995,7651.821,7561,7645,6479.857,6531,6467
7,8,56,60402.820999999996,60353,60432,10503.536,10499,10500,6371.25,6269,6377
19,20,56,60430.929000000004,60539,60460,10423.554,10373,10429,6239.643,6163,6239
31,32,56,61483.5,61437,61533,11284.928999999998,11224,11292,6173.268,6116,6175
43,44,56,60428.875,60363,60459,10366.446,10303,10363,6370.804,6354,6370
55,56,56,60576.804000000004,60512,60564,10501.107,10430,10504,6242.679,6259,6243
67,68,56,60589.982,60561,60579,10451.679,10267,10456,6201.161,6180,6211
79,80,56,60460.320999999996,60467,60477,10667.375,10592,10639,6564.839,6506,6551
91,92,56,60843.78599999999,60774,60850,10555.678999999998,10463,10563,6208.161,6154,6218
8,9,56,61407.679000000004,61493,61388,11474.911,11392,11473,6336.625,6288,6336
20,21,56,60741.75,60747,60747,10795.428999999998,10790,10802,6235.054,6202,6217
32,33,56,61170.33900000001,61047,61204,11307.696000000002,11068,11330,6173.643,6099,6178
44,45,56,60957.320999999996,60913,60956,11241.839,11147,11249,6333.571,6301,6324
56,57,56,60612.46400000001,60990,60918,10995.607,10859,11024,6234.732,6189,6230
68,69,56,61101.445999999996,59977,61122,11122.089,11077,11164,6177.25,6110,6174
80,81,56,60750.75,60670,60758,10990.589,10824,11005,6566.321,6604,6567
92,93,56,61427.41099999999,61403,61562,11241.696000000002,11289,11251,6183.857,6127,6180
9,10,56,61398.91099999999,61368,61402,11191.536,11258,11230,6351.875,6273,6358
21,22,56,61186.179000000004,61056,61217,10560.803999999998,10527,10567,6201.857,6128,6207
33,34,56,61757.78599999999,61329,61786,11267.196000000002,11137,11274,6131.411,6090,6122
45,46,56,62076.393,62059,62075,11455.232,11339,11466,6280.429,6180,6281
57,58,56,61265.679000000004,61279,61279,10548.678999999998,10509,10534,6243.143,6172,6236
69,70,56,61447.25,61535,61458,10663.964,10507,10650,6156.625,6128,6169
81,82,56,61590.28599999999,61523,61647,11259.768,11234,11281,6458.482,6457,6448
93,94,56,61795.393,61695,61776,10530.036,10514,10508,6237.304,6107,6247
10,11,56,62461.125,62412,62466,10618.928999999998,10601,10626,6407.268,6406,6412
22,23,56,62461.357,62280,62461,10667.821000000002,10642,10676,6253.5,6289,6254
34,35,56,62948.75,62779,62945,10874.0,10785,10862,6211.5,6092,6210
46,47,56,62658.893,62606,62664,11110.303999999998,11103,11103,6352.661,6313,6353
58,59,56,62388.96400000001,62432,62406,10604.143,10526,10592,6258.696,6287,6260
70,71,56,62612.482,62576,62633,10757.464,10739,10760,6211.411,6121,6208
82,83,56,62909.445999999996,62893,62931,11228.536,11139,11234,6639.125,6546,6622
94,95,56,59246.03599999999,36536,62821,9900.357,10393,10393,6033.625,6279,6235
11,12,56,60049.66099999999,59998,60059,9662.661,9639,9672,6488.0,6437,6475
23,24,56,60765.945999999996,60726,60760,10093.679,10040,10088,6305.893,6292,6301
35,36,56,60697.125,60600,60654,10196.625,10102,10196,6313.661,6305,6309
47,48,56,60899.33900000001,60795,60907,10373.75,10312,10376,6453.589,6467,6460
59,60,56,60076.554000000004,60153,60072,9471.179,9382,9480,6339.661,6296,6347
71,72,56,60724.695999999996,60696,60717,10017.643,10018,10019,6282.304,6214,6290
83,84,56,60955.179000000004,60826,61011,10412.036,10397,10400,6636.768,6602,6627
95,96,56,60615.304000000004,60771,60793,9977.5,9958,9959,6290.607,6292,6292
