, ,Pixels ,R-Mean ,R-Mode ,R-Median ,G-Mean ,G-Mode ,G-Median ,B-Mean ,B-Mode ,B-Median 
0,1,56,60407.08900000001,60336,60404,10906.946000000002,10888,10886,6574.75,6501,6557
12,13,56,60588.054000000004,60481,60608,10891.803999999998,10872,10883,6404.768,6343,6409
24,25,56,60464.232,60504,60503,10577.768,10510,10572,6395.696,6403,6406
36,37,56,60546.070999999996,60590,60554,11204.518,11118,11208,6597.036,6510,6595
48,49,56,60900.070999999996,60825,60891,11160.821000000002,11161,11179,6394.482,6316,6394
60,61,56,61210.03599999999,60968,61189,11196.643,11286,11221,6423.571,6345,6422
72,73,56,61313.570999999996,61265,61273,11660.964,11558,11670,7513.679,7361,7474
84,85,56,61262.41099999999,61075,61210,11007.75,10536,11041,6533.625,6507,6525
1,2,56,60471.982,60529,60482,10506.375,10455,10513,6536.214,6478,6525
13,14,56,60184.804000000004,60132,60234,10297.375,10263,10296,6392.089,6261,6389
25,26,56,60551.393,60555,60550,10459.732,10458,10458,6360.607,6296,6362
37,38,56,60194.070999999996,60435,60434,10445.5,10381,10455,6591.464,6548,6585
49,50,56,60406.179000000004,60547,60533,10329.982,10255,10329,6443.089,6371,6449
61,62,56,60742.78599999999,60772,60750,10482.25,10428,10488,6452.071,6407,6454
73,74,56,60864.482,60859,60866,11298.178999999998,11303,11340,7405.107,7285,7382
85,86,56,60462.195999999996,60623,60679,10305.607,10343,10320,6530.393,6503,6527
2,3,56,59989.929000000004,59939,59983,10141.5,10074,10137,6613.125,6591,6607
14,15,56,60295.125,60276,60300,10171.571,10126,10177,6429.75,6397,6441
26,27,56,59492.0,59372,59505,9766.786,9721,9759,6418.036,6333,6423
38,39,56,59886.195999999996,59808,59880,10065.429,10074,10075,6651.393,6585,6636
50,51,56,60454.625,60478,60517,10199.0,10207,10198,6493.875,6526,6493
62,63,56,65535.0,65535,65535,15359.768,15313,15330,7578.554,7474,7579
74,75,56,60452.482,60318,60438,10914.821000000002,11046,10927,7491.179,7375,7448
86,87,56,60774.03599999999,60635,60722,10210.696,10168,10205,6558.446,6496,6534
3,4,56,59258.695999999996,59297,59274,9973.571,9933,9970,6601.554,6499,6622
15,16,56,59447.66099999999,59552,59439,10100.214,10123,10103,6404.679,6351,6417
27,28,56,58798.195999999996,58836,58860,9783.768,9813,9796,6385.804,6413,6397
39,40,56,59127.83900000001,59058,59121,10069.25,10002,10075,6618.107,6582,6604
51,52,56,59441.643,59519,59427,9929.232,9845,9941,6497.321,6478,6505
63,64,56,60038.304000000004,59681,60044,10149.661,10019,10149,6461.839,6394,6463
75,76,56,58964.929000000004,59503,59586,10408.411,10399,10483,7427.5,7291,7447
87,88,56,60586.429000000004,60507,60561,10367.732,10293,10374,6490.946,6468,6475
4,5,56,59074.357,58984,59102,9383.625,9145,9385,6709.375,6598,6711
16,17,56,58381.53599999999,58259,58386,8799.232,8766,8785,6545.714,6592,6546
28,29,56,59110.982,59367,59182,9134.268,9060,9111,6514.375,6506,6516
40,41,56,58422.107,58839,58450,8987.446,9028,8997,6717.268,6657,6717
52,53,56,57999.945999999996,58225,58251,8689.268,8637,8699,6598.804,6536,6596
64,65,56,58615.08900000001,58554,58605,8833.929,8769,8850,6579.161,6572,6572
76,77,56,58316.875,58445,58466,9475.893,9520,9522,7467.018,7400,7488
88,89,56,58637.0,58715,58744,8743.375,8725,8754,6599.482,6554,6596
5,6,56,58419.570999999996,58664,58546,8927.125,8898,8919,6807.196,6720,6800
17,18,56,58469.570999999996,58283,58481,8704.036,8685,8712,6604.179,6627,6610
29,30,56,58450.0,58878,58727,8803.214,8894,8828,6547.768,6519,6556
41,42,56,58342.357,58152,58327,8912.893,8787,8907,6756.107,6713,6758
53,54,56,58913.320999999996,58893,58940,8811.321,8722,8813,6635.518,6569,6630
65,66,56,58894.268,54387,59443,9289.768,9358,9371,6530.857,6546,6541
77,78,56,59291.304000000004,59131,59252,9676.5,9622,9691,7513.929,7499,7521
89,90,56,59815.929000000004,59149,59810,9186.661,8854,9231,6591.214,6588,6588
6,7,56,56841.445999999996,56958,56870,7480.768,7456,7483,6857.929,6797,6855
18,19,56,56675.125,56828,56943,7309.339,7277,7323,6643.196,6650,6650
30,31,56,57039.518,56643,57076,7554.036,7512,7562,6610.982,6566,6626
42,43,56,55987.695999999996,56138,56031,7759.339,7774,7768,6780.911,6839,6791
54,55,56,57024.41099999999,57004,57021,7848.661,7823,7858,6647.232,6508,6663
66,67,56,57655.46400000001,57437,57670,7896.286,7808,7879,6634.107,6598,6643
78,79,56,57100.21400000001,56810,57168,8673.679,8668,8672,7411.679,7241,7427
90,91,56,57661.554000000004,57507,57644,7780.946,7729,7784,6648.464,6478,6653
7,8,56,57358.125,58141,57920,8726.286,8688,8752,6754.982,6670,6739
19,20,56,57938.554000000004,57923,57940,8688.143,8693,8696,6550.696,6504,6567
31,32,56,57641.625,56093,57715,8678.946,8602,8675,6499.143,6455,6507
43,44,56,56983.0,57756,57586,8647.321,8793,8722,6693.857,6616,6704
55,56,56,57455.768,53616,58077,8585.982,8624,8642,6566.929,6526,6569
67,68,56,58055.268,58307,58580,8876.857,8919,8919,6514.607,6582,6541
79,80,56,58001.820999999996,57968,58061,9371.054,9080,9375,7442.982,7478,7468
91,92,56,58513.96400000001,58518,58604,8708.875,8601,8708,6632.304,6644,6632
8,9,56,57513.643,57495,57518,8355.857,8301,8371,6893.125,6851,6901
20,21,56,57509.268,57630,57530,8175.768,7947,8192,6665.0,6630,6669
32,33,56,56625.03599999999,56978,56839,7680.482,7627,7672,6642.714,6720,6646
44,45,56,55287.070999999996,24029,57633,8060.054,8468,8271,6657.536,6665,6767
56,57,56,57360.393,57394,57385,8017.482,7924,8009,6663.339,6611,6665
68,69,56,57184.143,52159,58036,7812.411,8064,7962,6652.089,6634,6672
80,81,56,58069.945999999996,58093,58095,8962.446,8869,8957,7583.929,7588,7595
92,93,56,58205.143,57983,58233,7813.196,7737,7798,6710.214,6710,6715
9,10,56,57972.679000000004,57573,58051,8870.143,8943,8877,6830.768,6707,6810
21,22,56,57954.107,56492,58008,8625.143,8571,8648,6594.286,6617,6604
33,34,56,58216.125,58249,58307,8718.214,8649,8716,6582.143,6534,6584
45,46,56,58127.268,58375,58366,8971.643,8996,8993,6727.804,6691,6728
57,58,56,58115.71400000001,58202,58315,8776.196,8736,8778,6573.714,6485,6565
69,70,56,57921.320999999996,53024,58625,8804.696,8773,8865,6543.304,6575,6573
81,82,56,58027.768,55860,58080,9293.339,9474,9228,7465.196,7260,7465
93,94,56,59006.804000000004,59092,59318,8752.679,8862,8800,6584.804,6536,6593
10,11,56,63285.83900000001,63250,63291,63145.857,63106,63152,62952.018,62947,62962
22,23,56,63406.53599999999,63424,63431,63209.054000000004,63262,63266,62987.554000000004,62954,63053
34,35,56,63428.393,63350,63462,63235.125,63240,63261,63003.96400000001,62993,63032
46,47,56,63534.768,63485,63549,63331.554000000004,63308,63345,63154.143,63069,63165
58,59,56,63443.929000000004,63358,63479,63264.320999999996,63268,63332,63105.320999999996,63137,63160
70,71,56,63462.518,63464,63483,63254.357,63115,63269,63069.625,62959,63108
82,83,56,63422.304000000004,63478,63429,63201.357,63146,63213,63104.054000000004,63057,63124
94,95,56,63596.320999999996,63586,63571,63199.643,63118,63208,63150.695999999996,63132,63140
11,12,56,62848.08900000001,63171,63210,62689.875,63086,63108,62607.929000000004,62999,63031
23,24,56,63375.570999999996,63335,63390,63252.875,63241,63267,63125.21400000001,63117,63137
35,36,56,63335.25,63463,63423,63234.679000000004,63296,63294,63069.53599999999,63148,63139
47,48,56,63462.320999999996,63339,63448,63328.107,63347,63342,63189.643,63213,63191
59,60,56,63304.625,63351,63388,63241.96400000001,63318,63326,63153.53599999999,61126,63209
71,72,56,63368.982,63598,63569,63223.679000000004,63408,63438,63063.070999999996,63180,63278
83,84,56,63489.945999999996,63409,63505,63315.695999999996,63224,63330,63180.857,63126,63199
95,96,56,63403.607,63143,63340,63142.28599999999,63085,63152,63103.66099999999,63022,63119
