image-216.png
image-217.png
image-218.png
image-219.png
image-220.png
image-221.png
image-222.png
image-226.png
image-227.png
image-228.png
image-229.png
image-230.png
image-231.png
image-232.png
image-233.png
image-234.png
image-235.png
image-236.png
image-237.png
image-238.png
image-239.png
image-240.png
image-241.png
image-242.png
image-243.png
image-244.png
image-245.png
image-246.png
image-247.png
image-248.png
image-249.png
image-250.png
image-251.png
image-252.png
image-253.png
image-254.png
image-255.png
image-256.png
image-257.png
image-258.png
image-259.png
image-260.png
image-261.png
image-262.png
image-263.png
image-264.png
image-265.png
image-266.png
image-267.png
image-268.png
image-269.png
image-270.png
image-271.png
image-272.png
image-273.png
image-274.png
image-275.png
image-276.png
image-277.png
image-278.png
image-279.png
image-280.png
image-281.png
image-282.png
image-283.png
image-284.png
image-285.png
image-287.png
image-288.png
image-289.png
image-290.png
image-299.png
image-300.png
image-301.png
image-302.png
image-303.png
image-304.png
image-305.png
image-306.png
image-307.png
image-308.png
image-309.png
image-310.png
image-311.png
image-312.png
image-313.png
image-314.png
image-315.png
image-316.png
image-317.png
image-318.png
image-319.png
image-320.png
image-321.png
image-322.png
image-323.png
image-324.png
image-326.png
image-327.png
image-328.png
image-336.png
image-337.png
image-339.png
image-340.png
image-341.png
image-342.png
image-343.png
image-344.png
image-345.png
image-346.png
image-347.png
image-348.png
image-349.png
image-350.png
image-351.png
image-352.png
image-353.png
image-354.png
image-355.png
image-356.png
image-357.png
image-358.png
image-359.png
image-360.png
image-361.png
image-362.png
image-363.png
image-364.png
image-365.png
image-366.png
image-367.png
image-368.png
image-369.png
image-370.png
image-371.png
image-372.png
image-373.png
image-374.png
image-375.png
image-376.png
image-377.png
image-378.png
image-379.png
image-380.png
image-381.png
image-382.png
image-383.png
image-384.png
image-385.png
image-386.png
image-387.png
image-388.png
image-389.png
image-390.png
image-391.png
image-392.png
image-393.png
image-394.png
image-395.png
image-396.png
image-397.png
image-398.png
image-399.png
image-400.png
image-401.png
image-402.png
image-403.png
image-404.png
image-405.png
image-406.png
image-407.png
image-408.png
image-409.png
image-410.png
image-411.png
image-412.png
image-413.png
image-414.png
image-415.png
image-416.png
image-417.png
image-418.png
image-419.png
image-420.png
image-421.png
image-422.png
image-423.png
image-424.png
image-425.png
image-426.png
image-427.png
image-428.png
image-429.png
image-430.png
image-431.png
image-432.png
image-433.png
image-434.png
image-435.png
image-436.png
image-437.png
image-438.png
image-439.png
image-440.png
image-441.png
image-442.png
image-443.png
image-444.png
image-445.png
