,A,B,C,D,E,F,G,H
0,20989.34375,20909.34375,20990.890625,21393.0,21435.1875,21697.21875,21267.234375,21201.421875
1,21332.953125,21201.28125,21380.40625,21467.390625,21501.53125,21557.765625,21716.171875,21460.15625
2,21198.0625,21069.59375,21133.828125,21432.203125,21349.40625,21547.515625,21329.859375,21285.78125
3,21296.6875,21246.859375,20713.4375,21209.609375,21321.0625,21310.234375,21127.984375,20918.625
4,21529.015625,21245.09375,21139.40625,21422.40625,21477.859375,21389.25,20982.46875,20945.578125
5,21121.390625,21518.015625,20705.375,21284.453125,21128.90625,21353.578125,21232.875,21010.09375
6,21557.40625,21197.53125,20931.0625,20815.078125,21002.71875,21260.875,20721.65625,21549.75
7,21317.921875,21225.53125,20946.265625,21012.8125,21408.921875,21046.9375,20781.609375,21144.96875
8,21757.71875,21265.125,21584.0625,21129.109375,21650.046875,21391.625,21537.203125,21458.359375
9,21714.53125,21208.265625,20990.125,21122.828125,21155.296875,21495.28125,20659.8125,21074.21875
10,21599.125,21160.5625,21050.84375,20807.671875,21143.78125,21142.078125,21208.59375,19656.40625
11,21353.8125,20953.765625,21109.4375,20477.078125,21046.5625,20966.40625,20599.71875,20300.546875
