,A,B,C,D,E,F,G,H
0,44499.078125,45223.6875,47360.40625,49981.546875,51983.796875,55493.59375,60607.0,60410.140625
1,44494.9375,44059.96875,45863.515625,49907.578125,50384.484375,50239.875,59693.75,59946.453125
2,46067.828125,42986.5625,46298.640625,51979.5,50490.328125,51471.1875,60721.546875,60480.40625
3,41913.953125,45145.78125,47044.921875,47898.1875,47877.421875,50886.875,59195.28125,56706.796875
4,46114.984375,42347.34375,45602.578125,46990.125,47413.34375,46698.640625,56436.84375,60309.671875
5,44759.625,43261.875,45250.515625,47460.125,47335.328125,49032.03125,59071.421875,58928.34375
6,42574.515625,40015.546875,45088.5,49021.984375,49588.015625,49476.046875,60338.6875,60433.453125
7,43920.234375,44944.078125,45363.9375,48886.390625,50408.515625,47136.4375,59129.765625,59579.09375
8,48987.84375,42816.671875,42511.296875,44113.640625,46256.421875,45579.421875,55936.125,56441.859375
9,46172.953125,40747.03125,44606.328125,47401.15625,45414.765625,45564.765625,55125.078125,56669.328125
10,49451.84375,38503.96875,39748.03125,46261.671875,45468.390625,47628.90625,56699.09375,58510.234375
11,51271.625,43857.453125,44224.421875,44663.234375,46571.140625,48724.765625,51964.328125,54382.03125
