,A,B,C,D,E,F,G,H
0,62052.609375,61741.484375,61713.25,61828.421875,62101.40625,62111.375,61858.0625,61681.34375
1,61950.75,61657.03125,61234.0625,61844.03125,62041.453125,61864.4375,61632.5,61802.296875
2,61778.09375,61762.515625,61600.65625,61106.9375,61978.5,62058.53125,61717.734375,61728.40625
3,61818.5625,61522.265625,61556.875,61757.484375,62089.5,61975.890625,61760.015625,61702.59375
4,61985.71875,61559.46875,61644.03125,61567.15625,61796.609375,61809.359375,61862.734375,61822.546875
5,61623.828125,61599.125,61129.71875,61716.84375,61905.140625,61946.359375,61566.359375,61702.625
6,61763.765625,61621.765625,61463.1875,61744.109375,61872.96875,61750.484375,61489.3125,61441.21875
7,61451.484375,61257.96875,61291.3125,61698.75,61691.515625,61722.53125,61603.90625,61648.859375
8,61000.484375,61535.640625,61841.453125,61721.5,61907.0,61982.71875,61933.84375,61736.109375
9,61775.984375,61330.984375,61340.625,61667.09375,61664.078125,61834.671875,61567.625,61515.578125
10,61549.28125,61128.796875,61280.578125,61515.75,61742.859375,61945.484375,61700.0,61546.046875
11,61786.140625,61328.953125,61457.28125,61486.546875,61676.203125,61715.65625,61566.6875,61581.140625
