,A,B,C,D,E,F,G,H
0,64717.921875,64969.015625,65082.890625,64871.1875,64788.359375,64875.046875,64941.09375,64775.078125
1,64740.078125,64757.0,64114.734375,64784.265625,64753.34375,64553.84375,64760.0625,64923.078125
2,64559.21875,64785.859375,64808.1875,64140.5,64774.9375,64735.96875,64875.125,64899.1875
3,64535.515625,64766.828125,64959.21875,64823.0625,64847.921875,64609.15625,64836.078125,64794.21875
4,64496.46875,64805.703125,64942.984375,64513.140625,64693.921875,64403.375,64861.28125,64821.265625
5,64372.984375,64843.5,64529.953125,64851.390625,64656.046875,64504.4375,64786.609375,64740.953125
6,64552.65625,64726.703125,64870.09375,64753.6875,64678.484375,64512.046875,64783.625,64748.28125
7,64224.78125,64549.625,64985.78125,64825.859375,64838.375,64360.015625,64760.078125,64681.078125
8,63369.1875,64783.546875,65010.8125,64729.515625,64672.390625,64498.65625,64793.21875,64863.375
9,64457.1875,64559.171875,65099.703125,64907.234375,64709.6875,64291.640625,64565.609375,64552.46875
10,64461.375,64788.984375,64988.765625,64617.21875,64728.4375,64507.890625,64756.59375,64783.578125
11,64304.484375,64514.453125,64888.765625,64536.9375,64410.109375,64529.640625,64520.796875,64546.546875
