,blue,green,red
0,45170.828125,61785.65625,64551.15625
1,45037.8125,61800.15625,64549.75
2,45063.375,61781.671875,64541.328125
3,44753.390625,61775.0625,64565.484375
4,45142.828125,61758.0625,64480.34375
5,44710.9375,61808.953125,64590.703125
6,44365.625,61722.640625,64579.578125
7,44897.75,61744.703125,64525.796875
8,44857.4375,61521.515625,64325.328125
9,44492.734375,61766.375,64600.03125
10,44757.703125,61788.421875,64567.109375
11,45663.8125,61769.609375,64434.640625
12,45073.8125,61780.375,64541.5
13,44735.75,61594.859375,64320.421875
14,44790.625,61747.546875,64520.765625
15,44808.296875,61789.734375,64548.265625
16,45048.375,61811.40625,64547.109375
17,44673.6875,61638.28125,64412.46875
18,44292.9375,61566.59375,64387.1875
19,44501.53125,61773.890625,64582.4375
20,45562.671875,61829.859375,64501.828125
21,44437.5,61741.34375,64574.5625
22,45008.859375,61803.4375,64563.0
23,44885.984375,61768.9375,64542.78125
24,45024.53125,61842.578125,64580.34375
25,45186.125,61779.296875,64517.59375
26,44856.953125,61898.21875,64699.140625
27,44754.5,61809.546875,64637.15625
28,44488.9375,61776.75,64585.453125
29,44964.796875,61841.90625,64652.296875
30,44395.9375,61710.328125,64524.953125
31,44436.8125,61750.71875,64560.8125
32,44810.78125,61769.296875,64610.15625
33,44519.421875,61371.71875,64055.375
34,45362.09375,61835.484375,64579.203125
35,44791.953125,61778.6875,64564.5
36,44732.65625,61291.71875,64009.71875
37,44981.75,61804.46875,64570.59375
38,44889.21875,61751.78125,64531.5
39,45072.28125,61836.203125,64650.484375
40,44481.921875,61798.9375,64595.734375
41,44495.71875,61842.109375,64648.46875
42,44736.953125,61785.859375,64585.109375
43,44288.734375,61664.578125,64463.65625
44,44805.265625,61782.578125,64579.90625
45,44574.96875,61729.9375,64531.828125
46,44540.328125,61774.0,64591.78125
47,44364.3125,61705.75,64573.484375
48,45056.765625,61804.171875,64661.96875
49,44660.109375,61817.90625,64648.171875
50,44400.953125,61846.15625,64707.328125
51,44674.25,61822.015625,64700.234375
52,44381.3125,61703.734375,64557.6875
53,44290.9375,61830.25,64731.09375
54,44211.53125,61822.15625,64648.796875
55,43765.125,61323.328125,64118.40625
56,44585.796875,61826.328125,64681.671875
57,44425.78125,61812.515625,64652.09375
58,44304.21875,61653.203125,64531.796875
59,44165.609375,61622.5625,64590.4375
60,44862.671875,61793.5625,64733.5
61,44324.984375,61296.75,64087.984375
62,44299.28125,61660.46875,64468.40625
63,44107.75,61753.265625,64725.171875
64,44610.0625,61849.84375,64778.21875
65,43496.34375,60915.984375,63843.296875
66,44136.453125,61735.53125,64702.359375
67,44062.265625,61581.296875,64675.75
68,44523.84375,61901.078125,64782.6875
69,44108.984375,61682.4375,64737.859375
70,44187.421875,61604.96875,64683.390625
71,44601.484375,61702.65625,64591.8125
72,44865.5,61771.34375,64693.0625
73,44269.1875,61701.234375,64572.890625
74,44392.265625,61766.90625,64608.0625
75,44160.0625,61666.890625,64617.5
76,44328.515625,61674.265625,64605.59375
77,44076.734375,61663.859375,64634.796875
78,44537.234375,61730.109375,64593.625
79,43839.828125,61528.15625,64710.3125
80,44387.859375,61727.3125,64630.78125
81,44006.125,61424.78125,64545.46875
82,43783.46875,61364.078125,64640.140625
83,43948.890625,61490.375,64553.328125
84,45036.53125,61787.9375,64776.9375
85,44449.015625,61812.65625,64656.5625
86,44127.140625,61651.921875,64529.125
87,44446.15625,61712.3125,64587.328125
88,44800.828125,61775.3125,64599.71875
89,44355.75,61566.15625,64519.09375
90,44441.8125,61739.0,64615.59375
91,44175.40625,61562.578125,64480.9375
92,43520.171875,60895.453125,63732.453125
93,44367.765625,61777.09375,64659.0625
94,44214.84375,61677.21875,64618.84375
95,44266.015625,61797.125,64673.734375
