,A,B,C,D,E,F,G,H
0,63073.390625,62975.328125,62148.5625,63076.6875,62939.515625,63057.203125,63294.4375,63078.390625
1,62999.71875,62785.796875,63121.734375,63026.09375,62822.34375,61914.203125,63235.46875,63136.796875
2,62731.53125,62162.9375,62418.25,62819.578125,63015.734375,63245.609375,63215.421875,63021.109375
3,62830.4375,62718.890625,62813.71875,62813.453125,62747.984375,62913.6875,63266.078125,62739.640625
4,62571.125,62762.984375,63106.46875,63263.578125,63301.546875,63196.265625,62700.875,62966.796875
5,62370.390625,62662.421875,63062.90625,62966.25,63171.59375,63397.671875,62843.796875,62921.671875
6,62755.125,62800.015625,62919.375,63188.421875,62766.09375,63366.90625,63244.640625,62883.234375
7,62930.84375,62830.359375,63084.890625,63100.796875,63189.578125,63155.765625,63228.828125,62804.46875
8,63028.6875,63079.921875,63211.328125,63159.015625,63318.40625,63144.078125,62997.8125,62766.140625
9,62928.90625,62824.296875,62906.15625,63119.5625,63158.78125,63026.734375,62808.171875,62655.6875
10,63130.578125,62208.046875,62973.3125,62310.6875,62928.671875,62739.921875,62804.0,62814.46875
11,63165.328125,62974.328125,62806.671875,61719.734375,62808.75,62903.09375,62949.703125,62992.75
