,blue,green,red
0,61509.09375,60959.796875,64817.796875
1,61472.3125,60931.234375,64838.734375
2,61463.546875,60824.40625,64887.140625
3,61472.9375,60872.265625,64881.34375
4,61487.125,61105.421875,64818.4375
5,61471.453125,60997.03125,64820.5
6,61482.75,60861.796875,64849.875
7,61476.328125,60788.71875,64847.625
8,61478.765625,60898.390625,64795.359375
9,61470.0625,60663.609375,64867.296875
10,61479.59375,60762.09375,64890.53125
11,61489.875,60736.296875,64901.03125
12,61463.9375,61036.34375,64900.96875
13,61462.484375,61014.0,64864.1875
14,61459.59375,60952.171875,64938.875
15,61458.390625,60956.453125,64949.765625
16,61461.75,60948.109375,64893.09375
17,61475.171875,61005.671875,64871.265625
18,61485.859375,60925.640625,64867.4375
19,61479.96875,60864.8125,64873.734375
20,61443.484375,60858.765625,64881.6875
21,61479.109375,60837.6875,64897.0
22,61470.515625,60817.65625,64940.078125
23,61460.46875,60773.609375,64998.546875
24,61557.265625,61156.09375,64830.59375
25,61545.859375,61160.546875,64823.796875
26,61470.046875,61033.9375,64836.703125
27,61410.515625,60879.390625,64830.90625
28,61450.0625,61038.875,64802.546875
29,61477.9375,61055.828125,64833.84375
30,61495.53125,61135.5625,64826.046875
31,61494.109375,60797.9375,64887.109375
32,61480.875,60977.234375,64822.890625
33,61490.390625,60787.359375,64895.625
34,61490.453125,60769.125,64884.421875
35,61480.9375,60829.90625,64876.203125
36,61526.546875,61014.671875,64810.484375
37,61501.53125,61011.125,64804.46875
38,61485.21875,60910.203125,64861.203125
39,61483.75,60837.875,64871.640625
40,61513.859375,61004.578125,64821.421875
41,61545.3125,61081.90625,64793.390625
42,61499.921875,61033.84375,64807.578125
43,61483.140625,60831.609375,64885.78125
44,61430.09375,60855.484375,64826.875
45,61473.21875,60662.484375,64932.484375
46,61498.578125,60801.140625,64884.828125
47,61490.71875,60754.59375,64873.796875
48,61468.84375,60997.796875,64848.859375
49,61468.515625,60997.65625,64841.375
50,61470.6875,60873.78125,64900.46875
51,61472.75,60906.15625,64909.703125
52,61470.0625,61056.984375,64824.59375
53,61464.953125,61069.375,64832.875
54,61467.203125,61056.203125,64813.375
55,61483.28125,60845.828125,64891.046875
56,61544.078125,61049.59375,64813.578125
57,61480.265625,60884.609375,64909.359375
58,61478.890625,60830.875,64883.84375
59,61464.53125,60708.40625,64913.796875
60,61441.484375,60728.75,64894.984375
61,61447.15625,60871.515625,64865.296875
62,61470.9375,60885.65625,64869.5625
63,61472.21875,60951.046875,64849.546875
64,61461.546875,60816.9375,64885.0
65,61471.921875,60923.40625,64854.6875
66,61426.640625,60854.984375,64878.4375
67,61475.6875,60788.96875,64894.515625
68,61471.40625,60961.453125,64868.09375
69,61480.84375,60865.453125,64883.859375
70,61486.78125,60784.90625,64911.234375
71,61161.296875,60323.40625,64856.3125
72,61465.8125,60939.203125,64843.359375
73,61470.4375,60924.765625,64856.4375
74,61423.171875,60666.609375,64920.875
75,61430.84375,60667.609375,64930.4375
76,61467.90625,60827.84375,64876.171875
77,61460.703125,60787.875,64890.421875
78,61471.5625,60887.546875,64864.078125
79,61475.34375,60850.34375,64885.21875
80,61485.171875,60817.46875,64889.34375
81,61479.546875,60822.1875,64879.59375
82,61478.390625,60741.3125,64915.53125
83,61407.09375,60519.65625,64878.578125
84,61453.9375,60905.390625,64851.921875
85,61438.453125,60843.25,64880.890625
86,61460.171875,60758.09375,64918.40625
87,61462.84375,60733.46875,64910.765625
88,61464.4375,60857.546875,64864.734375
89,61477.53125,60973.5,64863.90625
90,61631.0,61128.421875,64842.703125
91,61475.703125,60872.53125,64893.75
92,61488.03125,60791.75,64881.3125
93,61478.046875,60676.265625,64938.453125
94,61355.3125,60535.390625,64867.375
95,61364.75,60580.546875,64776.515625
