, ,Pixels ,R-Mean ,R-Mode ,R-Median ,G-Mean ,G-Mode ,G-Median ,B-Mean ,B-Mode ,B-Median 
0,1,56,64571.125,64529,64543,61283.75,60853,61356,16506.161,16472,16500
12,13,56,57791.107,65535,62480,54942.857,59146,59001,14626.768,15496,15604
24,25,56,63926.46400000001,63797,63960,60856.96400000001,60852,60852,16286.696000000002,16250,16278
36,37,56,63456.570999999996,63038,63472,60260.41099999999,59938,60315,16130.768,16144,16125
48,49,56,63952.375,64248,64433,60757.804000000004,61015,61120,16227.625,16257,16325
60,61,56,64628.375,64445,64637,61093.71400000001,60840,61107,16104.5,16109,16109
72,73,56,64585.66099999999,64300,64600,60937.945999999996,60808,60888,16174.803999999998,16082,16177
84,85,56,65202.357,64986,65207,62078.5,62038,62142,16266.857,16273,16273
1,2,56,64784.143,64755,64822,61286.46400000001,61123,61294,16614.446,16515,16608
13,14,56,64853.945999999996,64915,64896,61318.945999999996,61267,61317,16579.196,16525,16571
25,26,56,64194.53599999999,64815,64618,60918.107,61375,61314,16475.321,15428,16519
37,38,56,64606.28599999999,64486,64621,61217.625,61310,61226,16561.857,16519,16556
49,50,56,64616.945999999996,64647,64647,61107.46400000001,60945,61102,16439.821,16415,16437
61,62,56,64519.570999999996,64075,64521,61049.33900000001,60794,61039,16409.661,16326,16405
73,74,56,64551.03599999999,64421,64558,60849.357,60798,60827,16392.179,16324,16390
85,86,56,64954.58900000001,64803,64949,61248.445999999996,61126,61249,16007.161,15992,16000
2,3,56,65246.5,65202,65243,60631.320999999996,60533,60656,16202.607,16008,16196
14,15,56,65159.570999999996,63941,65242,60535.107,60716,60727,16224.214,16247,16243
26,27,56,65149.78599999999,65141,65164,60648.518,60747,60739,16377.357,16374,16383
38,39,56,65024.875,65142,65141,60545.78599999999,60718,60716,16400.107,16383,16411
50,51,56,65104.320999999996,64902,65146,60478.125,60559,60518,16234.982,16184,16244
62,63,56,65050.429000000004,64933,65081,60325.46400000001,60291,60382,16103.875,16089,16099
74,75,56,65199.054000000004,65181,65208,60386.429000000004,60610,60392,16187.893,16083,16183
86,87,56,65177.58900000001,65229,65195,60550.46400000001,60455,60585,15984.482,15962,15989
3,4,56,65277.768,65282,65302,60604.21400000001,60656,60702,16156.714,16071,16116
15,16,56,65383.83900000001,65534,65476,60639.28599999999,60711,60725,16166.678999999998,16150,16164
27,28,56,65428.875,65535,65526,60776.78599999999,60740,60780,16077.678999999998,16024,16085
39,40,56,65338.03599999999,65534,65359,60808.982,60765,60765,16067.893,16047,16063
51,52,56,65300.625,65157,65270,60518.268,60450,60554,15838.589,15733,15843
63,64,56,65357.875,65534,65338,60421.320999999996,59995,60422,15626.696000000002,15622,15661
75,76,56,65331.679000000004,65534,65325,60447.768,58318,60483,15781.0,15739,15796
87,88,56,65494.804000000004,65535,65535,60774.75,60766,60772,15592.714,15441,15617
4,5,56,64791.25,65110,65117,61352.03599999999,58264,61653,16846.679,16772,16868
16,17,56,65482.570999999996,65535,65535,62112.83900000001,62125,62130,16636.964,16732,16634
28,29,56,65423.018,65535,65535,62141.054000000004,62157,62153,16554.429,16472,16560
40,41,56,65337.03599999999,65535,65394,62070.482,62147,62145,16630.679,16591,16643
52,53,56,65008.66099999999,64959,64989,61394.768,61208,61402,16705.179,16684,16690
64,65,56,65355.28599999999,65534,65386,61832.518,61873,61873,16164.857,16121,16159
76,77,56,65399.054000000004,65534,65422,61846.054000000004,61727,61858,16300.178999999998,16257,16302
88,89,56,65511.25,65535,65535,62110.695999999996,62051,62117,16129.875,16107,16133
5,6,56,60054.03599999999,59949,60064,8935.821,8852,8932,6592.357,6590,6607
17,18,56,59634.482,59694,59669,8564.75,8484,8566,6419.857,6311,6421
29,30,56,60215.268,60380,60380,8710.964,8661,8708,6404.429,6404,6408
41,42,56,60069.875,60117,60095,8852.357,8845,8855,6558.179,6464,6558
53,54,56,59807.5,59644,59804,8653.196,8598,8634,6437.446,6434,6445
65,66,56,60297.070999999996,59941,60316,8870.518,8772,8869,6386.518,6351,6391
77,78,56,60072.5,59935,60077,9039.518,8918,9011,6707.786,6632,6706
89,90,56,60134.5,60217,60241,8697.732,8654,8695,6469.75,6447,6468
6,7,56,65535.0,65535,65535,37266.071,37221,37278,7090.286,6993,7100
18,19,56,65535.0,65535,65535,36945.554,37078,36956,6881.554,6799,6876
30,31,56,65535.0,65535,65535,36784.857,36685,36789,6752.571,6786,6762
42,43,56,65535.0,65535,65535,36563.446,36586,36578,6905.821,6699,6928
54,55,56,65535.0,65535,65535,36379.982,36306,36371,6657.696,6749,6638
66,67,56,65535.0,65535,65535,37607.143,37501,37611,7034.804,7029,7029
78,79,56,65535.0,65535,65535,36854.679,36739,36875,7036.589,6974,7044
90,91,56,65535.0,65535,65535,37271.536,37211,37284,6807.446,6760,6821
7,8,56,64790.25,64642,64836,59614.53599999999,59599,59608,15861.357,15741,15870
19,20,56,64733.429000000004,64662,64840,59489.268,59414,59534,15847.143,15826,15850
31,32,56,64588.643,64276,64643,59490.357,59289,59500,15730.411,15657,15740
43,44,56,64470.304000000004,64191,64459,59410.91099999999,59246,59413,15775.357,15785,15796
55,56,56,64590.732,64379,64539,59297.232,59129,59280,15402.946000000002,15285,15394
67,68,56,64559.945999999996,64495,64497,59400.018,59148,59373,15156.589,15121,15127
79,80,56,64580.5,64344,64554,59212.28599999999,59127,59169,15325.446000000002,15171,15312
91,92,56,64911.643,64898,64910,59583.679000000004,59577,59577,15064.696000000002,15028,15050
8,9,56,31005.142999999996,22973,30964,7438.786,5697,7368,7017.429,7141,6973
20,21,56,32444.179,22583,32607,8880.696,8184,8766,7508.125,6095,7445
32,33,56,30157.482000000004,23966,30438,8983.518,7265,8835,6855.536,6062,6831
44,45,56,34513.607,28180,34876,6796.089,5959,6661,7667.196,6945,7674
56,57,56,35633.875,31486,35710,6979.143,6184,7023,7730.554,7352,7744
68,69,56,31293.857000000004,26075,31856,8131.286,8213,8035,6609.196,6835,6597
80,81,56,32465.607000000004,26275,32145,6985.107,6486,6893,7382.268,7331,7368
92,93,56,35803.018,35050,36075,6301.161,6354,6357,7490.018,7468,7501
9,10,56,65534.929000000004,65535,65535,54029.893,54129,54116,13069.0,13029,13059
21,22,56,65535.0,65535,65535,54124.03599999999,54126,54132,13236.571000000002,13103,13228
33,34,56,65535.0,65535,65535,54331.679000000004,54143,54352,13267.589,13229,13264
45,46,56,65535.0,65535,65535,54108.732,54149,54143,13087.178999999998,13050,13082
57,58,56,65534.929000000004,65535,65535,54143.53599999999,54169,54156,13058.268,13052,13052
69,70,56,65535.0,65535,65535,53648.695999999996,53766,53649,12776.607,12770,12781
81,82,56,65535.0,65535,65535,53960.875,53905,53936,12951.321000000002,12958,12958
93,94,56,65535.0,65535,65535,54235.66099999999,54238,54246,12909.071000000002,12824,12906
10,11,56,62973.570999999996,63037,63029,60629.75,60446,60618,51207.875,50687,51235
22,23,56,62941.03599999999,62422,62992,60485.107,60453,60475,51068.875,51248,51109
34,35,56,62812.518,62939,62938,60578.643,60447,60516,51270.820999999996,51124,51296
46,47,56,62497.03599999999,62333,62520,60345.83900000001,60463,60443,50990.53599999999,50889,51046
58,59,56,65535.0,65535,65535,36584.446,36571,36620,54579.0,54667,54691
70,71,56,65535.0,65535,65535,37124.339,37218,37231,54858.0,55189,55178
82,83,56,65535.0,65535,65535,36955.893,37047,37168,54850.46400000001,55225,55224
94,95,56,65535.0,65535,65535,36936.929,37034,36999,54432.232,54558,54605
11,12,56,65535.0,65535,65535,54611.679000000004,54383,54656,49219.375,48925,49143
23,24,56,65498.232,65535,65535,54166.46400000001,54273,54239,48800.768,48952,48934
35,36,56,65492.893,65535,65535,54583.804000000004,54387,54636,49242.268,46298,49336
47,48,56,65503.232,65535,65535,53929.179000000004,54016,54016,48713.320999999996,48792,48739
59,60,56,31286.304,31319,31315,13389.928999999998,13331,13394,59567.83900000001,59724,59624
71,72,56,31709.625,31855,31828,13593.411,13587,13606,59586.625,59719,59817
83,84,56,32567.25,32649,32610,13997.768,13901,14007,60489.179000000004,60697,60651
95,96,56,31859.625,31801,31908,13433.357,13339,13470,59889.195999999996,60109,60070
