 ,Pixels ,R-Mean ,R-Mode ,R-Median ,G-Mean ,G-Mode ,G-Median ,B-Mean ,B-Mode ,B-Median 
1,56,63607.857,63567,63616,58531.143,58452,58537,33172.696,33035,33178
2,56,63608.982,63540,63619,58512.518,58373,58520,33247.464,33108,33231
3,56,49906.339,49869,49924,47715.964,47691,47715,36492.732,36422,36493
4,56,63430.339,63282,63461,58641.214,58635,58635,34997.661,35028,34970
5,56,64058.232,64064,64065,63458.679,63493,63463,57476.786,57240,57501
6,56,62111.589,63627,63650,57544.089,58586,58694,33108.607,33576,33726
7,56,65460.821,65534,65501,60557.679,60517,60569,32913.196,32887,32955
8,56,63390.768,63283,63411,58262.125,58259,58259,32560.107,32537,32593
9,56,63644.75,63612,63658,58504.804,58571,58540,33427.321,33219,33422
10,56,64893.964,64937,64908,59268.518,59172,59269,32658.607,32702,32650
11,56,64999.571,64995,65022,59893.786,59875,59880,32841.661,32679,32877
12,56,64181.643,64122,64195,59260.554,59266,59266,32695.696,32715,32715
13,56,63634.964,63585,63661,58643.268,58629,58640,33394.786,33415,33407
14,56,63646.125,63647,63660,58632.768,58649,58636,33397.893,33295,33407
15,56,49188.625,49146,49185,47010.375,46926,47000,36638.464,36509,36629
16,56,62418.214,63415,63365,57853.393,58392,58453,33970.893,34106,34364
17,56,64050.107,64092,64055,63581.054,63713,63568,57941.625,57984,57993
18,56,62955.625,63640,63617,58310.929,58773,58829,33717.107,34050,34025
19,56,65204.018,65022,65243,60391.857,60381,60385,33171.714,33092,33124
20,56,63554.125,63458,63557,58324.089,58285,58309,33036.339,32886,33044
21,56,63569.839,63626,63600,58608.143,58545,58629,33954.5,33989,33987
22,56,65029.946,64782,65032,59770.321,59772,59786,32782.643,32628,32785
23,56,64901.036,64842,64916,60079.357,59995,60076,33287.679,33094,33288
24,56,63871.196,63710,63884,59469.875,59321,59487,33782.232,33772,33784
25,56,63524.929,63509,63558,58595.571,58541,58626,33364.857,33213,33401
26,56,63518.964,63444,63536,58645.375,58555,58667,33565.214,33484,33562
27,56,46780.982,46758,46793,44585.857,44523,44593,37947.75,37848,37981
28,56,63356.982,63559,63531,58464.732,58534,58608,34086.429,34120,34143
29,56,64051.286,64130,64099,63400.054,63316,63396,56068.393,56113,56084
30,56,63562.482,63500,63556,59055.357,59033,59050,34706.839,34676,34708
31,56,65282.339,65321,65299,60388.679,60331,60386,32977.643,32865,32958
32,56,63405.375,63454,63438,58368.214,58326,58383,33366.75,33311,33384
33,56,63491.339,63593,63526,58582.625,58608,58586,33923.536,33583,33911
34,56,64120.696,64225,64301,58852.357,58963,59020,32998,32964,33058
35,56,64645.125,64703,64702,59824.786,59811,59855,32978.429,33065,32980
36,56,63930.536,63795,63919,59277.75,59269,59284,33070.143,32954,33074
37,56,63618.839,63558,63641,58628.339,58540,58615,33252.518,33158,33246
38,56,63586.821,63626,63595,58826.464,58778,58824,33735.554,33713,33747
39,56,46787.25,46785,46801,44752.643,44741,44780,37983.25,38035,38009
40,56,63515.196,63455,63546,58641.75,58549,58659,34233.946,34131,34246
41,56,63491.107,63628,63500,62969.804,62816,62972,57832.036,58099,57868
42,56,63586.196,63571,63582,58927,58823,58943,34135.357,34114,34134
43,56,65122,65050,65155,60468.554,60425,60472,33221.321,33168,33225
44,56,63424.429,63259,63448,58477.464,58426,58510,33515.839,33432,33539
45,56,63475.125,63428,63482,58745.911,58634,58751,34330.018,34278,34330
46,56,64847.25,64788,64844,59577.464,59557,59591,32973.964,32925,32988
47,56,64750.643,64431,64750,59883.321,59870,59872,33056.107,32958,33048
48,56,63909.036,63892,63918,59332.625,59432,59358,33252.357,33220,33255
49,56,63636.393,63641,63641,58568.286,58502,58556,33352.821,33221,33349
50,56,63619.982,63645,63633,58559.411,58564,58564,33378.286,33307,33393
51,56,47294.25,47246,47317,45503.5,45433,45503,38286.768,38220,38295
52,56,63369.25,63242,63374,58432.804,58456,58425,34262.196,34143,34259
53,56,63952.339,63888,63980,63463.464,63452,63483,57945.268,58023,58009
54,56,62591.5,63543,63567,58246.482,58789,58907,33872.643,34240,34263
55,56,65112.679,65073,65120,60218.571,60215,60220,32601.768,32567,32611
56,56,63114.304,63184,63133,58254.982,58233,58248,33141.143,33319,33101
57,56,62972.357,62838,62970,58224.036,58231,58236,33119.5,32948,33095
58,56,64191.768,64080,64195,58842.214,58740,58850,32759.018,32559,32744
59,56,64631.321,64516,64652,59756.232,59726,59771,32626.982,32511,32619
60,56,63612.446,63657,63626,58628.75,58661,58621,32595.5,32606,32626
61,56,63633.446,63580,63639,58563.982,58346,58553,33470.429,33421,33489
62,56,63690.768,63625,63699,58585.214,58520,58574,33221.982,33293,33232
63,56,45672.875,45612,45677,43692.339,43744,43707,38226.179,38217,38225
64,56,63511.107,63535,63535,58452.268,58338,58460,34128.589,34126,34126
65,56,64040.196,64025,64029,63666.679,63651,63651,58073.589,57988,58039
66,56,63631.661,63614,63627,58760.536,58794,58756,33713.232,33669,33721
67,56,65131.196,65137,65133,60275.768,60185,60285,32952.643,32892,32968
68,56,63531.679,63600,63559,58658.107,58606,58661,34269.054,34167,34262
69,56,63631.018,63628,63632,58606,58466,58609,33763.875,33571,33800
70,56,64835.179,64784,64839,59053.107,58994,59076,32408.482,32353,32412
71,56,64755.5,64755,64755,59767.732,59737,59800,32452.929,32331,32479
72,56,63810.446,63879,63839,59140.536,59078,59167,33251.107,33134,33264
73,56,63622.839,63651,63646,58569.857,58438,58562,33553.518,33552,33562
74,56,63454.5,63457,63457,58323.536,58212,58318,33213.446,33234,33229
75,56,46944.857,46882,46947,44753.375,44792,44767,37402.339,37329,37414
76,56,63355.732,63315,63362,58616.286,58611,58611,35358.893,35218,35363
77,56,64017.018,64059,64043,63454.875,63403,63448,58959.107,58841,58957
78,56,61328.839,39817,63593,56634.125,43958,58331,32848.982,22345,33867
79,56,64683.518,64698,64697,59858,59860,59861,33266.107,33096,33269
80,56,63276.143,63416,63288,58233.839,58240,58244,33082.643,32963,33071
81,56,63406.125,63304,63429,58342.071,58294,58342,33709.946,33492,33712
82,56,64846.821,64901,64937,59380.589,59344,59459,32882.661,32926,32936
83,56,64748.036,64729,64736,59829.071,59887,59862,32723.304,32625,32717
84,56,63869.911,63829,63877,59151.446,59148,59176,33437.125,33397,33450
85,56,63534.375,63490,63537,58524.054,58474,58532,33273.982,33276,33276
86,56,63496.071,63421,63492,58426.393,58446,58438,32942.125,32910,32942
87,56,46931.5,46908,46933,44553.482,44597,44570,37170.393,37147,37160
88,56,63453.857,63517,63486,58478.839,58445,58492,34290.446,34206,34284
89,56,63936.714,63906,63939,63676.75,63356,63679,59502.857,59506,59509
90,56,63505,63569,63564,58801.464,58886,58890,34070.143,34136,34136
91,56,64927.125,64715,64930,60180.679,60116,60200,33125.893,32853,33123
92,56,63260.982,63106,63286,58253.321,58262,58260,32834.804,32797,32852
93,56,63408.518,63485,63523,58443.839,58521,58556,33451.625,33467,33570
94,56,65075.464,64868,65093,59777.714,59831,59791,32668.429,32681,32681
95,56,65355.571,65268,65352,60341.089,60304,60333,32935.429,32851,32957
96,56,63935.661,63946,63935,59328.929,59290,59321,33493.482,33460,33471
