 ,Pixels ,R-Mean ,R-Mode ,R-Median ,G-Mean ,G-Mode ,G-Median ,B-Mean ,B-Mode ,B-Median 
1,56,23036.036,22859,23053,33448.964,33485,33444,47808.839,47733,47814
2,56,22317.893,22321,22314,32627.304,32537,32635,47060.357,46992,47055
3,56,21960,21831,21941,35348.946,35271,35349,48004.518,48031,48023
4,56,22879.804,22762,22891,33322.982,33360,33338,47490.125,47423,47485
5,56,63816.321,63825,63825,63685.357,63706,63701,61702.036,61663,61721
6,56,22863.143,22757,22854,33202.821,33205,33216,47514.75,47458,47503
7,56,22515.196,22562,22544,32735.857,32773,32773,47137.821,47131,47169
8,56,22449.732,22448,22448,32681.286,32719,32686,47170.929,47092,47172
9,56,22406.25,22407,22412,32574.964,32614,32576,47163.518,47128,47174
10,56,22012.071,22017,22017,32131.089,32176,32140,46713.321,46589,46690
11,56,22620.125,22543,22613,32899.5,32852,32908,47214.107,47137,47216
12,56,22513.214,22490,22524,32596.429,32499,32605,47249.839,47218,47252
13,56,22726.714,22646,22725,32945.482,32854,32947,47449.946,47351,47458
14,56,22552.214,22442,22554,32834.643,32720,32838,47196.411,47147,47211
15,56,21510.536,21516,21509,34508.679,34558,34515,47477.768,47486,47471
16,56,22680.089,22644,22680,32949.268,32962,32990,47229.411,47320,47316
17,56,63827.786,63791,63831,63728.125,63672,63743,61712,61701,61717
18,56,22653.661,22623,22658,32927.946,32900,32940,47358.893,47290,47359
19,56,22437.25,22280,22433,32714.661,32619,32746,47170.25,47057,47192
20,56,22311.964,22269,22323,32619.786,32587,32618,47154.643,47161,47163
21,56,22723.893,22587,22731,33025.107,33023,33020,47517.375,47529,47553
22,56,22039.929,21959,22049,32246.946,32204,32240,46736.393,46579,46747
23,56,22362.554,22342,22369,32656.464,32589,32655,47036.661,47014,47035
24,56,22410.179,22318,22416,32564.625,32479,32569,47235.946,47273,47254
25,56,22674.893,22638,22664,32670.429,32669,32669,47237.214,47200,47241
26,56,22523.179,22484,22515,32781.839,32694,32782,47267.518,47185,47261
27,56,21581.554,21566,21577,34574.804,34493,34569,47531.304,47524,47524
28,56,22572.714,22529,22573,32851.5,32841,32859,47223.268,47154,47222
29,56,63755.696,63800,63800,63653.857,63695,63680,61765.607,61705,61742
30,56,23306.196,23292,23478,33912.75,34169,34141,47789,48212,48212
31,56,22735.625,22770,22747,33110.696,32891,33118,47484.196,47457,47499
32,56,22071.482,22076,22076,32040.357,31997,32053,46716.571,46652,46731
33,56,23546.143,23439,23557,34083.911,34079,34084,48223.071,48223,48223
34,56,21970.911,21991,21991,32046.75,32107,32107,46467.554,46552,46585
35,56,22519.268,22473,22515,32817.5,32738,32830,47319.339,47313,47339
36,56,22634.393,22562,22635,32670.804,32693,32671,47305.036,47313,47313
37,56,22462.321,22451,22453,32422.357,32390,32419,47051.054,47069,47066
38,56,22627.429,22692,22620,32883.839,32787,32886,47365.554,47347,47373
39,56,21560.804,21554,21564,34649.589,34728,34645,47645.286,47604,47639
40,56,23004.821,22945,23001,33309.821,33311,33319,47640.589,47592,47640
41,56,63804.339,63787,63793,63810.179,63837,63829,61819.964,61615,61808
42,56,22269.768,22237,22328,32242.446,32291,32301,46829.643,46895,46964
43,56,22596.071,22491,22584,32680.786,32596,32681,47175.214,47134,47188
44,56,22204.036,22209,22213,32132,32163,32151,46779.143,46772,46802
45,56,22586.875,22561,22575,32675.161,32643,32684,47256.375,47150,47280
46,56,22591.946,22479,22589,32936.143,32917,32954,47332.571,47291,47344
47,56,22548.536,22449,22569,32887.625,32764,32882,47384.5,47244,47360
48,56,22021.875,21898,22005,31965.929,32008,31970,46650.196,46503,46649
49,56,22473.089,22511,22482,32390.143,32326,32395,46985.821,46947,46992
50,56,22698.125,22647,22698,32902.5,32815,32896,47296.786,47324,47295
51,56,21711.304,21736,21726,34504.768,34427,34516,47496.893,47620,47533
52,56,22533.036,22434,22540,32688.732,32615,32689,47067.429,47151,47095
53,56,63703.696,63655,63712,63286.607,63340,63296,61261.768,61242,61269
54,56,22211.946,22466,22495,32027.446,32569,32522,46167.018,46981,47051
55,56,22386.107,22304,22357,32500.393,32445,32460,46928.607,46894,46923
56,56,22205.446,22229,22199,32216.821,32247,32224,46830.661,46783,46822
57,56,22608.661,22531,22614,32684.893,32717,32701,47223.429,47164,47244
58,56,22337.607,22350,22350,32429.464,32379,32421,46887.661,46905,46894
59,56,22266.571,22151,22286,32359.982,32236,32368,46845.875,46823,46843
60,56,22521.786,22526,22512,32524.75,32448,32522,47121.589,47111,47117
61,56,22563.804,22480,22562,32349.554,32423,32360,47010.893,47012,46999
62,56,22597.071,22574,22600,32680.786,32583,32683,47189.554,47137,47188
63,56,21668.696,21670,21677,34260.625,34226,34255,47451.268,47325,47440
64,56,22577.286,22605,22577,32580.75,32534,32590,47069,47112,47078
65,56,63776.589,63720,63807,63586.625,63667,63645,61639.25,61547,61659
66,56,22479.446,22434,22482,32353.804,32254,32359,46903.911,46926,46926
67,56,22518.732,22384,22419,32464.946,32222,32372,46963.304,46699,46877
68,56,22311.696,22282,22304,32226.714,32179,32232,46823.714,46789,46829
69,56,22942.214,22835,22944,33011.75,32987,33027,47460.143,47368,47465
70,56,22008.339,22068,22017,31811.464,31751,31803,46368.5,46455,46377
71,56,22629.964,22562,22629,32763.107,32542,32808,47247.857,47103,47255
72,56,22725.75,22699,22730,32604.929,32612,32612,47211.661,47126,47222
73,56,22802,22780,22797,32550.179,32548,32561,47143.875,47060,47148
74,56,22542.893,22566,22559,32419.304,32365,32418,46971.625,46926,46979
75,56,21663.839,21676,21676,34111.393,34096,34121,47302.464,47230,47310
76,56,22731.875,22694,22749,32702.482,32703,32693,47143.089,47088,47127
77,56,63637.196,63564,63642,63279.232,63124,63328,61616.161,61608,61623
78,56,22334.821,14379,22685,32126.768,32548,32573,46425.714,37282,47080
79,56,22771.804,22733,22782,32759.054,32632,32794,47112.821,47085,47103
80,56,22561.089,22597,22570,32477.625,32395,32499,46886.571,46875,46902
81,56,22581.589,22507,22570,32396.946,32382,32382,46929.518,46828,46928
82,56,22320.036,22259,22348,32209.821,32065,32230,46623.464,46602,46666
83,56,22499.214,22384,22494,32294.589,32204,32293,46959.071,46915,46952
84,56,22347.375,22378,22431,31912.071,32078,32084,46342.429,46639,46662
85,56,22801.964,22868,22810,32684.268,32537,32684,47265.911,47215,47266
86,56,22548.375,22654,22539,32496.089,32436,32492,47052.875,47117,47050
87,56,21754.786,21706,21763,34474.929,34428,34481,47632.214,47573,47642
88,56,22467.268,22629,22678,32327.089,32634,32685,46627.661,47111,47188
89,56,63805.214,63800,63805,63646,63563,63647,61553.643,61570,61570
90,56,22497.821,22569,22516,32252.214,32290,32282,46943.5,46988,47004
91,56,23095.75,22628,23077,33187.5,33082,33126,47613.286,47478,47563
92,56,22764.071,22632,22769,32723.571,32684,32746,47242.054,47322,47257
93,56,22716.768,22649,22745,32623.518,32845,32667,47213.25,47299,47307
94,56,22493.857,22452,22499,32534.357,32486,32528,47054.589,47122,47084
95,56,22579.25,22499,22580,32579.107,32481,32579,47268.268,47267,47288
96,56,22509.911,22333,22509,32278.911,32451,32286,47040.411,47004,47031
