 ,Pixels ,R-Mean ,R-Mode ,R-Median ,G-Mean ,G-Mode ,G-Median ,B-Mean ,B-Mode ,B-Median 
1,56,22306.625,22232,22321,32197.732,32318,32197,46894.732,46880,46878
2,56,23508.714,23498,23516,32256.571,32146,32270,16600.589,16583,16604
3,56,22086.286,21991,22068,32517.875,32440,32510,46832.429,46715,46821
4,56,21828.25,21883,21836,32067.464,32002,32071,46599.804,46487,46615
5,56,22618.786,22645,22615,34012.304,34015,34015,27745.571,27866,27771
6,56,23174.589,23023,23162,32796.964,32677,32790,47441.232,47200,47363
7,56,25146.054,25192,25167,31100.071,31002,31084,11336.911,11283,11336
8,56,22674.768,22838,22783,32909.839,33193,33140,32976.304,32597,33201
9,56,22318.875,22327,22522,30545.286,26182,30934,43815.571,46094,44677
10,56,21782.196,21743,21820,31010.679,30684,30985,44529.393,44000,44554
11,56,63099.393,63186,63170,63040.929,63097,63081,62961.446,62993,62987
12,56,63239.375,63222,63263,63086.125,63055,63112,62926.125,62913,62969
13,56,22263.268,22074,22258,32294.946,32259,32297,46961.482,46941,46963
14,56,23351.875,23440,23343,32185.268,32186,32184,16736.179,16756,16734
15,56,22120.821,22012,22136,32537.232,32510,32591,46802.304,46908,46913
16,56,21474.589,21393,21461,31383.071,31343,31377,46271.482,46278,46276
17,56,22600.054,22493,22601,34257.429,34194,34298,27692.375,27659,27726
18,56,22804.804,22746,22795,32905.607,32873,32894,47262.839,47477,47237
19,56,24512.875,24335,24530,30825.286,30813,30826,11358.714,11308,11361
20,56,22899.768,22996,22903,33398.911,33405,33406,33680.482,33124,33698
21,56,22008.5,22301,22037,30079.821,26152,30315,42847.054,35293,43336
22,56,22252.179,22338,22298,31323.446,31394,31338,45549.411,45911,45642
23,56,63337.696,63408,63369,63220.732,63278,63255,63137.286,63181,63170
24,56,63310.589,63237,63352,63258.804,63295,63298,63213.607,63193,63253
25,56,22251.643,22327,22335,31979.625,32195,32207,46585.25,46990,46990
26,56,23504.411,23427,23523,32379.107,32420,32370,16711.804,16632,16715
27,56,22153.732,22090,22154,32472.518,32427,32480,46855.571,46862,46868
28,56,22090.607,21987,22099,32356.821,32296,32349,46839.839,46738,46852
29,56,22737.768,22708,22734,34425.411,34416,34420,27748.143,27713,27745
30,56,22541.786,22542,22554,32735.768,32649,32754,47084.036,46967,47087
31,56,25618.125,25547,25636,31298.696,31205,31303,11142.375,11174,11149
32,56,22731.446,22778,22737,33100.571,33073,33089,33567.589,34023,33625
33,56,22219.482,22530,22378,30430.375,26808,30970,44108.339,36585,45522
34,56,22827.321,22818,22831,31825.232,30993,31853,45924.054,46127,46127
35,56,63351.357,63271,63346,63274.625,63184,63283,63331.5,63383,63354
36,56,63352.286,63296,63376,63256.321,63197,63270,63202.464,63137,63228
37,56,22466.875,22324,22479,32369.071,32365,32365,47105.893,47045,47121
38,56,23354.018,23308,23418,32101.875,32119,32126,16600.5,16548,16614
39,56,22239.946,22135,22261,32489.5,32496,32517,46907.143,46833,46945
40,56,22151.179,22141,22148,32446.464,32545,32443,46968.411,46995,46973
41,56,22661.786,22613,22653,34262.964,34295,34275,27675.643,27633,27689
42,56,23257.446,23170,23254,32592.161,32670,32632,47028.411,47019,47025
43,56,24944.732,24885,24949,30484.786,30296,30489,11134.75,11094,11133
44,56,22815.804,22840,22842,33038.429,33168,33157,33950.732,33995,33995
45,56,20099.554,18744,20174,26106.536,27704,26355,36300.536,31837,36959
46,56,22895.125,22930,23012,31433.429,31408,31451,44955.982,45990,44897
47,56,63380.804,63397,63397,63302,63143,63328,63297.536,63297,63304
48,56,63309.125,63412,63391,63199.411,63270,63274,63186.286,63299,63278
49,56,22510.214,22468,22517,32383.411,32407,32396,47078.554,47011,47088
50,56,23718.161,23624,23713,32411.125,32333,32418,16570.143,16529,16584
51,56,22209.821,22192,22209,32564.964,32599,32572,46924.196,46901,46933
52,56,21996.018,21955,21998,32072.696,31968,32089,46651.196,46650,46650
53,56,22977.071,22965,22983,34568.571,34528,34581,27969.946,27916,28001
54,56,23803.857,23682,23796,33282.393,33287,33314,47694.321,47663,47684
55,56,24870.714,24948,24867,30336.518,30202,30343,11036.107,10945,11036
56,56,22530.964,23151,23157,32755.786,33454,33532,33364.321,34001,34117
57,56,20946.518,21998,21251,27610.446,24444,28048,38237.643,33105,38718
58,56,22603.429,22571,22620,30872.125,30687,30831,44252.054,44864,44155
59,56,63238.304,63209,63251,63178.946,63200,63201,63178.929,63214,63204
60,56,63302.161,63233,63311,63248.929,63258,63255,63235.25,63189,63238
61,56,22475.036,22325,22474,32262.393,32245,32258,46962.321,46882,46956
62,56,23719.107,23673,23725,32282.857,32263,32283,16602.232,16537,16604
63,56,22168.018,22187,22176,32389.589,32364,32398,46810.482,46794,46817
64,56,21939.321,21898,21950,31960.946,32057,31978,46433.929,46481,46508
65,56,22733.857,22718,22741,33965.071,33974,33974,27837.804,27619,27842
66,56,23465.054,23353,23480,32518.893,32644,32578,46933.661,47040,47062
67,56,24874.161,24972,24867,30178.429,30038,30185,10933.929,10831,10939
68,56,23085.518,23151,23136,33080.821,33350,33287,33765.357,34336,34040
69,56,20296.75,18086,21055,26575.696,22590,27717,37035.286,30357,38526
70,56,22850.339,22956,22897,31288.214,30661,31308,45105.232,45365,45304
71,56,63011.589,63102,63102,62923.429,62958,63057,62812.482,62996,62968
72,56,62916.107,63265,63150,62806.232,63026,63090,62685.911,59641,62980
73,56,22700.607,22654,22705,32400.018,32362,32396,47005,46886,47010
74,56,23542.232,23508,23543,32088.25,32085,32089,16626.839,16623,16632
75,56,22376.946,22367,22367,32464.536,32320,32458,46759.143,46744,46757
76,56,21736.125,21751,21748,31404.411,31420,31401,46226,46161,46242
77,56,22653.179,22687,22644,33727.821,33585,33719,27538.304,27502,27550
78,56,24710.929,24691,24707,34175.946,34093,34181,48131.589,48157,48185
79,56,25143.821,25037,25135,30428.768,30262,30425,11162.821,11167,11172
80,56,22617.357,22014,22674,32346.875,30968,32528,32957.982,29589,33504
81,56,21890,19418,22184,29011.571,24145,30434,41860.679,33465,44677
82,56,22829.518,21868,22865,31245.304,31429,31383,45192.214,42530,45410
83,56,62919.732,62427,62973,62820.679,62762,62865,62761.5,62455,62805
84,56,62937.196,62991,62991,62805.839,62728,62843,62652.125,62701,62701
85,56,22644.089,22589,22635,32385.393,32401,32391,47117.214,47112,47122
86,56,23556.821,23428,23572,32112.304,32098,32104,16412.607,16470,16421
87,56,21997.286,21910,21982,32036.518,32041,32041,46555.196,46513,46549
88,56,21982.518,21755,21975,31774.214,31657,31792,46502.125,46492,46513
89,56,22865.804,21044,22893,33995.625,33970,34044,27877.589,27903,27921
90,56,23216.571,23102,23239,32358.304,32620,32398,47004.643,47155,47082
91,56,25598.75,25477,25602,31066.464,30998,31102,11065.339,11019,11062
92,56,22818.036,22890,22890,32587.786,31053,32821,33365.304,31512,33658
93,56,22131.393,22926,22222,29683.429,30442,29827,41768.5,35561,41672
94,56,22523.643,22416,22523,31658.196,31703,31667,45992.839,46166,46130
95,56,63160.661,63075,63171,63023.839,62989,63020,62961.714,62907,62953
96,56,63151.143,63028,63154,62981.214,62976,62989,62861.911,62660,62893
