 ,Pixels ,R-Mean ,R-Mode ,R-Median ,G-Mean ,G-Mode ,G-Median ,B-Mean ,B-Mode ,B-Median 
1,56,38402.929,38422,38409,40063.036,40043,40063,45439.768,45449,45449
2,56,39656.411,39589,39634,40670.304,40719,40670,15931.5,15926,15930
3,56,38715.232,38525,38717,40696.161,40626,40706,45850.429,45794,45844
4,56,38455.982,38366,38431,40169.161,40015,40154,45570.911,45440,45554
5,56,38713.339,38866,38866,41064.875,41357,41254,25942.911,25902,26079
6,56,35084.982,35025,35090,37471.143,37530,37472,43954.893,43964,43962
7,56,35577.982,35483,35537,36845.411,36878,36863,10597.929,10523,10597
8,56,35931.589,35903,35935,37880.714,37768,37920,29195.696,27759,29246
9,56,35307.732,35065,35363,34677.946,34807,34694,40054.196,39978,40040
10,56,37541.571,37647,37597,35909.143,35882,35913,40409.714,40025,40441
11,56,63241.679,63226,63318,63152.946,63306,63250,63070.357,63034,63183
12,56,63365.393,63408,63364,63293.571,63246,63287,63188.232,63129,63190
13,56,38179.589,38104,38185,39816.911,39769,39813,45360.732,45453,45368
14,56,39552.143,39535,39576,40356.554,40286,40337,15864.536,15838,15873
15,56,38773.982,38701,38769,40705.304,40612,40721,45592.893,45514,45603
16,56,38166.643,38047,38172,39663.179,39605,39674,45150.929,45129,45146
17,56,38734.411,38794,38819,41028.732,41003,41052,26365.411,26136,26383
18,56,34606.357,34941,34844,36862.518,37090,37060,43451.982,41001,43605
19,56,35257.804,21174,35551,36495.018,36642,36719,10450.161,10390,10460
20,56,35065.696,35193,35195,36758.357,36760,36920,28710.929,28438,28904
21,56,34852.321,34649,34833,34512.161,34475,34525,40208.411,39954,40213
22,56,38035.5,38081,38080,36410.857,36488,36406,40770.393,40779,40791
23,56,63500.357,63432,63497,63416.607,63411,63413,63340.446,63301,63341
24,56,63503.768,63612,63508,63403.089,63433,63436,63322.143,63235,63341
25,56,37839.125,37546,37862,39441.107,39450,39450,45003.446,44818,45006
26,56,39454.893,39312,39525,40352.339,40283,40321,15868.286,15848,15877
27,56,38373.393,38378,38375,40217.018,40120,40219,45430.679,45249,45439
28,56,38144.839,38120,38150,39680.804,39506,39692,45214.875,45145,45184
29,56,38685.393,38613,38705,40946.554,41037,40948,26043.839,26054,26049
30,56,34643.732,34596,34674,36914.5,36808,36974,43620.839,43622,43678
31,56,35527.161,35342,35520,36709.857,36613,36703,10479.179,10485,10483
32,56,33372.482,34083,33844,35591.911,32061,36176,28547.589,28664,28800
33,56,35333.339,35350,35350,34915.893,34924,34936,40366.464,39987,40399
34,56,37224.089,35759,36965,35637.018,35724,35682,39863.857,39632,39816
35,56,63425.875,63432,63432,63353.768,63341,63361,63371.929,63343,63380
36,56,63430.857,63399,63457,63349.179,63441,63394,63254.696,63244,63299
37,56,38275.143,38173,38312,39915.75,39767,39918,45406.143,45447,45413
38,56,39656.554,39578,39642,40690.018,40716,40702,15930.429,15891,15935
39,56,38352.679,38325,38374,40173.464,40146,40207,45419.339,45346,45466
40,56,38221.732,38153,38261,39745,39927,39761,45383.714,44990,45425
41,56,38750.214,38884,38761,40935.625,41147,40948,26433.375,26372,26438
42,56,33663.554,29429,34359,36017.857,36492,36492,42449.036,37943,43161
43,56,35358.571,35141,35390,36513.732,36297,36549,10484.696,10502,10501
44,56,34936.482,34933,34954,36670.554,36904,36692,29509.786,29773,29551
45,56,33913.679,33752,33920,33171.429,32662,33154,38837.964,38751,38840
46,56,37454.839,36313,37493,35836.661,35828,35828,40236.893,40194,40238
47,56,63410.554,63335,63428,63427.607,63444,63444,63451.786,63466,63471
48,56,63495.286,63415,63541,63483.071,63540,63516,63462.679,63491,63512
49,56,38425.464,38347,38412,40199,40137,40207,45295.571,45165,45345
50,56,39602.661,39598,39615,40377.732,40294,40359,15836.625,15750,15841
51,56,38437.464,38325,38414,40363.679,40320,40363,45524.732,45389,45529
52,56,38222.536,38309,38271,39698.107,39644,39719,45213.536,45108,45216
53,56,38772.929,38657,38823,40882.625,40842,40906,26423.036,26308,26439
54,56,34479.518,34289,34585,36658.054,36709,36736,43305.821,43316,43374
55,56,35429.339,35372,35434,36520.482,36406,36543,10357,10296,10364
56,56,34618.018,34816,34769,36536.054,36628,36671,29376.482,29793,29792
57,56,34569.286,34261,34566,34076.643,34012,34091,39851.643,39926,39922
58,56,37328.643,37235,37529,35699.232,35965,35805,39894.286,39641,40027
59,56,63275.804,63237,63270,63208.982,63182,63224,63199.625,63212,63212
60,56,63353.411,63327,63353,63305.482,63308,63301,63279.982,63257,63290
61,56,38007.554,30284,38416,39557.018,32682,40008,44836.036,45447,45427
62,56,39551.179,39644,39626,40355.661,40310,40379,15619.161,15562,15628
63,56,38448.518,38366,38429,40252.625,39769,40272,45382.714,45386,45386
64,56,38026.196,38020,38022,39441.054,39318,39430,44954.089,45027,44951
65,56,38830.714,38685,38844,40989.268,40838,40956,26235.036,26166,26219
66,56,35179.036,35125,35378,37442.375,35001,37658,43443.036,43862,43655
67,56,36295.464,36134,36284,37154.554,37190,37190,10476.375,10393,10478
68,56,33140.571,30469,33511,35210.518,32548,35681,28401.482,25343,28664
69,56,34091.732,34280,34280,33500.964,33694,33694,39327.464,39265,39452
70,56,37576.375,37949,37970,35919.304,36312,36241,40124.393,40663,40466
71,56,63067.107,63227,63183,62991.071,63096,63096,62900.929,62540,63028
72,56,63275.625,63251,63318,63167.571,63113,63172,63123.589,63138,63138
73,56,38425.536,38410,38426,40018.964,40026,40026,45416.268,45410,45390
74,56,39513.5,39355,39504,40295.161,40303,40304,15637.696,15630,15644
75,56,38462.089,38438,38447,40381.571,40357,40371,45517.036,45384,45523
76,56,38699.911,38874,38693,40455.982,40567,40477,45811.036,45581,45803
77,56,38944,38921,38943,40972.929,39857,40969,26386.143,26324,26383
78,56,35151.964,35107,35214,37548.554,37635,37657,43994.214,44003,44115
79,56,36211.786,36087,36177,37155.75,36885,37180,10609.982,10499,10615
80,56,32949.321,30312,33780,35029.286,32358,35661,28704.964,26433,29230
81,56,33887.054,34976,34641,33535.286,34538,34222,39321.339,39891,39902
82,56,37725.286,36038,37793,35881.143,35777,35940,40124.75,40417,40190
83,56,63126.643,63053,63170,62921.446,62881,62951,62819,62792,62864
84,56,62953.875,62371,63115,62858.875,62888,62930,62697.036,62707,62821
85,56,38398.446,38335,38434,39877.071,39830,39888,45399.196,45426,45407
86,56,39622.143,39629,39633,40418.946,40304,40405,15555.054,15570,15560
87,56,38431.589,38405,38426,40165.589,40108,40174,45459.25,45470,45464
88,56,38870.321,38848,38872,40657.786,40574,40671,46105.214,46030,46109
89,56,38955.929,38883,38933,41207.464,41273,41217,26032.768,26041,26051
90,56,35011.357,35006,35045,37106.125,37001,37135,43710.857,43762,43770
91,56,36150.589,36113,36147,37137.518,37069,37142,10378.393,10386,10376
92,56,32105.393,28092,32466,33990.464,29842,34551,28647.018,24489,29166
93,56,34301.429,34295,34689,33241.304,22723,33536,38802.732,24444,39006
94,56,37688.393,38208,38185,35862.375,33817,36168,40213.321,40987,40485
95,56,63338.071,63239,63338,63182.857,63177,63187,63106.125,63117,63117
96,56,63244.179,63297,63266,63081.929,63101,63123,63025.429,62952,63078
