 ,Pixels ,R-Mean ,R-Mode ,R-Median ,G-Mean ,G-Mode ,G-Median ,B-Mean ,B-Mode ,B-Median 
1,56,64327.5,64068,64340,31141.179,31124,31148,27821.804,27786,27827
2,56,64911.839,64806,64927,31622.232,31625,31625,10869.929,10896,10878
3,56,64139.696,64070,64125,31030.446,30993,31034,27594.214,27577,27593
4,56,62908.357,62824,62900,57861.714,57819,57858,48469.089,48419,48469
5,56,63804.125,63907,63881,31602.054,31666,31633,16976.321,16955,16984
6,56,62785.375,63200,62830,27399.018,27437,27399,28115.268,28041,28113
7,56,63529.607,63663,63637,28529.5,28498,28513,8603.071,8561,8606
8,56,62576.875,62310,62590,27265.696,27165,27288,18998.554,18887,19010
9,56,48884.732,33090,48985,19995.232,14202,19917,21627.75,14423,21478
10,56,62566.768,62659,62652,33368.107,33190,33373,31544.196,31495,31537
11,56,63257.696,63205,63270,63143.161,63087,63163,63041.089,63038,63053
12,56,63354.071,63324,63346,63223.411,63124,63227,63153.482,63093,63163
13,56,63641.964,64133,64133,31320.732,31494,31506,28154.339,28306,28306
14,56,64884.089,64851,64896,30905.589,30952,30910,10743.839,10719,10747
15,56,64074.5,64056,64087,31092.554,31079,31115,27723.268,27688,27722
16,56,62664.411,62599,62672,58481.518,58341,58482,49825.518,49802,49829
17,56,63833.696,63743,63871,31401.5,31405,31431,16981.018,16984,16992
18,56,62884.161,62870,62947,27445.286,27345,27453,28497.5,28470,28505
19,56,63397.482,63235,63388,28233.643,28137,28233,8417.071,8392,8429
20,56,62459.536,61626,62549,27270.893,27180,27276,18954.232,18563,18978
21,56,50930.393,40106,51101,20720.25,16615,20454,21273.768,17025,21035
22,56,62461.536,62432,62529,33852.696,33811,33846,31965.339,31893,31997
23,56,63493.964,63495,63509,63417.714,63253,63416,63333.875,63349,63353
24,56,63420.821,63351,63435,63403,63453,63442,63305.625,63279,63351
25,56,64320.964,64261,64322,31013.839,31012,31012,27716.768,27704,27711
26,56,64782.982,64669,64839,30916.804,30899,30951,10696.768,10568,10697
27,56,64122.911,64171,64191,30779.464,30738,30815,27425.054,27399,27462
28,56,62753.911,62676,62746,58325.107,58276,58320,49432.321,49371,49427
29,56,63975.589,63736,63974,31601.446,31560,31611,17080.286,17053,17081
30,56,62920.946,63015,62990,27803.518,27677,27824,28660.893,28705,28660
31,56,63495.911,63575,63533,28334.286,28223,28335,8383.339,8339,8388
32,56,62434.304,61751,62513,27160,27097,27171,18952.5,18767,18952
33,56,61221.643,61755,61508,26953.339,27056,27159,28345.125,28866,28469
34,56,62638.321,62852,62694,33591.911,33684,33626,31749.518,31701,31752
35,56,63449.018,63334,63442,63356.857,63271,63376,63352.232,63355,63371
36,56,63408.536,63401,63490,63435.482,63511,63490,63409.089,63350,63432
37,56,64324.179,64284,64328,30482.286,30508,30472,27346.375,27362,27348
38,56,64891.536,64912,64905,30904.411,30910,30912,10746.893,10712,10741
39,56,64176.125,64101,64264,30472.839,30478,30500,27341.375,27428,27379
40,56,62793.732,62814,62808,58167.393,58046,58161,49108.661,49026,49134
41,56,63947.339,63911,63996,31111.982,30997,31130,16881.375,16853,16885
42,56,62956.946,63165,63042,27417.946,27305,27449,27831.643,27841,27864
43,56,63532.679,63499,63575,28540.536,28561,28552,8556.286,8522,8555
44,56,62561.911,62481,62546,27276.625,27153,27275,19138.286,19126,19156
45,56,62189.161,62202,62271,29557.875,28754,29582,30866.071,30744,30801
46,56,62709.125,61369,62763,31059.179,31097,31097,29983.054,30013,30008
47,56,63508.196,63354,63491,63479.304,63489,63484,63418.946,63404,63438
48,56,63533.393,63571,63571,63474.411,63523,63523,63400.054,63418,63431
49,56,64401.089,64354,64402,31202.929,31102,31201,27849.268,27788,27861
50,56,64797.536,64830,64842,31265.714,31246,31288,10747.964,10701,10758
51,56,64224.196,64220,64220,30769.857,30656,30768,27482.679,27430,27484
52,56,62876.143,62601,62874,58393.054,58344,58388,49049.536,49096,49063
53,56,63888.071,64029,64029,31038.036,29335,31112,16907.679,16894,16937
54,56,62951.821,62648,62999,27372.589,27169,27435,28063.768,28051,28089
55,56,63510.107,63208,63611,28289.911,28264,28300,8328.321,8212,8342
56,56,60632.982,61704,61770,26209.339,26813,26794,19665.643,17548,20007
57,56,55179.786,41121,55150,22896.643,18242,23284,23532.554,18074,23196
58,56,62240.536,62667,62409,34285.964,34415,34375,32375.393,32449,32469
59,56,63588.589,63573,63600,63452.036,63402,63446,63346.643,63328,63350
60,56,63415.339,63604,63625,63318.982,63434,63515,63227.804,63358,63439
61,56,64346.821,64245,64326,30594.964,30533,30594,27394.946,27319,27393
62,56,64925.482,64943,64921,30933.875,30898,30942,10580.393,10555,10583
63,56,64165.25,64309,64259,30844.625,30814,30885,27423,27389,27469
64,56,62682.768,62884,62892,58243.482,58367,58408,49357.571,49492,49537
65,56,63994.804,63932,64080,31366.75,31318,31404,16889.357,16829,16896
66,56,63125.286,63278,63170,27397.107,27407,27407,28223.821,28206,28219
67,56,63725.25,63702,63786,28283.446,28227,28284,8162.393,8116,8163
68,56,58765.679,61838,61807,24745.429,26161,26157,19040.964,19933,19914
69,56,60818.786,55551,61359,28482.089,29183,28716,29354.929,26738,29427
70,56,62420.321,59926,62556,34440.125,34377,34426,32726.375,30969,32747
71,56,63418.464,63527,63552,63346.054,63483,63493,63163.464,63163,63288
72,56,63630.446,63621,63669,63562.536,63650,63581,63383.982,63301,63423
73,56,64517.607,64466,64509,31068.786,31011,31070,27849.036,27837,27858
74,56,64927.393,64934,64925,30909.554,30915,30911,10740.786,10764,10755
75,56,64278.161,64201,64254,30833.125,30797,30827,27514.554,27420,27509
76,56,63032.571,62964,63039,58297.982,58312,58300,48852.696,48789,48851
77,56,64111.768,64008,64121,30664.946,30596,30668,16674.357,16544,16675
78,56,60811.518,23883,63234,26353.482,27412,27397,27040.571,28056,28091
79,56,63735.696,63735,63710,28463.518,28460,28460,8619.196,8565,8643
80,56,61139.821,57559,61333,24945.357,22813,24920,20114.679,20066,20130
81,56,59799.411,52215,61066,25562.696,21280,25856,26105.482,20378,26604
82,56,62371.893,59100,62513,34402.554,34405,34460,32446,32401,32531
83,56,63662.554,63611,63738,63372.161,63528,63448,63179.268,63377,63225
84,56,63386.982,63517,63495,63275.911,63139,63320,63153.286,62896,63230
85,56,64472.143,64422,64461,30285.357,30310,30294,27023.804,27028,27028
86,56,64959.339,64880,64938,31177.464,31158,31171,10606.464,10561,10594
87,56,64360.857,64298,64338,30600.518,30589,30592,27099.054,27065,27097
88,56,62954.107,62918,62960,57894.411,57633,57902,48396.589,48401,48394
89,56,64207.089,64318,64310,30848.696,31033,30853,16631.196,16590,16650
90,56,63286.268,63296,63299,27186.036,27282,27244,28002.036,27988,28094
91,56,63840.536,63770,63756,28376.304,28316,28381,8313.071,8228,8317
92,56,62413.804,62072,62323,26169.25,26221,26219,19651.393,19751,19662
93,56,58819.589,45570,59831,25434.411,20577,25350,26626.911,20291,26816
94,56,62372.446,56539,62809,33688.107,34412,33883,31781.964,32214,32073
95,56,63665.036,63747,63747,63468.5,63514,63589,63326.179,63397,63452
96,56,63688.911,63675,63693,63590.25,63527,63601,63473.768,63279,63516
