 ,Pixels ,R-Mean ,R-Mode ,R-Median ,G-Mean ,G-Mode ,G-Median ,B-Mean ,B-Mode ,B-Median 
1,56,63799.071,63735,63802,63793.768,63735,63797,63682.982,63716,63725
2,56,63782.929,63736,63769,63783.464,63736,63777,63728.268,63736,63729
3,56,63827.446,63706,63800,63778.107,63743,63770,63620.679,63681,63627
4,56,63895.411,63870,63927,63893.214,63905,63915,63754.696,63768,63759
5,56,57317.768,65535,62857,57235.607,65535,62825,55776.946,65535,62038
6,56,63730.411,63736,63736,63749.768,63736,63746,63717.5,63736,63732
7,56,63772.768,63735,63772,63809.875,63735,63803,63739.446,63736,63731
8,56,63787.089,63736,63781,63783.929,63736,63768,63727.607,63736,63731
9,56,63736.857,63736,63736,63736.661,63736,63743,63716.75,63736,63735
10,56,63738.661,63736,63736,63739.089,63736,63736,63727.857,63736,63736
11,56,63753.714,63736,63737,63733.375,63736,63736,63731.232,63736,63736
12,56,63875.375,63801,63864,63870.839,63826,63883,63863.964,63860,63868
13,56,63914.375,63885,63924,63948.161,63884,63939,63782.893,63771,63787
14,56,63885.821,64035,63937,63933.679,63872,63923,63773.482,63757,63772
15,56,63926.911,63893,63936,63916.018,63863,63919,63646.732,63691,63688
16,56,63932.482,63925,63941,63957.536,63965,63990,63767.375,63709,63774
17,56,59038.946,65535,63690,59236.768,65535,63658,58046.857,65535,62851
18,56,63812.25,63860,63805,63866.661,63783,63856,63743.036,63716,63734
19,56,64087.607,64125,64095,64073.768,64020,64088,63898.893,63923,63910
20,56,63982.839,63956,63987,64005.411,64092,64004,63885.321,63813,63891
21,56,63839.054,63894,63852,63903.286,63861,63913,63759.893,63717,63751
22,56,63788.071,63710,63762,63815.268,63736,63810,63739.143,63736,63733
23,56,63873.768,63855,63858,63914.929,63941,63911,63804.304,63748,63796
24,56,63960.589,63909,63958,64007.089,63967,64006,63892.036,63893,63894
25,56,63862.536,63841,63867,63902.214,63912,63912,63777.75,63779,63779
26,56,63834.946,63827,63832,63876.929,63781,63872,63795.304,63723,63787
27,56,63800.143,63691,63790,63849.875,63750,63848,63597.161,63609,63613
28,56,63852.875,63922,63877,63992.839,63985,64017,63879.857,63858,63876
29,56,63437.661,65535,63700,63343.964,63632,63676,62522.839,62524,62719
30,56,63787.375,63696,63782,63870.107,63738,63881,63744.839,63712,63742
31,56,63806.929,63738,63809,63960.554,63909,63958,63839.357,63819,63838
32,56,63756.393,63738,63812,63767.821,63810,63798,63737.911,63736,63758
33,56,63798.036,63721,63797,63851.268,63795,63846,63796.179,63727,63789
34,56,63803.911,63736,63809,63808.75,63732,63814,63696.161,63720,63719
35,56,63788.125,63736,63765,63785.446,63736,63768,63753.25,63736,63739
36,56,63871.571,63790,63864,63938.036,63961,63948,63863.929,63821,63871
37,56,63859.536,63758,63858,63916.536,63918,63917,63823.929,63765,63809
38,56,63848.571,63922,63845,63901.196,63915,63915,63856,63843,63849
39,56,63754.839,63747,63774,63694.875,63749,63766,63411.893,63372,63466
40,56,63877.661,63847,63885,63920.607,63917,63932,63866.196,63899,63863
41,56,57779.857,65535,61556,58081.911,65535,61286,56726.786,31941,59946
42,56,63829.429,63734,63820,63880.214,63817,63865,63844.071,63722,63829
43,56,63857.821,63809,63845,63904.839,63890,63902,63900.25,63930,63890
44,56,63845.411,63794,63847,63865.857,63882,63880,63863.304,63920,63849
45,56,63819.732,63864,63804,63839.161,63734,63818,63832.25,63744,63827
46,56,63790.714,63767,63767,63767.232,63736,63750,63731.518,63736,63735
47,56,63738.321,63736,63741,63733.964,63736,63738,63712.143,63736,63735
48,56,63814.804,63475,63812,63841.696,63417,63840,63817.107,63736,63807
49,56,63833.518,63799,63828,63828.232,63756,63826,63731.643,63729,63735
50,56,63810.589,63903,63903,63797.714,63918,63886,63656.107,63707,63740
51,56,63837.893,63752,63833,63794.946,63748,63788,63626.036,63569,63646
52,56,63885.804,63832,63877,63863.232,63802,63854,63741.804,63723,63731
53,56,60105.179,41184,61410,59559.982,37358,61080,57805.589,25687,59479
54,56,63773.161,63733,63780,63800.625,63729,63812,63710.768,63736,63728
55,56,63447.607,63878,63811,63561.161,63803,63820,63446.107,63719,63737
56,56,63776.125,63738,63819,63779.214,63885,63832,63699.089,63853,63787
57,56,63787.036,63737,63769,63781.018,63737,63778,63755.268,63736,63745
58,56,63777.411,63736,63761,63749.232,63736,63737,63704.768,63736,63727
59,56,63584.339,63737,63737,63495.536,63736,63736,63429.357,63736,63734
60,56,63733.929,63736,63736,63720.357,63736,63737,63711.75,63736,63736
61,56,63960.536,63942,63944,63893.143,63822,63878,63713.964,63698,63713
62,56,63930.179,63894,63930,63975.196,64020,63971,63805.893,63715,63803
63,56,63832.964,63696,63820,63877.018,63790,63867,63691.839,63719,63706
64,56,63946.821,63873,64006,63866.5,63809,63901,63677.286,63705,63708
65,56,59018.714,62391,61802,59174.821,16738,61908,57551.268,16869,60075
66,56,63850.571,63699,63848,63852.946,63815,63847,63724.071,63705,63718
67,56,63964.446,63979,63979,63848.482,63779,63844,63707.107,63751,63722
68,56,63865.643,63848,63861,63928.321,63919,63940,63861.571,63853,63857
69,56,63766.232,63687,63796,63817.357,63786,63871,63732.768,63754,63762
70,56,63843.964,63721,63819,63790.964,63737,63787,63677.304,63700,63700
71,56,63772.018,63734,63761,63768.75,63740,63776,63681.321,63732,63732
72,56,63753.607,63849,63797,63762.036,63843,63822,63653.196,63716,63721
73,56,63769.321,63736,63759,63788.571,63737,63780,63734.518,63736,63733
74,56,63693.929,63726,63846,63619.964,63751,63792,63508.607,63736,63724
75,56,63746.036,63721,63735,63774.893,63743,63778,63574.732,63590,63614
76,56,63898.411,63844,63909,63814.321,63810,63832,63693.821,63714,63713
77,56,62095.946,62258,62250,62001.196,59145,62103,60482.196,55871,60635
78,56,63814.411,63762,63783,63826.179,63734,63829,63713.946,63735,63719
79,56,63834.339,63815,63825,63908.018,63799,63915,63805.304,63725,63794
80,56,63838.536,63682,63826,63907.339,63902,63907,63813.946,63776,63808
81,56,63836.286,63851,63850,63859.911,63742,63859,63747.589,63719,63735
82,56,63827.679,63741,63784,63744.589,63737,63776,63558.75,63735,63686
83,56,63608.857,63815,63840,63441.75,63734,63791,63367.036,63643,63711
84,56,63819.25,63740,63798,63791.411,63737,63796,63670.821,63731,63726
85,56,63540.75,63798,63821,63550.089,63781,63842,63414,63713,63723
86,56,63766.464,63736,63742,63760.268,63736,63747,63714.161,63736,63726
87,56,63747.911,63736,63739,63714.661,63745,63744,63528.321,63734,63595
88,56,63759.196,63736,63741,63809.893,63736,63791,63730,63736,63735
89,56,61696.554,65535,62704,61610.518,62857,62857,60506.214,62329,61948
90,56,63754,63823,63788,63832.661,63772,63845,63732.839,63728,63730
91,56,63941.411,63813,63935,63928.625,63835,63921,63811.036,63744,63810
92,56,64008.429,63860,64025,63968.321,63893,63962,63877.429,63815,63875
93,56,63977.214,63898,63988,63907.607,63919,63919,63820,63777,63811
94,56,63923.214,63773,63922,63897.732,63885,63899,63762.768,63751,63751
95,56,64022.607,63933,64023,63998.589,63954,64000,63906.696,63955,63895
96,56,63951.446,63817,63955,63923.732,63991,63926,63886.821,63808,63886
